StonyBrook/ComputerArchitecture/Homework3/hw_pipeline.vcd
$date
	Sat Nov  8 14:48:57 2025
$end
$version
	Icarus Verilog
$end
$timescale
	1ps
$end
$scope module pipeline_processor_tb $end
$var wire 1 ! done $end
$var reg 1 " clk $end
$var reg 1 # reset $end
$scope module DUT $end
$var wire 1 $ branch_taken $end
$var wire 1 % branch_taken_ex $end
$var wire 32 & branch_target_ex [31:0] $end
$var wire 1 " clk $end
$var wire 1 ! done $end
$var wire 1 ' flush_ifid $end
$var wire 32 ( initial_pc [31:0] $end
$var wire 1 ) is_jr $end
$var wire 1 * is_shift_ex $end
$var wire 1 + is_shift_id $end
$var wire 32 , jr_target [31:0] $end
$var wire 1 # reset $end
$var wire 1 - writeback_enable_wb $end
$var wire 5 . writeback_reg_wb [4:0] $end
$var wire 32 / writeback_data_wb [31:0] $end
$var wire 1 0 stall $end
$var wire 32 1 shamt_ext_id [31:0] $end
$var wire 32 2 reg_read2_id [31:0] $end
$var wire 32 3 reg_read1_id [31:0] $end
$var wire 32 4 next_pc_if [31:0] $end
$var wire 5 5 memwb_writereg_out [4:0] $end
$var wire 32 6 memwb_memread_out [31:0] $end
$var wire 32 7 memwb_link_out [31:0] $end
$var wire 32 8 memwb_aluout_out [31:0] $end
$var wire 1 9 memwb_RegWrite_out $end
$var wire 1 : memwb_MemToReg_out $end
$var wire 1 ; memwb_JAL_out $end
$var wire 1 < memwb_Halt_out $end
$var wire 32 = mem_read_data_mem [31:0] $end
$var wire 32 > jal_target [31:0] $end
$var wire 1 ? is_jal $end
$var wire 32 @ instr_if [31:0] $end
$var wire 32 A imm_or_shamt [31:0] $end
$var wire 32 B imm_ext_id [31:0] $end
$var wire 32 C ifid_next_pc_out [31:0] $end
$var wire 32 D ifid_instr_out [31:0] $end
$var wire 5 E idex_write_reg [4:0] $end
$var wire 5 F idex_rt_out [4:0] $end
$var wire 5 G idex_rs_out [4:0] $end
$var wire 32 H idex_regdata2_out [31:0] $end
$var wire 32 I idex_regdata1_out [31:0] $end
$var wire 5 J idex_rd_out [4:0] $end
$var wire 32 K idex_next_pc_out [31:0] $end
$var wire 32 L idex_link_out [31:0] $end
$var wire 32 M idex_imm_out [31:0] $end
$var wire 1 N idex_RegWrite $end
$var wire 1 O idex_RegDst $end
$var wire 1 P idex_MemWrite $end
$var wire 1 Q idex_MemToReg $end
$var wire 1 R idex_MemRead $end
$var wire 1 S idex_JAL_out $end
$var wire 1 T idex_Halt_out $end
$var wire 1 U idex_Branch $end
$var wire 1 V idex_ALUSrc $end
$var wire 4 W idex_ALUOp [3:0] $end
$var wire 5 X id_rt [4:0] $end
$var wire 5 Y id_rs [4:0] $end
$var wire 5 Z id_rd [4:0] $end
$var wire 6 [ id_opcode [5:0] $end
$var wire 16 \ id_imm [15:0] $end
$var wire 6 ] id_funct [5:0] $end
$var wire 1 ^ halt_if $end
$var wire 1 _ halt_id $end
$var wire 32 ` forward_from_memwb [31:0] $end
$var wire 5 a exmem_write_reg_out [4:0] $end
$var wire 32 b exmem_write_data_out [31:0] $end
$var wire 32 c exmem_link_out [31:0] $end
$var wire 32 d exmem_alu_result_out [31:0] $end
$var wire 1 e exmem_RegWrite_out $end
$var wire 1 f exmem_MemWrite_out $end
$var wire 1 g exmem_MemToReg_out $end
$var wire 1 h exmem_MemRead_out $end
$var wire 1 i exmem_JAL_out $end
$var wire 1 j exmem_Halt_out $end
$var wire 32 k branch_target [31:0] $end
$var wire 1 l branch_decision $end
$var wire 32 m alu_result_ex [31:0] $end
$var wire 32 n alu_input_B_pre [31:0] $end
$var wire 32 o alu_input_B [31:0] $end
$var wire 32 p alu_input_A_final [31:0] $end
$var wire 32 q alu_input_A [31:0] $end
$var wire 1 r RegWrite_id $end
$var wire 1 s RegDst_id $end
$var wire 1 t MemWrite_id $end
$var wire 1 u MemToReg_id $end
$var wire 1 v MemRead_id $end
$var wire 2 w ForwardB [1:0] $end
$var wire 2 x ForwardA [1:0] $end
$var wire 1 y ExtOp_id $end
$var wire 1 z Branch_id $end
$var wire 1 { ALUSrc_id $end
$var wire 4 | ALUOp_id [3:0] $end
$var reg 32 } alu_input_A_reg [31:0] $end
$var reg 32 ~ alu_input_Bpre_reg [31:0] $end
$var reg 32 !" pc [31:0] $end
$scope module CU $end
$var wire 6 "" funct [5:0] $end
$var wire 6 #" opcode [5:0] $end
$var reg 4 $" ALUOp [3:0] $end
$var reg 1 { ALUSrc $end
$var reg 1 z Branch $end
$var reg 1 y ExtOp $end
$var reg 1 v MemRead $end
$var reg 1 u MemToReg $end
$var reg 1 t MemWrite $end
$var reg 1 s RegDst $end
$var reg 1 r RegWrite $end
$upscope $end
$scope module EXMEM $end
$var wire 1 " clk $end
$var wire 1 # reset $end
$var wire 32 %" write_data_in [31:0] $end
$var wire 5 &" write_reg_in [4:0] $end
$var wire 32 '" link_in [31:0] $end
$var wire 32 (" alu_result_in [31:0] $end
$var wire 1 N RegWrite_in $end
$var wire 1 P MemWrite_in $end
$var wire 1 Q MemToReg_in $end
$var wire 1 R MemRead_in $end
$var wire 1 S JAL_in $end
$var wire 1 T Halt_in $end
$var reg 1 j Halt_out $end
$var reg 1 i JAL_out $end
$var reg 1 h MemRead_out $end
$var reg 1 g MemToReg_out $end
$var reg 1 f MemWrite_out $end
$var reg 1 e RegWrite_out $end
$var reg 32 )" alu_result_out [31:0] $end
$var reg 32 *" link_out [31:0] $end
$var reg 32 +" write_data_out [31:0] $end
$var reg 5 ," write_reg_out [4:0] $end
$upscope $end
$scope module FU $end
$var wire 5 -" EX_MEM_Rd [4:0] $end
$var wire 1 e EX_MEM_RegWrite $end
$var wire 1 9 MEM_WB_RegWrite $end
$var wire 5 ." MEM_WB_Rd [4:0] $end
$var wire 5 /" ID_EX_Rt [4:0] $end
$var wire 5 0" ID_EX_Rs [4:0] $end
$var reg 2 1" ForwardA [1:0] $end
$var reg 2 2" ForwardB [1:0] $end
$upscope $end
$scope module HZ $end
$var wire 5 3" IF_ID_Rs [4:0] $end
$var wire 5 4" IF_ID_Rt [4:0] $end
$var wire 1 5" is_load $end
$var wire 1 6" reg_hazard $end
$var wire 1 0 stall $end
$var wire 1 7" valid_dest $end
$var wire 1 8" rt_match $end
$var wire 1 9" rs_match $end
$var wire 5 :" ID_EX_Rt [4:0] $end
$var wire 1 R ID_EX_MemRead $end
$upscope $end
$scope module IDEX $end
$var wire 4 ;" ALUOp_in [3:0] $end
$var wire 1 { ALUSrc_in $end
$var wire 1 z Branch_in $end
$var wire 1 _ Halt_in $end
$var wire 1 ? JAL_in $end
$var wire 1 v MemRead_in $end
$var wire 1 u MemToReg_in $end
$var wire 1 t MemWrite_in $end
$var wire 1 s RegDst_in $end
$var wire 1 <" RegWrite_in $end
$var wire 1 " clk $end
$var wire 32 =" imm_in [31:0] $end
$var wire 5 >" rd_in [4:0] $end
$var wire 1 # reset $end
$var wire 5 ?" rs_in [4:0] $end
$var wire 5 @" rt_in [4:0] $end
$var wire 1 0 stall $end
$var wire 32 A" regdata2_in [31:0] $end
$var wire 32 B" regdata1_in [31:0] $end
$var wire 32 C" next_pc_in [31:0] $end
$var wire 32 D" link_in [31:0] $end
$var reg 4 E" ALUOp_out [3:0] $end
$var reg 1 V ALUSrc_out $end
$var reg 1 U Branch_out $end
$var reg 1 T Halt_out $end
$var reg 1 S JAL_out $end
$var reg 1 R MemRead_out $end
$var reg 1 Q MemToReg_out $end
$var reg 1 P MemWrite_out $end
$var reg 1 O RegDst_out $end
$var reg 1 N RegWrite_out $end
$var reg 32 F" imm_out [31:0] $end
$var reg 32 G" link_out [31:0] $end
$var reg 32 H" next_pc_out [31:0] $end
$var reg 5 I" rd_out [4:0] $end
$var reg 32 J" regdata1_out [31:0] $end
$var reg 32 K" regdata2_out [31:0] $end
$var reg 5 L" rs_out [4:0] $end
$var reg 5 M" rt_out [4:0] $end
$upscope $end
$scope module IFID $end
$var wire 1 " clk $end
$var wire 1 ' flush $end
$var wire 32 N" next_pc_in [31:0] $end
$var wire 1 # reset $end
$var wire 1 0 stall $end
$var wire 32 O" instr_in [31:0] $end
$var reg 32 P" instr_out [31:0] $end
$var reg 32 Q" next_pc_out [31:0] $end
$upscope $end
$scope module MEMWB $end
$var wire 1 j Halt_in $end
$var wire 1 i JAL_in $end
$var wire 1 g MemToReg_in $end
$var wire 1 e RegWrite_in $end
$var wire 32 R" alu_result_in [31:0] $end
$var wire 1 " clk $end
$var wire 32 S" link_in [31:0] $end
$var wire 1 # reset $end
$var wire 5 T" write_reg_in [4:0] $end
$var wire 32 U" mem_read_in [31:0] $end
$var reg 1 < Halt_out $end
$var reg 1 ; JAL_out $end
$var reg 1 : MemToReg_out $end
$var reg 1 9 RegWrite_out $end
$var reg 32 V" alu_result_out [31:0] $end
$var reg 32 W" link_out [31:0] $end
$var reg 32 X" mem_read_out [31:0] $end
$var reg 5 Y" write_reg_out [4:0] $end
$upscope $end
$scope module alu_ex $end
$var wire 32 Z" A [31:0] $end
$var wire 4 [" ALU_Sel [3:0] $end
$var wire 32 \" B [31:0] $end
$var reg 32 ]" ALU_Out [31:0] $end
$upscope $end
$scope module data_mem $end
$var wire 32 ^" addr [31:0] $end
$var wire 1 " clk $end
$var wire 32 _" readData [31:0] $end
$var wire 32 `" writeData [31:0] $end
$var wire 1 f writeEnable $end
$var integer 32 a" i [31:0] $end
$upscope $end
$scope module prog_mem $end
$var wire 32 b" pc [31:0] $end
$var wire 32 c" instruction [31:0] $end
$var reg 32 d" instruction_reg [31:0] $end
$upscope $end
$scope module regFile $end
$var wire 1 " clk $end
$var wire 32 e" readData1 [31:0] $end
$var wire 32 f" readData2 [31:0] $end
$var wire 5 g" readReg1 [4:0] $end
$var wire 5 h" readReg2 [4:0] $end
$var wire 32 i" writeData [31:0] $end
$var wire 1 - writeEnable $end
$var wire 5 j" writeReg [4:0] $end
$var integer 32 k" i [31:0] $end
$upscope $end
$upscope $end
$upscope $end
$enddefinitions $end
#0
$dumpvars
b100000 k"
b0 j"
b0 i"
b0 h"
b0 g"
b0 f"
b0 e"
b100000000010000000000000001000 d"
b100000000010000000000000001000 c"
b101000 b"
b100000000 a"
b0 `"
b0 _"
b0 ^"
b0 ]"
b0 \"
b0 ["
b0 Z"
b0 Y"
b0 X"
b0 W"
b0 V"
b0 U"
b0 T"
b0 S"
b0 R"
b0 Q"
b0 P"
b100000000010000000000000001000 O"
b101001 N"
b0 M"
b0 L"
b0 K"
b0 J"
b0 I"
b0 H"
b0 G"
b0 F"
b0 E"
b0 D"
b0 C"
b0 B"
b0 A"
b0 @"
b0 ?"
b0 >"
b0 ="
1<"
b110 ;"
b0 :"
19"
18"
07"
16"
05"
b0 4"
b0 3"
b0 2"
b0 1"
b0 0"
b0 /"
b0 ."
b0 -"
b0 ,"
b0 +"
b0 *"
b0 )"
b0 ("
b0 '"
b0 &"
b0 %"
b110 $"
b0 #"
b0 ""
b101000 !"
b0 ~
b0 }
b110 |
1{
0z
0y
b0 x
b0 w
0v
0u
0t
1s
1r
b0 q
b0 p
b0 o
b0 n
b0 m
1l
b0 k
0j
0i
0h
0g
0f
0e
b0 d
b0 c
b0 b
b0 a
b0 `
0_
0^
b0 ]
b0 \
b0 [
b0 Z
b0 Y
b0 X
b0 W
0V
0U
0T
0S
0R
0Q
0P
0O
0N
b0 M
b0 L
b0 K
b0 J
b0 I
b0 H
b0 G
b0 F
b0 E
b0 D
b0 C
b0 B
b0 A
b100000000010000000000000001000 @
0?
b0 >
b0 =
0<
0;
0:
09
b0 8
b0 7
b0 6
b0 5
b101001 4
b0 3
b0 2
b0 1
00
b0 /
b0 .
0-
b0 ,
1+
0*
0)
b101000 (
0'
b0 &
0%
0$
1#
1"
0!
$end
#5000
0"
#9000
0#
#10000
b1000 A
b1000 ="
b1000 B
0+
b0 |
b0 $"
b0 ;"
0s
1{
1r
b100000000010010000000000001111 @
b100000000010010000000000001111 O"
b100000000010010000000000001111 c"
b100000000010010000000000001111 d"
1*
08"
b1000 4"
b10000000000000001000 >
b1000 \
b1000 X
b1000 @"
b1000 h"
b1000 ]
b1000 ""
b1000 [
b1000 #"
b101010 4
b101010 N"
b101001 !"
b101001 b"
b110 W
b110 E"
b110 ["
1V
1O
1N
b101001 C
b101001 C"
b101001 D"
b101001 Q"
b100000000010000000000000001000 D
b100000000010000000000000001000 P"
1"
#15000
0"
#20000
b1111 A
b1111 ="
06"
b1111 B
b0 |
b0 $"
b0 ;"
1{
1r
b1001 4"
b10010000000000001111 >
b1111 \
b1001 X
b1001 @"
b1001 h"
b1111 ]
b1111 ""
0l
b1000 m
b1000 ("
b1000 ]"
0*
b1000 E
b1000 &"
b1000 o
b1000 \"
b10101101000010010000000000000000 @
b10101101000010010000000000000000 O"
b10101101000010010000000000000000 c"
b10101101000010010000000000000000 d"
b101010 C
b101010 C"
b101010 D"
b101010 Q"
b100000000010010000000000001111 D
b100000000010010000000000001111 P"
b101001 L
b101001 '"
b101001 G"
b0 W
b0 E"
b0 ["
0O
08"
09"
17"
b1000 F
b1000 /"
b1000 :"
b1000 M"
b1000 M
b1000 F"
b110001 &
b110001 k
b101001 K
b101001 H"
1e
b101011 4
b101011 N"
b101010 !"
b101010 b"
1"
#25000
0"
#30000
b0 A
b0 ="
0<"
b1111 m
b1111 ("
b1111 ]"
b0 B
1t
b0 |
b0 $"
b0 ;"
1{
0r
b10001101000010100000000000000000 @
b10001101000010100000000000000000 O"
b10001101000010100000000000000000 c"
b10001101000010100000000000000000 d"
1-
16"
b1001 E
b1001 &"
b1111 o
b1111 \"
b1000 3"
b1000010010000000000000000 >
b0 \
b1000 Y
b1000 ?"
b1000 g"
b0 ]
b0 ""
b101011 [
b101011 #"
b101100 4
b101100 N"
b101011 !"
b101011 b"
19
b101001 c
b101001 *"
b101001 S"
b1000 a
b1000 ,"
b1000 -"
b1000 T"
b1000 d
b1000 )"
b1000 R"
b1000 ^"
b101010 L
b101010 '"
b101010 G"
18"
b1001 F
b1001 /"
b1001 :"
b1001 M"
b1111 M
b1111 F"
b111001 &
b111001 k
b101010 K
b101010 H"
b101011 C
b101011 C"
b101011 D"
b101011 Q"
b10101101000010010000000000000000 D
b10101101000010010000000000000000 P"
1"
#35000
0"
#40000
1<"
06"
1u
1v
1r
b0 |
b0 $"
b0 ;"
1{
0t
b1000 m
b1000 ("
b1000 ]"
b1000 p
b1000 Z"
b1000 /
b1000 i"
08"
b1010 4"
b1000010100000000000000000 >
b1010 X
b1010 @"
b1010 h"
b100011 [
b100011 #"
b0 o
b0 \"
b1111 n
b1111 ~
b1111 %"
b1000 q
b1000 }
b1000 .
b1000 j"
b10 w
b10 2"
b1 x
b1 1"
b1000 `
b1001010100101100000100000 @
b1001010100101100000100000 O"
b1001010100101100000100000 c"
b1001010100101100000100000 d"
b101100 C
b101100 C"
b101100 D"
b101100 Q"
b10001101000010100000000000000000 D
b10001101000010100000000000000000 P"
b101011 L
b101011 '"
b101011 G"
1P
0N
b1000 G
b1000 0"
b1000 L"
b0 M
b0 F"
b101011 &
b101011 k
b101011 K
b101011 H"
b101010 c
b101010 *"
b101010 S"
b1001 a
b1001 ,"
b1001 -"
b1001 T"
b1111 d
b1111 )"
b1111 R"
b1111 ^"
b101001 7
b101001 W"
b1000 5
b1000 ."
b1000 Y"
b1000 8
b1000 V"
b101101 4
b101101 N"
b101100 !"
b101100 b"
1"
#45000
0"
#50000
b101100000100000 A
b101100000100000 ="
1l
b0 m
b0 ("
b0 ]"
b1111 /
b1111 i"
b0 p
b0 Z"
10
b101100000100000 B
0+
1s
b0 |
b0 $"
b0 ;"
0{
0u
0v
1r
b10001011010100000000000000010 @
b10001011010100000000000000010 O"
b10001011010100000000000000010 c"
b10001011010100000000000000010 d"
b1001 .
b1001 j"
b1111 `
b0 n
b0 ~
b0 %"
b0 q
b0 }
16"
b1010 E
b1010 &"
b0 w
b0 2"
b0 x
b0 1"
b1001 3"
b1001010100101100000100000 >
b101100000100000 \
b1011 Z
b1011 >"
b1001 Y
b1001 ?"
b1001 g"
b100000 ]
b100000 ""
b0 [
b0 #"
b101110 4
b101110 N"
b101101 !"
b101101 b"
b101010 7
b101010 W"
b1001 5
b1001 ."
b1001 Y"
b1111 8
b1111 V"
b101011 c
b101011 *"
b101011 S"
1f
0e
b1111 b
b1111 +"
b1111 `"
b1000 d
b1000 )"
b1000 R"
b1000 ^"
b101100 L
b101100 '"
b101100 G"
1Q
0P
15"
1R
1N
18"
b1010 F
b1010 /"
b1010 :"
b1010 M"
b101100 &
b101100 k
b101100 K
b101100 H"
b101101 C
b101101 C"
b101101 D"
b101101 Q"
b1001010100101100000100000 D
b1001010100101100000100000 P"
b0 ,
b0 3
b0 B"
b0 e"
1"
#55000
0"
#60000
00
b1000 /
b1000 i"
0-
b10 w
b10 2"
b1000 `
b0 L
b0 '"
b0 G"
0V
0Q
05"
0R
0N
b101100 c
b101100 *"
b101100 S"
1g
0f
1h
1e
b1010 a
b1010 ,"
b1010 -"
b1010 T"
b0 b
b0 +"
b0 `"
b0 d
b0 )"
b0 R"
b0 ^"
b101011 7
b101011 W"
09
b1000 8
b1000 V"
b1111 ,
b1111 3
b1111 B"
b1111 e"
b0 =
b0 U"
b0 _"
1"
#65000
0"
#70000
0l
b1111 m
b1111 ("
b1111 ]"
b10 A
b10 ="
0<"
b0 /
b0 i"
b1111 p
b1111 Z"
b10 B
1z
b1001 |
b1001 $"
b1001 ;"
0s
0r
b1011010010110000000100010 @
b1011010010110000000100010 O"
b1011010010110000000100010 c"
b1011010010110000000100010 d"
1-
b1010 .
b1010 j"
b0 `
b1011 E
b1011 &"
b1 w
b1 2"
b1111 q
b1111 }
b1011 3"
b1011010100000000000000010 >
b10 \
b0 Z
b0 >"
b0 ,
b0 3
b0 B"
b0 e"
b1011 Y
b1011 ?"
b1011 g"
b10 ]
b10 ""
b100 [
b100 #"
b101111 4
b101111 N"
b101110 !"
b101110 b"
b101100 7
b101100 W"
1:
19
b1010 5
b1010 ."
b1010 Y"
b0 8
b0 V"
b0 c
b0 *"
b0 S"
0g
0h
0e
b101101 L
b101101 '"
b101101 G"
1O
1N
b1011 J
b1011 I"
b1001 G
b1001 0"
b1001 L"
b101100000100000 M
b101100000100000 F"
b1111 I
b1111 J"
b101100001001101 &
b101100001001101 k
b101101 K
b101101 H"
b101110 C
b101110 C"
b101110 D"
b101110 Q"
b10001011010100000000000000010 D
b10001011010100000000000000010 P"
1"
#75000
0"
#80000
1'
b110000000100010 A
b110000000100010 ="
1<"
06"
b110000000100010 B
0+
1s
1r
b1000 |
b1000 $"
b1000 ;"
0z
1%
1$
08"
b1001 4"
b1011010010110000000100010 >
b110000000100010 \
b1100 Z
b1100 >"
b1111 2
b1111 A"
b1111 f"
b1001 X
b1001 @"
b1001 h"
b100010 ]
b100010 ""
b0 [
b0 #"
1l
b0 m
b0 ("
b0 ]"
b1010 E
b1010 &"
0-
b10 x
b10 1"
b0 w
b0 2"
b1100010111000000000100000 @
b1100010111000000000100000 O"
b1100010111000000000100000 c"
b1100010111000000000100000 d"
b101111 C
b101111 C"
b101111 D"
b101111 Q"
b1011010010110000000100010 D
b1011010010110000000100010 P"
b101110 L
b101110 '"
b101110 G"
b1001 W
b1001 E"
b1001 ["
1U
0O
0N
b0 J
b0 I"
b1011 G
b1011 0"
b1011 L"
b10 M
b10 F"
b0 I
b0 J"
b110000 &
b110000 k
b101110 K
b101110 H"
b101101 c
b101101 *"
b101101 S"
1e
b1011 a
b1011 ,"
b1011 -"
b1011 T"
b1111 d
b1111 )"
b1111 R"
b1111 ^"
b0 7
b0 W"
0:
09
b110000 4
b110000 N"
b101111 !"
b101111 b"
1"
#85000
0"
#90000
0'
b0 A
b0 ="
1+
1^
b1111 /
b1111 i"
b1111 o
b1111 \"
b1111 p
b1111 Z"
b0 B
1{
b110 |
b110 $"
b110 ;"
1s
1r
b11111100000000000000000000000000 @
b11111100000000000000000000000000 O"
b11111100000000000000000000000000 c"
b11111100000000000000000000000000 d"
1-
b1011 .
b1011 j"
b1111 `
1l
b0 m
b0 ("
b0 ]"
0%
0$
b1100 E
b1100 &"
b1 x
b1 1"
b1111 n
b1111 ~
b1111 %"
b1111 q
b1111 }
b0 4"
b0 3"
b0 >
b0 \
b0 Z
b0 >"
b0 2
b0 A"
b0 f"
b0 X
b0 @"
b0 h"
b0 Y
b0 ?"
b0 g"
b0 ]
b0 ""
b110001 4
b110001 N"
b110000 !"
b110000 b"
b101101 7
b101101 W"
19
b1011 5
b1011 ."
b1011 Y"
b1111 8
b1111 V"
b101110 c
b101110 *"
b101110 S"
0e
b1010 a
b1010 ,"
b1010 -"
b1010 T"
b0 d
b0 )"
b0 R"
b0 ^"
b101111 L
b101111 '"
b101111 G"
b1000 W
b1000 E"
b1000 ["
0U
1O
1N
b1100 J
b1100 I"
08"
b1001 F
b1001 /"
b1001 :"
b1001 M"
b110000000100010 M
b110000000100010 F"
b1111 H
b1111 K"
b110000001010001 &
b110000001010001 k
b101111 K
b101111 H"
b0 C
b0 C"
b0 D"
b0 Q"
b0 D
b0 P"
1"
#95000
0"
#100000
0<"
0+
b1111 |
b1111 $"
b1111 ;"
0s
0{
0r
b0 p
b0 Z"
b0 /
b0 i"
1_
b111111 [
b111111 #"
1l
b0 m
b0 ("
b0 ]"
1*
b0 o
b0 \"
b0 E
b0 &"
16"
b0 n
b0 ~
b0 %"
b0 q
b0 }
0-
b1010 .
b1010 j"
b0 x
b0 1"
b0 `
b110001 C
b110001 C"
b110001 D"
b110001 Q"
b11111100000000000000000000000000 D
b11111100000000000000000000000000 P"
b0 L
b0 '"
b0 G"
b110 W
b110 E"
b110 ["
1V
b0 J
b0 I"
18"
19"
07"
b0 F
b0 /"
b0 :"
b0 M"
b0 G
b0 0"
b0 L"
b0 M
b0 F"
b0 H
b0 K"
b0 &
b0 k
b0 K
b0 H"
b101111 c
b101111 *"
b101111 S"
1e
b1100 a
b1100 ,"
b1100 -"
b1100 T"
b1111 b
b1111 +"
b1111 `"
b101110 7
b101110 W"
09
b1010 5
b1010 ."
b1010 Y"
b0 8
b0 V"
1"
#105000
0"
#110000
1-
b1100 .
b1100 j"
0*
b101111 7
b101111 W"
19
b1100 5
b1100 ."
b1100 Y"
b0 c
b0 *"
b0 S"
b0 a
b0 ,"
b0 -"
b0 T"
b0 b
b0 +"
b0 `"
b110001 L
b110001 '"
b110001 G"
1T
b1111 W
b1111 E"
b1111 ["
0V
0O
0N
b110001 &
b110001 k
b110001 K
b110001 H"
1"
#115000
0"
#120000
b0 .
b0 j"
b110001 c
b110001 *"
b110001 S"
1j
0e
b0 7
b0 W"
b0 5
b0 ."
b0 Y"
1"
#125000
0"
#130000
0-
b110001 7
b110001 W"
1!
1<
09
1"
