StonyBrook/ComputerArchitecture/Homework3/hw_pipeline.vcd
$date
	Thu Nov  6 22:13:30 2025
$end
$version
	Icarus Verilog
$end
$timescale
	1ps
$end
$scope module pipeline_processor_tb $end
$var wire 1 ! done $end
$var reg 1 " clk $end
$var reg 1 # reset $end
$scope module DUT $end
$var wire 32 $ alu_input_A [31:0] $end
$var wire 1 % branch_taken_ex $end
$var wire 32 & branch_target_ex [31:0] $end
$var wire 1 " clk $end
$var wire 1 ! done $end
$var wire 1 ' flush_ifid $end
$var wire 32 ( initial_pc [31:0] $end
$var wire 1 # reset $end
$var wire 1 ) writeback_enable_wb $end
$var wire 5 * writeback_reg_wb [4:0] $end
$var wire 32 + writeback_data_wb [31:0] $end
$var wire 1 , stall $end
$var wire 32 - reg_read2_id [31:0] $end
$var wire 32 . reg_read1_id [31:0] $end
$var wire 32 / next_pc_if [31:0] $end
$var wire 5 0 memwb_writereg_out [4:0] $end
$var wire 32 1 memwb_memread_out [31:0] $end
$var wire 32 2 memwb_link_out [31:0] $end
$var wire 32 3 memwb_aluout_out [31:0] $end
$var wire 1 4 memwb_RegWrite_out $end
$var wire 1 5 memwb_MemToReg_out $end
$var wire 1 6 memwb_JAL_out $end
$var wire 1 7 memwb_Halt_out $end
$var wire 32 8 mem_read_data_mem [31:0] $end
$var wire 32 9 jal_target [31:0] $end
$var wire 1 : is_jal $end
$var wire 32 ; instr_if [31:0] $end
$var wire 32 < imm_ext_id [31:0] $end
$var wire 32 = ifid_next_pc_out [31:0] $end
$var wire 32 > ifid_instr_out [31:0] $end
$var wire 5 ? idex_write_reg [4:0] $end
$var wire 5 @ idex_rt_out [4:0] $end
$var wire 5 A idex_rs_out [4:0] $end
$var wire 32 B idex_regdata2_out [31:0] $end
$var wire 32 C idex_regdata1_out [31:0] $end
$var wire 5 D idex_rd_out [4:0] $end
$var wire 32 E idex_next_pc_out [31:0] $end
$var wire 32 F idex_link_out [31:0] $end
$var wire 32 G idex_imm_out [31:0] $end
$var wire 1 H idex_RegWrite $end
$var wire 1 I idex_RegDst $end
$var wire 1 J idex_MemWrite $end
$var wire 1 K idex_MemToReg $end
$var wire 1 L idex_MemRead $end
$var wire 1 M idex_JAL_out $end
$var wire 1 N idex_Halt_out $end
$var wire 1 O idex_Branch $end
$var wire 1 P idex_ALUSrc $end
$var wire 4 Q idex_ALUOp [3:0] $end
$var wire 5 R id_rt [4:0] $end
$var wire 5 S id_rs [4:0] $end
$var wire 5 T id_rd [4:0] $end
$var wire 6 U id_opcode [5:0] $end
$var wire 16 V id_imm [15:0] $end
$var wire 6 W id_funct [5:0] $end
$var wire 1 X halt_if $end
$var wire 1 Y halt_id $end
$var wire 32 Z forward_from_memwb [31:0] $end
$var wire 5 [ exmem_write_reg_out [4:0] $end
$var wire 32 \ exmem_write_data_out [31:0] $end
$var wire 32 ] exmem_link_out [31:0] $end
$var wire 32 ^ exmem_alu_result_out [31:0] $end
$var wire 1 _ exmem_RegWrite_out $end
$var wire 1 ` exmem_MemWrite_out $end
$var wire 1 a exmem_MemToReg_out $end
$var wire 1 b exmem_MemRead_out $end
$var wire 1 c exmem_JAL_out $end
$var wire 1 d exmem_Halt_out $end
$var wire 32 e alu_result_ex [31:0] $end
$var wire 32 f alu_input_B_pre [31:0] $end
$var wire 32 g alu_input_B [31:0] $end
$var wire 1 h RegWrite_id $end
$var wire 1 i RegDst_id $end
$var wire 1 j MemWrite_id $end
$var wire 1 k MemToReg_id $end
$var wire 1 l MemRead_id $end
$var wire 2 m ForwardB [1:0] $end
$var wire 2 n ForwardA [1:0] $end
$var wire 1 o ExtOp_id $end
$var wire 1 p Branch_id $end
$var wire 1 q ALUSrc_id $end
$var wire 4 r ALUOp_id [3:0] $end
$var reg 32 s alu_input_A_reg [31:0] $end
$var reg 32 t alu_input_Bpre_reg [31:0] $end
$var reg 32 u pc [31:0] $end
$scope module CU $end
$var wire 6 v funct [5:0] $end
$var wire 6 w opcode [5:0] $end
$var reg 4 x ALUOp [3:0] $end
$var reg 1 q ALUSrc $end
$var reg 1 p Branch $end
$var reg 1 o ExtOp $end
$var reg 1 l MemRead $end
$var reg 1 k MemToReg $end
$var reg 1 j MemWrite $end
$var reg 1 i RegDst $end
$var reg 1 h RegWrite $end
$upscope $end
$scope module EXMEM $end
$var wire 1 " clk $end
$var wire 1 # reset $end
$var wire 5 y write_reg_in [4:0] $end
$var wire 32 z write_data_in [31:0] $end
$var wire 32 { link_in [31:0] $end
$var wire 32 | alu_result_in [31:0] $end
$var wire 1 H RegWrite_in $end
$var wire 1 J MemWrite_in $end
$var wire 1 K MemToReg_in $end
$var wire 1 L MemRead_in $end
$var wire 1 M JAL_in $end
$var wire 1 N Halt_in $end
$var reg 1 d Halt_out $end
$var reg 1 c JAL_out $end
$var reg 1 b MemRead_out $end
$var reg 1 a MemToReg_out $end
$var reg 1 ` MemWrite_out $end
$var reg 1 _ RegWrite_out $end
$var reg 32 } alu_result_out [31:0] $end
$var reg 32 ~ link_out [31:0] $end
$var reg 32 !" write_data_out [31:0] $end
$var reg 5 "" write_reg_out [4:0] $end
$upscope $end
$scope module FU $end
$var wire 5 #" EX_MEM_Rd [4:0] $end
$var wire 1 _ EX_MEM_RegWrite $end
$var wire 1 4 MEM_WB_RegWrite $end
$var wire 5 $" MEM_WB_Rd [4:0] $end
$var wire 5 %" ID_EX_Rt [4:0] $end
$var wire 5 &" ID_EX_Rs [4:0] $end
$var reg 2 '" ForwardA [1:0] $end
$var reg 2 (" ForwardB [1:0] $end
$upscope $end
$scope module HZ $end
$var wire 5 )" IF_ID_Rs [4:0] $end
$var wire 5 *" IF_ID_Rt [4:0] $end
$var wire 1 +" is_load $end
$var wire 1 ," reg_hazard $end
$var wire 1 , stall $end
$var wire 1 -" valid_dest $end
$var wire 1 ." rt_match $end
$var wire 1 /" rs_match $end
$var wire 5 0" ID_EX_Rt [4:0] $end
$var wire 1 L ID_EX_MemRead $end
$upscope $end
$scope module IDEX $end
$var wire 4 1" ALUOp_in [3:0] $end
$var wire 1 q ALUSrc_in $end
$var wire 1 p Branch_in $end
$var wire 1 Y Halt_in $end
$var wire 1 : JAL_in $end
$var wire 1 l MemRead_in $end
$var wire 1 k MemToReg_in $end
$var wire 1 j MemWrite_in $end
$var wire 1 i RegDst_in $end
$var wire 1 2" RegWrite_in $end
$var wire 1 " clk $end
$var wire 32 3" imm_in [31:0] $end
$var wire 5 4" rd_in [4:0] $end
$var wire 1 # reset $end
$var wire 5 5" rs_in [4:0] $end
$var wire 5 6" rt_in [4:0] $end
$var wire 1 , stall $end
$var wire 32 7" regdata2_in [31:0] $end
$var wire 32 8" regdata1_in [31:0] $end
$var wire 32 9" next_pc_in [31:0] $end
$var wire 32 :" link_in [31:0] $end
$var reg 4 ;" ALUOp_out [3:0] $end
$var reg 1 P ALUSrc_out $end
$var reg 1 O Branch_out $end
$var reg 1 N Halt_out $end
$var reg 1 M JAL_out $end
$var reg 1 L MemRead_out $end
$var reg 1 K MemToReg_out $end
$var reg 1 J MemWrite_out $end
$var reg 1 I RegDst_out $end
$var reg 1 H RegWrite_out $end
$var reg 32 <" imm_out [31:0] $end
$var reg 32 =" link_out [31:0] $end
$var reg 32 >" next_pc_out [31:0] $end
$var reg 5 ?" rd_out [4:0] $end
$var reg 32 @" regdata1_out [31:0] $end
$var reg 32 A" regdata2_out [31:0] $end
$var reg 5 B" rs_out [4:0] $end
$var reg 5 C" rt_out [4:0] $end
$upscope $end
$scope module IFID $end
$var wire 1 " clk $end
$var wire 1 ' flush $end
$var wire 32 D" next_pc_in [31:0] $end
$var wire 1 # reset $end
$var wire 1 , stall $end
$var wire 32 E" instr_in [31:0] $end
$var reg 32 F" instr_out [31:0] $end
$var reg 32 G" next_pc_out [31:0] $end
$upscope $end
$scope module MEMWB $end
$var wire 1 d Halt_in $end
$var wire 1 c JAL_in $end
$var wire 1 a MemToReg_in $end
$var wire 1 _ RegWrite_in $end
$var wire 32 H" alu_result_in [31:0] $end
$var wire 1 " clk $end
$var wire 32 I" link_in [31:0] $end
$var wire 1 # reset $end
$var wire 5 J" write_reg_in [4:0] $end
$var wire 32 K" mem_read_in [31:0] $end
$var reg 1 7 Halt_out $end
$var reg 1 6 JAL_out $end
$var reg 1 5 MemToReg_out $end
$var reg 1 4 RegWrite_out $end
$var reg 32 L" alu_result_out [31:0] $end
$var reg 32 M" link_out [31:0] $end
$var reg 32 N" mem_read_out [31:0] $end
$var reg 5 O" write_reg_out [4:0] $end
$upscope $end
$scope module alu_ex $end
$var wire 32 P" A [31:0] $end
$var wire 4 Q" ALU_Sel [3:0] $end
$var wire 32 R" B [31:0] $end
$var reg 32 S" ALU_Out [31:0] $end
$upscope $end
$scope module data_mem $end
$var wire 32 T" addr [31:0] $end
$var wire 1 " clk $end
$var wire 32 U" readData [31:0] $end
$var wire 32 V" writeData [31:0] $end
$var wire 1 ` writeEnable $end
$var integer 32 W" i [31:0] $end
$upscope $end
$scope module prog_mem $end
$var wire 32 X" pc [31:0] $end
$var wire 32 Y" instruction [31:0] $end
$var reg 32 Z" instruction_reg [31:0] $end
$upscope $end
$scope module regFile $end
$var wire 1 " clk $end
$var wire 32 [" readData1 [31:0] $end
$var wire 32 \" readData2 [31:0] $end
$var wire 5 ]" readReg1 [4:0] $end
$var wire 5 ^" readReg2 [4:0] $end
$var wire 32 _" writeData [31:0] $end
$var wire 1 ) writeEnable $end
$var wire 5 `" writeReg [4:0] $end
$var integer 32 a" i [31:0] $end
$upscope $end
$upscope $end
$upscope $end
$enddefinitions $end
#0
$dumpvars
b100000 a"
b0 `"
b0 _"
b0 ^"
b0 ]"
b0 \"
b0 ["
b100000000001000000000000000110 Z"
b100000000001000000000000000110 Y"
b10100 X"
b100000000 W"
b0 V"
b0 U"
b0 T"
b0 S"
b0 R"
b0 Q"
b0 P"
b0 O"
b0 N"
b0 M"
b0 L"
b0 K"
b0 J"
b0 I"
b0 H"
b0 G"
b0 F"
b100000000001000000000000000110 E"
b10101 D"
b0 C"
b0 B"
b0 A"
b0 @"
b0 ?"
b0 >"
b0 ="
b0 <"
b0 ;"
b0 :"
b0 9"
b0 8"
b0 7"
b0 6"
b0 5"
b0 4"
b0 3"
12"
b110 1"
b0 0"
1/"
1."
0-"
1,"
0+"
b0 *"
b0 )"
b0 ("
b0 '"
b0 &"
b0 %"
b0 $"
b0 #"
b0 ""
b0 !"
b0 ~
b0 }
b0 |
b0 {
b0 z
b0 y
b110 x
b0 w
b0 v
b10100 u
b0 t
b0 s
b110 r
0q
0p
0o
b0 n
b0 m
0l
0k
0j
1i
1h
b0 g
b0 f
b0 e
0d
0c
0b
0a
0`
0_
b0 ^
b0 ]
b0 \
b0 [
b0 Z
0Y
0X
b0 W
b0 V
b0 U
b0 T
b0 S
b0 R
b0 Q
0P
0O
0N
0M
0L
0K
0J
0I
0H
b0 G
b0 F
b0 E
b0 D
b0 C
b0 B
b0 A
b0 @
b0 ?
b0 >
b0 =
b0 <
b100000000001000000000000000110 ;
0:
b0 9
b0 8
07
06
05
04
b0 3
b0 2
b0 1
b0 0
b10101 /
b0 .
b0 -
0,
b0 +
b0 *
0)
b10100 (
0'
b0 &
0%
b0 $
1#
1"
0!
$end
#5000
0"
#10000
1"
#12000
0#
#15000
0"
#20000
b110 <
b110 3"
1q
b0 r
b0 x
b0 1"
0i
1h
0."
b100 *"
b1000000000000000110 9
b110 V
b100 R
b100 6"
b100 ^"
b110 W
b110 v
b1000 U
b1000 w
b1100000000000000000000010100 ;
b1100000000000000000000010100 E"
b1100000000000000000000010100 Y"
b1100000000000000000000010100 Z"
b10101 =
b10101 9"
b10101 :"
b10101 G"
b100000000001000000000000000110 >
b100000000001000000000000000110 F"
b110 Q
b110 ;"
b110 Q"
1I
1H
b10110 /
b10110 D"
b10101 u
b10101 X"
1"
#25000
0"
#30000
b10100 <
b10100 3"
1'
b1111 r
b1111 x
b1111 1"
0q
0h
b10101100010000100000000000000000 ;
b10101100010000100000000000000000 E"
b10101100010000100000000000000000 Y"
b10101100010000100000000000000000 Z"
b110 e
b110 |
b110 S"
b110 g
b110 R"
b100 ?
b100 y
0,"
b0 *"
b10100 9
b10100 V
b0 R
b0 6"
b0 ^"
b10100 W
b10100 v
1:
b11 U
b11 w
b10111 /
b10111 D"
b10110 u
b10110 X"
1_
b10101 F
b10101 {
b10101 ="
b0 Q
b0 ;"
b0 Q"
1P
0I
0."
0/"
1-"
b100 @
b100 %"
b100 0"
b100 C"
b110 G
b110 <"
b10101 E
b10101 >"
b10110 =
b10110 9"
b10110 :"
b10110 G"
b1100000000000000000000010100 >
b1100000000000000000000010100 F"
1"
#35000
0"
#40000
b0 <
b0 3"
0'
b110 r
b110 x
b110 1"
1i
1h
b0 9
b0 V
b0 W
b0 v
0:
b0 U
b0 w
b0 e
b0 |
b0 S"
1,"
b0 ?
b0 y
b0 g
b0 R"
1)
b100000000001000000000000000110 ;
b100000000001000000000000000110 E"
b100000000001000000000000000110 Y"
b100000000001000000000000000110 Z"
b0 =
b0 9"
b0 :"
b0 G"
b0 >
b0 F"
b10110 F
b10110 {
b10110 ="
1M
b1111 Q
b1111 ;"
b1111 Q"
0P
1."
1/"
0-"
b0 @
b0 %"
b0 0"
b0 C"
b10100 G
b10100 <"
b10110 E
b10110 >"
b10101 ]
b10101 ~
b10101 I"
b100 [
b100 ""
b100 #"
b100 J"
b110 ^
b110 }
b110 H"
b110 T"
14
b10101 /
b10101 D"
b10100 u
b10100 X"
1"
#45000
0"
#50000
b110 +
b110 _"
b110 <
b110 3"
1q
b0 r
b0 x
b0 1"
0i
1h
b1100000000000000000000010100 ;
b1100000000000000000000010100 E"
b1100000000000000000000010100 Y"
b1100000000000000000000010100 Z"
b100 *
b100 `"
b110 Z
0."
b100 *"
b1000000000000000110 9
b110 V
b100 R
b100 6"
b100 ^"
b110 W
b110 v
b1000 U
b1000 w
b10110 /
b10110 D"
b10101 u
b10101 X"
b10101 2
b10101 M"
b100 0
b100 $"
b100 O"
b110 3
b110 L"
b10110 ]
b10110 ~
b10110 I"
1c
b0 [
b0 ""
b0 #"
b0 J"
b0 ^
b0 }
b0 H"
b0 T"
b0 F
b0 {
b0 ="
0M
b110 Q
b110 ;"
b110 Q"
1I
b0 G
b0 <"
b0 E
b0 >"
b10101 =
b10101 9"
b10101 :"
b10101 G"
b100000000001000000000000000110 >
b100000000001000000000000000110 F"
1"
#55000
0"
#60000
0,"
b10100 <
b10100 3"
1'
b1111 r
b1111 x
b1111 1"
0q
0h
b0 *"
b10100 9
b10100 V
b0 R
b0 6"
b0 ^"
b10100 W
b10100 v
1:
b11 U
b11 w
b110 e
b110 |
b110 S"
b110 g
b110 R"
b100 ?
b100 y
b10110 +
b10110 _"
b11111 *
b11111 `"
b0 Z
b10101100010000100000000000000000 ;
b10101100010000100000000000000000 E"
b10101100010000100000000000000000 Y"
b10101100010000100000000000000000 Z"
b10110 =
b10110 9"
b10110 :"
b10110 G"
b1100000000000000000000010100 >
b1100000000000000000000010100 F"
b10101 F
b10101 {
b10101 ="
b0 Q
b0 ;"
b0 Q"
1P
0I
0."
0/"
1-"
b100 @
b100 %"
b100 0"
b100 C"
b110 G
b110 <"
b10101 E
b10101 >"
b0 ]
b0 ~
b0 I"
0c
b10110 2
b10110 M"
16
b0 0
b0 $"
b0 O"
b0 3
b0 L"
b10111 /
b10111 D"
b10110 u
b10110 X"
b0 -
b0 7"
b0 \"
1"
#65000
0"
#70000
b0 <
b0 3"
0'
b110 r
b110 x
b110 1"
1i
1h
b100000000001000000000000000110 ;
b100000000001000000000000000110 E"
b100000000001000000000000000110 Y"
b100000000001000000000000000110 Z"
b0 *
b0 `"
b0 +
b0 _"
b0 e
b0 |
b0 S"
1,"
b0 ?
b0 y
b0 g
b0 R"
b0 9
b0 V
b0 W
b0 v
0:
b0 U
b0 w
b10101 /
b10101 D"
b10100 u
b10100 X"
b0 2
b0 M"
06
b10101 ]
b10101 ~
b10101 I"
b100 [
b100 ""
b100 #"
b100 J"
b110 ^
b110 }
b110 H"
b110 T"
b10110 F
b10110 {
b10110 ="
1M
b1111 Q
b1111 ;"
b1111 Q"
0P
1."
1/"
0-"
b0 @
b0 %"
b0 0"
b0 C"
b10100 G
b10100 <"
b10110 E
b10110 >"
b0 =
b0 9"
b0 :"
b0 G"
b0 >
b0 F"
1"
#75000
0"
#80000
b110 <
b110 3"
1q
b0 r
b0 x
b0 1"
0i
1h
b110 +
b110 _"
0."
b100 *"
b1000000000000000110 9
b110 V
b110 -
b110 7"
b110 \"
b100 R
b100 6"
b100 ^"
b110 W
b110 v
b1000 U
b1000 w
b100 *
b100 `"
b110 Z
b1100000000000000000000010100 ;
b1100000000000000000000010100 E"
b1100000000000000000000010100 Y"
b1100000000000000000000010100 Z"
b10101 =
b10101 9"
b10101 :"
b10101 G"
b100000000001000000000000000110 >
b100000000001000000000000000110 F"
b0 F
b0 {
b0 ="
0M
b110 Q
b110 ;"
b110 Q"
1I
b0 G
b0 <"
b0 E
b0 >"
b10110 ]
b10110 ~
b10110 I"
1c
b0 [
b0 ""
b0 #"
b0 J"
b0 ^
b0 }
b0 H"
b0 T"
b10101 2
b10101 M"
b100 0
b100 $"
b100 O"
b110 3
b110 L"
b10110 /
b10110 D"
b10101 u
b10101 X"
1"
#85000
0"
#90000
b10100 <
b10100 3"
1'
b1111 r
b1111 x
b1111 1"
0q
0h
b10101100010000100000000000000000 ;
b10101100010000100000000000000000 E"
b10101100010000100000000000000000 Y"
b10101100010000100000000000000000 Z"
b10110 +
b10110 _"
b11111 *
b11111 `"
b0 Z
b110 e
b110 |
b110 S"
b110 g
b110 R"
b100 ?
b100 y
0,"
b110 f
b110 t
b0 *"
b10100 9
b10100 V
b0 -
b0 7"
b0 \"
b0 R
b0 6"
b0 ^"
b10100 W
b10100 v
1:
b11 U
b11 w
b10111 /
b10111 D"
b10110 u
b10110 X"
b10110 2
b10110 M"
16
b0 0
b0 $"
b0 O"
b0 3
b0 L"
b0 ]
b0 ~
b0 I"
0c
b10101 F
b10101 {
b10101 ="
b0 Q
b0 ;"
b0 Q"
1P
0I
0."
0/"
1-"
b100 @
b100 %"
b100 0"
b100 C"
b110 G
b110 <"
b110 B
b110 z
b110 A"
b10101 E
b10101 >"
b10110 =
b10110 9"
b10110 :"
b10110 G"
b1100000000000000000000010100 >
b1100000000000000000000010100 F"
1"
#95000
0"
#100000
b0 <
b0 3"
0'
b110 r
b110 x
b110 1"
1i
1h
b0 9
b0 V
b0 W
b0 v
0:
b0 U
b0 w
b0 e
b0 |
b0 S"
1,"
b0 ?
b0 y
b0 g
b0 R"
b0 f
b0 t
b0 *
b0 `"
b0 +
b0 _"
b100000000001000000000000000110 ;
b100000000001000000000000000110 E"
b100000000001000000000000000110 Y"
b100000000001000000000000000110 Z"
b0 =
b0 9"
b0 :"
b0 G"
b0 >
b0 F"
b10110 F
b10110 {
b10110 ="
1M
b1111 Q
b1111 ;"
b1111 Q"
0P
1."
1/"
0-"
b0 @
b0 %"
b0 0"
b0 C"
b10100 G
b10100 <"
b0 B
b0 z
b0 A"
b10110 E
b10110 >"
b10101 ]
b10101 ~
b10101 I"
b100 [
b100 ""
b100 #"
b100 J"
b110 \
b110 !"
b110 V"
b110 ^
b110 }
b110 H"
b110 T"
b0 2
b0 M"
06
b10101 /
b10101 D"
b10100 u
b10100 X"
1"
#105000
0"
#110000
b110 +
b110 _"
b110 <
b110 3"
1q
b0 r
b0 x
b0 1"
0i
1h
b1100000000000000000000010100 ;
b1100000000000000000000010100 E"
b1100000000000000000000010100 Y"
b1100000000000000000000010100 Z"
b100 *
b100 `"
b110 Z
0."
b100 *"
b1000000000000000110 9
b110 V
b110 -
b110 7"
b110 \"
b100 R
b100 6"
b100 ^"
b110 W
b110 v
b1000 U
b1000 w
b10110 /
b10110 D"
b10101 u
b10101 X"
b10101 2
b10101 M"
b100 0
b100 $"
b100 O"
b110 3
b110 L"
b10110 ]
b10110 ~
b10110 I"
1c
b0 [
b0 ""
b0 #"
b0 J"
b0 \
b0 !"
b0 V"
b0 ^
b0 }
b0 H"
b0 T"
b0 F
b0 {
b0 ="
0M
b110 Q
b110 ;"
b110 Q"
1I
b0 G
b0 <"
b0 E
b0 >"
b10101 =
b10101 9"
b10101 :"
b10101 G"
b100000000001000000000000000110 >
b100000000001000000000000000110 F"
1"
#115000
0"
#120000
0,"
b10100 <
b10100 3"
1'
b1111 r
b1111 x
b1111 1"
0q
0h
b0 *"
b10100 9
b10100 V
b0 -
b0 7"
b0 \"
b0 R
b0 6"
b0 ^"
b10100 W
b10100 v
1:
b11 U
b11 w
b110 e
b110 |
b110 S"
b110 g
b110 R"
b100 ?
b100 y
b110 f
b110 t
b10110 +
b10110 _"
b11111 *
b11111 `"
b0 Z
b10101100010000100000000000000000 ;
b10101100010000100000000000000000 E"
b10101100010000100000000000000000 Y"
b10101100010000100000000000000000 Z"
b10110 =
b10110 9"
b10110 :"
b10110 G"
b1100000000000000000000010100 >
b1100000000000000000000010100 F"
b10101 F
b10101 {
b10101 ="
b0 Q
b0 ;"
b0 Q"
1P
0I
0."
0/"
1-"
b100 @
b100 %"
b100 0"
b100 C"
b110 G
b110 <"
b110 B
b110 z
b110 A"
b10101 E
b10101 >"
b0 ]
b0 ~
b0 I"
0c
b10110 2
b10110 M"
16
b0 0
b0 $"
b0 O"
b0 3
b0 L"
b10111 /
b10111 D"
b10110 u
b10110 X"
1"
#125000
0"
#130000
b0 <
b0 3"
0'
b110 r
b110 x
b110 1"
1i
1h
b100000000001000000000000000110 ;
b100000000001000000000000000110 E"
b100000000001000000000000000110 Y"
b100000000001000000000000000110 Z"
b0 *
b0 `"
b0 +
b0 _"
b0 e
b0 |
b0 S"
1,"
b0 ?
b0 y
b0 g
b0 R"
b0 f
b0 t
b0 9
b0 V
b0 W
b0 v
0:
b0 U
b0 w
b10101 /
b10101 D"
b10100 u
b10100 X"
b0 2
b0 M"
06
b10101 ]
b10101 ~
b10101 I"
b100 [
b100 ""
b100 #"
b100 J"
b110 \
b110 !"
b110 V"
b110 ^
b110 }
b110 H"
b110 T"
b10110 F
b10110 {
b10110 ="
1M
b1111 Q
b1111 ;"
b1111 Q"
0P
1."
1/"
0-"
b0 @
b0 %"
b0 0"
b0 C"
b10100 G
b10100 <"
b0 B
b0 z
b0 A"
b10110 E
b10110 >"
b0 =
b0 9"
b0 :"
b0 G"
b0 >
b0 F"
1"
#135000
0"
#140000
b110 <
b110 3"
1q
b0 r
b0 x
b0 1"
0i
1h
b110 +
b110 _"
0."
b100 *"
b1000000000000000110 9
b110 V
b110 -
b110 7"
b110 \"
b100 R
b100 6"
b100 ^"
b110 W
b110 v
b1000 U
b1000 w
b100 *
b100 `"
b110 Z
b1100000000000000000000010100 ;
b1100000000000000000000010100 E"
b1100000000000000000000010100 Y"
b1100000000000000000000010100 Z"
b10101 =
b10101 9"
b10101 :"
b10101 G"
b100000000001000000000000000110 >
b100000000001000000000000000110 F"
b0 F
b0 {
b0 ="
0M
b110 Q
b110 ;"
b110 Q"
1I
b0 G
b0 <"
b0 E
b0 >"
b10110 ]
b10110 ~
b10110 I"
1c
b0 [
b0 ""
b0 #"
b0 J"
b0 \
b0 !"
b0 V"
b0 ^
b0 }
b0 H"
b0 T"
b10101 2
b10101 M"
b100 0
b100 $"
b100 O"
b110 3
b110 L"
b10110 /
b10110 D"
b10101 u
b10101 X"
1"
#145000
0"
#150000
b10100 <
b10100 3"
1'
b1111 r
b1111 x
b1111 1"
0q
0h
b10101100010000100000000000000000 ;
b10101100010000100000000000000000 E"
b10101100010000100000000000000000 Y"
b10101100010000100000000000000000 Z"
b10110 +
b10110 _"
b11111 *
b11111 `"
b0 Z
b110 e
b110 |
b110 S"
b110 g
b110 R"
b100 ?
b100 y
0,"
b110 f
b110 t
b0 *"
b10100 9
b10100 V
b0 -
b0 7"
b0 \"
b0 R
b0 6"
b0 ^"
b10100 W
b10100 v
1:
b11 U
b11 w
b10111 /
b10111 D"
b10110 u
b10110 X"
b10110 2
b10110 M"
16
b0 0
b0 $"
b0 O"
b0 3
b0 L"
b0 ]
b0 ~
b0 I"
0c
b10101 F
b10101 {
b10101 ="
b0 Q
b0 ;"
b0 Q"
1P
0I
0."
0/"
1-"
b100 @
b100 %"
b100 0"
b100 C"
b110 G
b110 <"
b110 B
b110 z
b110 A"
b10101 E
b10101 >"
b10110 =
b10110 9"
b10110 :"
b10110 G"
b1100000000000000000000010100 >
b1100000000000000000000010100 F"
1"
#155000
0"
#160000
b0 <
b0 3"
0'
b110 r
b110 x
b110 1"
1i
1h
b0 9
b0 V
b0 W
b0 v
0:
b0 U
b0 w
b0 e
b0 |
b0 S"
1,"
b0 ?
b0 y
b0 g
b0 R"
b0 f
b0 t
b0 *
b0 `"
b0 +
b0 _"
b100000000001000000000000000110 ;
b100000000001000000000000000110 E"
b100000000001000000000000000110 Y"
b100000000001000000000000000110 Z"
b0 =
b0 9"
b0 :"
b0 G"
b0 >
b0 F"
b10110 F
b10110 {
b10110 ="
1M
b1111 Q
b1111 ;"
b1111 Q"
0P
1."
1/"
0-"
b0 @
b0 %"
b0 0"
b0 C"
b10100 G
b10100 <"
b0 B
b0 z
b0 A"
b10110 E
b10110 >"
b10101 ]
b10101 ~
b10101 I"
b100 [
b100 ""
b100 #"
b100 J"
b110 \
b110 !"
b110 V"
b110 ^
b110 }
b110 H"
b110 T"
b0 2
b0 M"
06
b10101 /
b10101 D"
b10100 u
b10100 X"
1"
#165000
0"
#170000
b110 +
b110 _"
b110 <
b110 3"
1q
b0 r
b0 x
b0 1"
0i
1h
b1100000000000000000000010100 ;
b1100000000000000000000010100 E"
b1100000000000000000000010100 Y"
b1100000000000000000000010100 Z"
b100 *
b100 `"
b110 Z
0."
b100 *"
b1000000000000000110 9
b110 V
b110 -
b110 7"
b110 \"
b100 R
b100 6"
b100 ^"
b110 W
b110 v
b1000 U
b1000 w
b10110 /
b10110 D"
b10101 u
b10101 X"
b10101 2
b10101 M"
b100 0
b100 $"
b100 O"
b110 3
b110 L"
b10110 ]
b10110 ~
b10110 I"
1c
b0 [
b0 ""
b0 #"
b0 J"
b0 \
b0 !"
b0 V"
b0 ^
b0 }
b0 H"
b0 T"
b0 F
b0 {
b0 ="
0M
b110 Q
b110 ;"
b110 Q"
1I
b0 G
b0 <"
b0 E
b0 >"
b10101 =
b10101 9"
b10101 :"
b10101 G"
b100000000001000000000000000110 >
b100000000001000000000000000110 F"
1"
#175000
0"
#180000
0,"
b10100 <
b10100 3"
1'
b1111 r
b1111 x
b1111 1"
0q
0h
b0 *"
b10100 9
b10100 V
b0 -
b0 7"
b0 \"
b0 R
b0 6"
b0 ^"
b10100 W
b10100 v
1:
b11 U
b11 w
b110 e
b110 |
b110 S"
b110 g
b110 R"
b100 ?
b100 y
b110 f
b110 t
b10110 +
b10110 _"
b11111 *
b11111 `"
b0 Z
b10101100010000100000000000000000 ;
b10101100010000100000000000000000 E"
b10101100010000100000000000000000 Y"
b10101100010000100000000000000000 Z"
b10110 =
b10110 9"
b10110 :"
b10110 G"
b1100000000000000000000010100 >
b1100000000000000000000010100 F"
b10101 F
b10101 {
b10101 ="
b0 Q
b0 ;"
b0 Q"
1P
0I
0."
0/"
1-"
b100 @
b100 %"
b100 0"
b100 C"
b110 G
b110 <"
b110 B
b110 z
b110 A"
b10101 E
b10101 >"
b0 ]
b0 ~
b0 I"
0c
b10110 2
b10110 M"
16
b0 0
b0 $"
b0 O"
b0 3
b0 L"
b10111 /
b10111 D"
b10110 u
b10110 X"
1"
#185000
0"
#190000
b0 <
b0 3"
0'
b110 r
b110 x
b110 1"
1i
1h
b100000000001000000000000000110 ;
b100000000001000000000000000110 E"
b100000000001000000000000000110 Y"
b100000000001000000000000000110 Z"
b0 *
b0 `"
b0 +
b0 _"
b0 e
b0 |
b0 S"
1,"
b0 ?
b0 y
b0 g
b0 R"
b0 f
b0 t
b0 9
b0 V
b0 W
b0 v
0:
b0 U
b0 w
b10101 /
b10101 D"
b10100 u
b10100 X"
b0 2
b0 M"
06
b10101 ]
b10101 ~
b10101 I"
b100 [
b100 ""
b100 #"
b100 J"
b110 \
b110 !"
b110 V"
b110 ^
b110 }
b110 H"
b110 T"
b10110 F
b10110 {
b10110 ="
1M
b1111 Q
b1111 ;"
b1111 Q"
0P
1."
1/"
0-"
b0 @
b0 %"
b0 0"
b0 C"
b10100 G
b10100 <"
b0 B
b0 z
b0 A"
b10110 E
b10110 >"
b0 =
b0 9"
b0 :"
b0 G"
b0 >
b0 F"
1"
#195000
0"
#200000
b110 <
b110 3"
1q
b0 r
b0 x
b0 1"
0i
1h
b110 +
b110 _"
0."
b100 *"
b1000000000000000110 9
b110 V
b110 -
b110 7"
b110 \"
b100 R
b100 6"
b100 ^"
b110 W
b110 v
b1000 U
b1000 w
b100 *
b100 `"
b110 Z
b1100000000000000000000010100 ;
b1100000000000000000000010100 E"
b1100000000000000000000010100 Y"
b1100000000000000000000010100 Z"
b10101 =
b10101 9"
b10101 :"
b10101 G"
b100000000001000000000000000110 >
b100000000001000000000000000110 F"
b0 F
b0 {
b0 ="
0M
b110 Q
b110 ;"
b110 Q"
1I
b0 G
b0 <"
b0 E
b0 >"
b10110 ]
b10110 ~
b10110 I"
1c
b0 [
b0 ""
b0 #"
b0 J"
b0 \
b0 !"
b0 V"
b0 ^
b0 }
b0 H"
b0 T"
b10101 2
b10101 M"
b100 0
b100 $"
b100 O"
b110 3
b110 L"
b10110 /
b10110 D"
b10101 u
b10101 X"
1"
#205000
0"
