StonyBrook/ComputerArchitecture/Homework2/hw2.vcd
$date
	Tue Oct 21 19:55:57 2025
$end
$version
	Icarus Verilog
$end
$timescale
	1ps
$end
$scope module processor_tb $end
$scope module myProcessor $end
$var wire 32 ! ADDI_in_wire [31:0] $end
$var wire 32 " ADDI_out_wire [31:0] $end
$var wire 32 # ALU_out_wire [31:0] $end
$var wire 32 $ ANDI_in_wire [31:0] $end
$var wire 32 % ANDI_out_wire [31:0] $end
$var wire 32 & ORI_in_wire [31:0] $end
$var wire 32 ' ORI_out_wire [31:0] $end
$var wire 32 ( initial_pc [31:0] $end
$var wire 32 ) read_data_wire [31:0] $end
$var wire 32 * reg_data1_wire [31:0] $end
$var wire 32 + reg_data2_wire [31:0] $end
$var wire 1 , instruction_wire $end
$var wire 32 - instruction [31:0] $end
$var wire 16 . immediate_wire [15:0] $end
$var wire 1 / clk $end
$var reg 32 0 ADDI_in [31:0] $end
$var reg 32 1 ADDI_out [31:0] $end
$var reg 3 2 ALU_Sel [2:0] $end
$var reg 32 3 ALU_out [31:0] $end
$var reg 32 4 ANDI_in [31:0] $end
$var reg 32 5 ANDI_out [31:0] $end
$var reg 32 6 ORI_in [31:0] $end
$var reg 32 7 ORI_out [31:0] $end
$var reg 32 8 a [31:0] $end
$var reg 32 9 b [31:0] $end
$var reg 5 : base [4:0] $end
$var reg 6 ; funct [5:0] $end
$var reg 32 < mem_address [31:0] $end
$var reg 32 = mem_data [31:0] $end
$var reg 6 > opcode [5:0] $end
$var reg 32 ? pc [31:0] $end
$var reg 5 @ rd [4:0] $end
$var reg 32 A read_data [31:0] $end
$var reg 5 B read_reg1 [4:0] $end
$var reg 5 C read_reg2 [4:0] $end
$var reg 32 D reg_data1 [31:0] $end
$var reg 32 E reg_data2 [31:0] $end
$var reg 5 F rs [4:0] $end
$var reg 5 G rt [4:0] $end
$var reg 32 H write_data [31:0] $end
$var reg 1 I write_enable_mem $end
$var reg 1 J write_enable_reg $end
$var reg 5 K write_reg [4:0] $end
$scope module mem $end
$var wire 32 L address [31:0] $end
$var wire 32 M write_data [31:0] $end
$var wire 1 I write_enable $end
$var reg 32 N read_data [31:0] $end
$var integer 32 O i [31:0] $end
$upscope $end
$scope module myADDI $end
$var wire 16 P immediate [15:0] $end
$var wire 32 Q reg_in [31:0] $end
$var wire 32 R reg_out [31:0] $end
$var wire 32 S sign_extended_value [31:0] $end
$scope module myALU $end
$var wire 32 T A [31:0] $end
$var wire 3 U ALU_Sel [2:0] $end
$var wire 32 V B [31:0] $end
$var reg 32 W ALU_Out [31:0] $end
$upscope $end
$upscope $end
$scope module myALU $end
$var wire 32 X A [31:0] $end
$var wire 3 Y ALU_Sel [2:0] $end
$var wire 32 Z B [31:0] $end
$var reg 32 [ ALU_Out [31:0] $end
$upscope $end
$scope module myANDI $end
$var wire 16 \ immediate [15:0] $end
$var wire 32 ] reg_in [31:0] $end
$var wire 32 ^ reg_out [31:0] $end
$var wire 32 _ sign_extended_value [31:0] $end
$scope module myALU $end
$var wire 32 ` A [31:0] $end
$var wire 3 a ALU_Sel [2:0] $end
$var wire 32 b B [31:0] $end
$var reg 32 c ALU_Out [31:0] $end
$upscope $end
$upscope $end
$scope module myClock $end
$var reg 1 / clk $end
$upscope $end
$scope module myORI $end
$var wire 16 d immediate [15:0] $end
$var wire 32 e reg_in [31:0] $end
$var wire 32 f reg_out [31:0] $end
$var wire 32 g sign_extended_immediate [31:0] $end
$scope module myALU $end
$var wire 32 h A [31:0] $end
$var wire 3 i ALU_Sel [2:0] $end
$var wire 32 j B [31:0] $end
$var reg 32 k ALU_Out [31:0] $end
$upscope $end
$upscope $end
$scope module prog_mem $end
$var wire 32 l pc [31:0] $end
$var wire 32 m instruction [31:0] $end
$var reg 32 n instruction_reg [31:0] $end
$upscope $end
$scope module regFile $end
$var wire 5 o readReg1 [4:0] $end
$var wire 5 p readReg2 [4:0] $end
$var wire 32 q writeData [31:0] $end
$var wire 1 J writeEnable $end
$var wire 5 r writeReg [4:0] $end
$var reg 32 s readData1 [31:0] $end
$var reg 32 t readData2 [31:0] $end
$var integer 32 u i [31:0] $end
$upscope $end
$upscope $end
$upscope $end
$enddefinitions $end
#0
$dumpvars
b100000 u
b0 t
b0 s
b1000 r
bx q
b0 p
b0 o
b100000000010000000000000000100 n
b100000000010000000000000000100 m
b0 l
bx1xx k
b100 j
b11 i
bx h
b100 g
bx f
bx e
b100 d
b0x00 c
b100 b
b10 a
bx `
b100 _
bx ^
bx ]
b100 \
bx [
bx Z
b110 Y
bx X
bx W
b100 V
b0 U
bx T
b100 S
bx R
bx Q
b100 P
b100000000 O
bx N
bx M
bx L
b1000 K
0J
xI
bx H
b1000 G
b0 F
bx E
bx D
b0 C
b0 B
bx A
b0 @
b0 ?
b1000 >
bx =
bx <
b0 ;
bx :
bx 9
bx 8
bx 7
bx 6
bx 5
bx 4
bx 3
b110 2
bx 1
bx 0
1/
b100 .
b100000000010000000000000000100 -
0,
bx +
bx *
bx )
b0 (
bx '
bx &
bx %
bx $
bx #
bx "
bx !
$end
#5000
0/
#10000
b0xxxx c
bx1111 k
1,
b1111 S
b1111 V
b1111 _
b1111 b
b1111 g
b1111 j
b1111 .
b1111 P
b1111 \
b1111 d
b1001 K
b1001 r
b1001 G
b100000000010010000000000001111 -
b100000000010010000000000001111 m
b100000000010010000000000001111 n
0J
b1 ?
b1 l
1/
#15000
0/
#20000
b0x0x00 c
bx1x1xx k
0,
b10100 S
b10100 V
b10100 _
b10100 b
b10100 g
b10100 j
b10100 .
b10100 P
b10100 \
b10100 d
b1010 K
b1010 r
b1010 G
b100000000010100000000000010100 -
b100000000010100000000000010100 m
b100000000010100000000000010100 n
0J
b10 ?
b10 l
1/
#25000
0/
#30000
b0x000 c
bx1xxx k
b1000 S
b1000 V
b1000 _
b1000 b
b1000 g
b1000 j
b1000 .
b1000 P
b1000 \
b1000 d
b10001 K
b10001 r
b10001 G
b100000000100010000000000001000 -
b100000000100010000000000001000 m
b100000000100010000000000001000 n
0J
b11 ?
b11 l
1/
#35000
0/
#40000
b0 c
bx k
bx s
b0 S
b0 V
b0 _
b0 b
b0 g
b0 j
b0 .
b0 P
b0 \
b0 d
0I
b1000 C
b1000 p
bx B
bx o
b1000 G
b10001 F
b101011 >
b10101110001010000000000000000000 -
b10101110001010000000000000000000 m
b10101110001010000000000000000000 n
0J
b100 ?
b100 l
1/
#45000
0/
#50000
b0x000 c
bx1xxx k
b1000 S
b1000 V
b1000 _
b1000 b
b1000 g
b1000 j
b1000 .
b1000 P
b1000 \
b1000 d
b1001 C
b1001 p
b1001 G
b10101110001010010000000000001000 -
b10101110001010010000000000001000 m
b10101110001010010000000000001000 n
0I
b101 ?
b101 l
1/
#55000
0/
#60000
bx00 c
b111111111111111111111111111111xx k
b11111111111111111111111111111100 S
b11111111111111111111111111111100 V
b11111111111111111111111111111100 _
b11111111111111111111111111111100 b
b11111111111111111111111111111100 g
b11111111111111111111111111111100 j
b1111111111111100 .
b1111111111111100 P
b1111111111111100 \
b1111111111111100 d
b1010 C
b1010 p
b1010 G
b10101110001010101111111111111100 -
b10101110001010101111111111111100 m
b10101110001010101111111111111100 n
0I
b110 ?
b110 l
1/
#65000
0/
#70000
b0 c
bx k
b0 S
b0 V
b0 _
b0 b
b0 g
b0 j
b0 .
b0 P
b0 \
b0 d
b111111 >
b11111100000000000000000000000000 -
b11111100000000000000000000000000 m
b11111100000000000000000000000000 n
0I
b111 ?
b111 l
1/
#75000
0/
#80000
b0x000 c
bx1xxx k
b1000 S
b1000 V
b1000 _
b1000 b
b1000 g
b1000 j
b1000 .
b1000 P
b1000 \
b1000 d
b100000000010000000000000001000 -
b100000000010000000000000001000 m
b100000000010000000000000001000 n
b1000 ?
b1000 l
1/
#85000
0/
#90000
b0xxxx c
bx1111 k
1,
b1111 S
b1111 V
b1111 _
b1111 b
b1111 g
b1111 j
b1111 .
b1111 P
b1111 \
b1111 d
b100000000010010000000000001111 -
b100000000010010000000000001111 m
b100000000010010000000000001111 n
b1001 ?
b1001 l
1/
#95000
0/
#100000
b0 c
bx k
0,
b0 S
b0 V
b0 _
b0 b
b0 g
b0 j
b0 .
b0 P
b0 \
b0 d
b10101101000010010000000000000000 -
b10101101000010010000000000000000 m
b10101101000010010000000000000000 n
b1010 ?
b1010 l
1/
#105000
0/
#110000
b0x0x000000x00000 c
bx1x1xxxxxx1xxxxx k
b101000000100000 S
b101000000100000 V
b101000000100000 _
b101000000100000 b
b101000000100000 g
b101000000100000 j
b101000000100000 .
b101000000100000 P
b101000000100000 \
b101000000100000 d
b1001010000101000000100000 -
b1001010000101000000100000 m
b1001010000101000000100000 n
b1011 ?
b1011 l
1/
#115000
0/
#120000
b0x0xx00000x000x0 c
bx1x11xxxxx1xxx1x k
b101100000100010 S
b101100000100010 V
b101100000100010 _
b101100000100010 b
b101100000100010 g
b101100000100010 j
b101100000100010 .
b101100000100010 P
b101100000100010 \
b101100000100010 d
b1001010000101100000100010 -
b1001010000101100000100010 m
b1001010000101100000100010 n
b1100 ?
b1100 l
1/
#125000
0/
#130000
bx000x000000000x0 c
b11111111111111111xxx1xxxxxxxxx1x k
b11111111111111111000100000000010 S
b11111111111111111000100000000010 V
b11111111111111111000100000000010 _
b11111111111111111000100000000010 b
b11111111111111111000100000000010 g
b11111111111111111000100000000010 j
b1000100000000010 .
b1000100000000010 P
b1000100000000010 \
b1000100000000010 d
b1010010111000100000000010 -
b1010010111000100000000010 m
b1010010111000100000000010 n
b1101 ?
b1101 l
1/
#135000
0/
#140000
b0x00 c
bx1xx k
b100 S
b100 V
b100 _
b100 b
b100 g
b100 j
b100 .
b100 P
b100 \
b100 d
b100000000010000000000000000100 -
b100000000010000000000000000100 m
b100000000010000000000000000100 n
b1110 ?
b1110 l
1/
#145000
0/
#150000
bx00 c
b111111111111111111111111111111xx k
b11111111111111111111111111111100 S
b11111111111111111111111111111100 V
b11111111111111111111111111111100 _
b11111111111111111111111111111100 b
b11111111111111111111111111111100 g
b11111111111111111111111111111100 j
b1111111111111100 .
b1111111111111100 P
b1111111111111100 \
b1111111111111100 d
b10001101000100101111111111111100 -
b10001101000100101111111111111100 m
b10001101000100101111111111111100 n
b1111 ?
b1111 l
1/
#155000
0/
#160000
bx00x000000x000x0 c
b11111111111111111xx1xxxxxx1xxx1x k
b11111111111111111001000000100010 S
b11111111111111111001000000100010 V
b11111111111111111001000000100010 _
b11111111111111111001000000100010 b
b11111111111111111001000000100010 g
b11111111111111111001000000100010 j
b1001000000100010 .
b1001000000100010 P
b1001000000100010 \
b1001000000100010 d
b10001100101001000000100010 -
b10001100101001000000100010 m
b10001100101001000000100010 n
b10000 ?
b10000 l
1/
#165000
0/
#170000
bx00x000000000000 c
b11111111111111111xx1xxxxxxxxxxxx k
b11111111111111111001000000000000 S
b11111111111111111001000000000000 V
b11111111111111111001000000000000 _
b11111111111111111001000000000000 b
b11111111111111111001000000000000 g
b11111111111111111001000000000000 j
b1001000000000000 .
b1001000000000000 P
b1001000000000000 \
b1001000000000000 d
b10001000001001000000000000 -
b10001000001001000000000000 m
b10001000001001000000000000 n
b10001 ?
b10001 l
1/
#175000
0/
#180000
b0 c
bx k
b0 S
b0 V
b0 _
b0 b
b0 g
b0 j
b0 .
b0 P
b0 \
b0 d
b10101101000100100000000000000000 -
b10101101000100100000000000000000 m
b10101101000100100000000000000000 n
b10010 ?
b10010 l
1/
#185000
0/
#190000
b11111100000000000000000000000000 -
b11111100000000000000000000000000 m
b11111100000000000000000000000000 n
b10011 ?
b10011 l
1/
#195000
0/
#200000
bx c
x,
bx S
bx V
bx _
bx b
bx g
bx j
bx .
bx P
bx \
bx d
bx -
bx m
bx n
b10100 ?
b10100 l
1/
