StonyBrook/ComputerArchitecture/Homework4/hw_cached.vcd
$date
	Sun Nov 30 12:40:04 2025
$end
$version
	Icarus Verilog
$end
$timescale
	1ps
$end
$scope module pipeline_processor_tb $end
$var wire 1 ! done $end
$var reg 1 " clk $end
$var reg 3 # prev_cache_state [2:0] $end
$var reg 32 $ prev_exmem_addr [31:0] $end
$var reg 1 % prev_exmem_memread $end
$var reg 1 & prev_exmem_memwrite $end
$var reg 1 ' reset $end
$var integer 32 ( branch_count [31:0] $end
$var integer 32 ) cache_accesses [31:0] $end
$var integer 32 * cache_hits [31:0] $end
$var integer 32 + cache_misses [31:0] $end
$var integer 32 , cycle_count [31:0] $end
$var real 1 - hit_rate $end
$scope module DUT $end
$var wire 1 . branch_taken $end
$var wire 1 / branch_taken_ex $end
$var wire 32 0 branch_target_ex [31:0] $end
$var wire 1 " clk $end
$var wire 1 ! done $end
$var wire 1 1 enable_forwarding $end
$var wire 1 2 enable_hazard_detection $end
$var wire 1 3 flush_idex $end
$var wire 1 4 flush_ifid $end
$var wire 1 5 halt_id $end
$var wire 32 6 initial_pc [31:0] $end
$var wire 1 7 is_jr $end
$var wire 1 8 is_shift_ex $end
$var wire 1 9 is_shift_id $end
$var wire 32 : jr_target [31:0] $end
$var wire 1 ' reset $end
$var wire 1 ; writeback_enable_wb $end
$var wire 5 < writeback_reg_wb [4:0] $end
$var wire 32 = writeback_data_wb [31:0] $end
$var wire 1 > stall $end
$var wire 32 ? shamt_ext_id [31:0] $end
$var wire 1 @ registers_equal $end
$var wire 32 A reg_read2_id [31:0] $end
$var wire 32 B reg_read1_id [31:0] $end
$var wire 32 C next_pc_if [31:0] $end
$var wire 5 D memwb_writereg_out [4:0] $end
$var wire 32 E memwb_memread_out [31:0] $end
$var wire 32 F memwb_link_out [31:0] $end
$var wire 32 G memwb_aluout_out [31:0] $end
$var wire 1 H memwb_RegWrite_out $end
$var wire 1 I memwb_MemToReg_out $end
$var wire 1 J memwb_JAL_out $end
$var wire 1 K memwb_Halt_out $end
$var wire 1 L mem_write_en $end
$var wire 32 M mem_write_data [31:0] $end
$var wire 32 N mem_write_addr [31:0] $end
$var wire 1 O mem_read_en $end
$var wire 32 P mem_read_data_mem [31:0] $end
$var wire 32 Q mem_read_data_from_mem [31:0] $end
$var wire 32 R mem_read_addr [31:0] $end
$var wire 32 S jal_target [31:0] $end
$var wire 1 T is_jal $end
$var wire 32 U instr_if [31:0] $end
$var wire 32 V imm_or_shamt [31:0] $end
$var wire 32 W imm_ext_id [31:0] $end
$var wire 32 X ifid_next_pc_out [31:0] $end
$var wire 32 Y ifid_instr_out [31:0] $end
$var wire 5 Z idex_write_reg [4:0] $end
$var wire 5 [ idex_rt_out [4:0] $end
$var wire 5 \ idex_rs_out [4:0] $end
$var wire 32 ] idex_regdata2_out [31:0] $end
$var wire 32 ^ idex_regdata1_out [31:0] $end
$var wire 5 _ idex_rd_out [4:0] $end
$var wire 32 ` idex_next_pc_out [31:0] $end
$var wire 32 a idex_link_out [31:0] $end
$var wire 32 b idex_imm_out [31:0] $end
$var wire 1 c idex_RegWrite $end
$var wire 1 d idex_RegDst $end
$var wire 1 e idex_MemWrite $end
$var wire 1 f idex_MemToReg $end
$var wire 1 g idex_MemRead $end
$var wire 1 h idex_JAL_out $end
$var wire 1 i idex_Halt_out $end
$var wire 1 j idex_BranchNotEqual $end
$var wire 1 k idex_Branch $end
$var wire 1 l idex_ALUSrc $end
$var wire 4 m idex_ALUOp [3:0] $end
$var wire 5 n id_rt [4:0] $end
$var wire 5 o id_rs [4:0] $end
$var wire 5 p id_rd [4:0] $end
$var wire 6 q id_opcode [5:0] $end
$var wire 16 r id_imm [15:0] $end
$var wire 6 s id_funct [5:0] $end
$var wire 1 t halt_if $end
$var wire 32 u forward_from_memwb [31:0] $end
$var wire 5 v exmem_write_reg_out [4:0] $end
$var wire 32 w exmem_write_data_out [31:0] $end
$var wire 32 x exmem_link_out [31:0] $end
$var wire 32 y exmem_alu_result_out [31:0] $end
$var wire 1 z exmem_RegWrite_out $end
$var wire 1 { exmem_MemWrite_out $end
$var wire 1 | exmem_MemToReg_out $end
$var wire 1 } exmem_MemRead_out $end
$var wire 1 ~ exmem_JAL_out $end
$var wire 1 !" exmem_Halt_out $end
$var wire 1 "" cache_stall $end
$var wire 32 #" branch_target [31:0] $end
$var wire 1 $" branch_decision $end
$var wire 32 %" alu_result_ex [31:0] $end
$var wire 32 &" alu_input_B_pre [31:0] $end
$var wire 32 '" alu_input_B [31:0] $end
$var wire 32 (" alu_input_A_final [31:0] $end
$var wire 32 )" alu_input_A [31:0] $end
$var wire 1 *" RegWrite_id $end
$var wire 1 +" RegDst_id $end
$var wire 1 ," MemWrite_id $end
$var wire 1 -" MemToReg_id $end
$var wire 1 ." MemRead_id $end
$var wire 2 /" ForwardB [1:0] $end
$var wire 2 0" ForwardA [1:0] $end
$var wire 1 1" ExtOp_id $end
$var wire 1 2" Branch_id $end
$var wire 1 3" BranchNotEqual_id $end
$var wire 1 4" ALUSrc_id $end
$var wire 4 5" ALUOp_id [3:0] $end
$var reg 32 6" alu_input_A_reg [31:0] $end
$var reg 32 7" alu_input_Bpre_reg [31:0] $end
$var reg 1 8" branch_taken_prev $end
$var reg 32 9" pc [31:0] $end
$scope module CU $end
$var wire 6 :" funct [5:0] $end
$var wire 6 ;" opcode [5:0] $end
$var reg 4 <" ALUOp [3:0] $end
$var reg 1 4" ALUSrc $end
$var reg 1 2" Branch $end
$var reg 1 3" BranchNotEqual $end
$var reg 1 1" ExtOp $end
$var reg 1 ." MemRead $end
$var reg 1 -" MemToReg $end
$var reg 1 ," MemWrite $end
$var reg 1 +" RegDst $end
$var reg 1 *" RegWrite $end
$upscope $end
$scope module EXMEM $end
$var wire 1 " clk $end
$var wire 1 ' reset $end
$var wire 32 =" write_data_in [31:0] $end
$var wire 5 >" write_reg_in [4:0] $end
$var wire 32 ?" link_in [31:0] $end
$var wire 32 @" alu_result_in [31:0] $end
$var wire 1 c RegWrite_in $end
$var wire 1 e MemWrite_in $end
$var wire 1 f MemToReg_in $end
$var wire 1 g MemRead_in $end
$var wire 1 h JAL_in $end
$var wire 1 i Halt_in $end
$var reg 1 !" Halt_out $end
$var reg 1 ~ JAL_out $end
$var reg 1 } MemRead_out $end
$var reg 1 | MemToReg_out $end
$var reg 1 { MemWrite_out $end
$var reg 1 z RegWrite_out $end
$var reg 32 A" alu_result_out [31:0] $end
$var reg 32 B" link_out [31:0] $end
$var reg 32 C" write_data_out [31:0] $end
$var reg 5 D" write_reg_out [4:0] $end
$upscope $end
$scope module FU $end
$var wire 5 E" EX_MEM_Rd [4:0] $end
$var wire 1 z EX_MEM_RegWrite $end
$var wire 1 1 enable_forwarding $end
$var wire 1 H MEM_WB_RegWrite $end
$var wire 5 F" MEM_WB_Rd [4:0] $end
$var wire 5 G" ID_EX_Rt [4:0] $end
$var wire 5 H" ID_EX_Rs [4:0] $end
$var reg 2 I" ForwardA [1:0] $end
$var reg 2 J" ForwardB [1:0] $end
$upscope $end
$scope module HZ $end
$var wire 5 K" EX_MEM_Rd [4:0] $end
$var wire 1 z EX_MEM_RegWrite $end
$var wire 5 L" ID_EX_Rd [4:0] $end
$var wire 5 M" IF_ID_Rs [4:0] $end
$var wire 5 N" IF_ID_Rt [4:0] $end
$var wire 1 1 enable_forwarding $end
$var wire 1 2 enable_hazard_detection $end
$var wire 1 O" exmem_raw_hazard $end
$var wire 1 P" idex_raw_hazard $end
$var wire 1 Q" is_load $end
$var wire 1 R" load_use_hazard $end
$var wire 1 S" load_rt_match $end
$var wire 1 T" load_rs_match $end
$var wire 1 U" load_dest_valid $end
$var wire 1 V" idex_rt_match $end
$var wire 1 W" idex_rs_match $end
$var wire 1 X" idex_dest_valid $end
$var wire 1 Y" exmem_rt_match $end
$var wire 1 Z" exmem_rs_match $end
$var wire 1 [" exmem_dest_valid $end
$var wire 5 \" ID_EX_Rt [4:0] $end
$var wire 1 c ID_EX_RegWrite $end
$var wire 1 g ID_EX_MemRead $end
$var reg 1 > stall $end
$upscope $end
$scope module IDEX $end
$var wire 4 ]" ALUOp_in [3:0] $end
$var wire 1 4" ALUSrc_in $end
$var wire 1 3" BranchNotEqual_in $end
$var wire 1 2" Branch_in $end
$var wire 1 5 Halt_in $end
$var wire 1 T JAL_in $end
$var wire 1 ." MemRead_in $end
$var wire 1 -" MemToReg_in $end
$var wire 1 ," MemWrite_in $end
$var wire 1 +" RegDst_in $end
$var wire 1 ^" RegWrite_in $end
$var wire 1 " clk $end
$var wire 1 3 flush $end
$var wire 32 _" imm_in [31:0] $end
$var wire 5 `" rd_in [4:0] $end
$var wire 1 ' reset $end
$var wire 5 a" rs_in [4:0] $end
$var wire 5 b" rt_in [4:0] $end
$var wire 1 > stall $end
$var wire 32 c" regdata2_in [31:0] $end
$var wire 32 d" regdata1_in [31:0] $end
$var wire 32 e" next_pc_in [31:0] $end
$var wire 32 f" link_in [31:0] $end
$var reg 4 g" ALUOp_out [3:0] $end
$var reg 1 l ALUSrc_out $end
$var reg 1 j BranchNotEqual_out $end
$var reg 1 k Branch_out $end
$var reg 1 i Halt_out $end
$var reg 1 h JAL_out $end
$var reg 1 g MemRead_out $end
$var reg 1 f MemToReg_out $end
$var reg 1 e MemWrite_out $end
$var reg 1 d RegDst_out $end
$var reg 1 c RegWrite_out $end
$var reg 32 h" imm_out [31:0] $end
$var reg 32 i" link_out [31:0] $end
$var reg 32 j" next_pc_out [31:0] $end
$var reg 5 k" rd_out [4:0] $end
$var reg 32 l" regdata1_out [31:0] $end
$var reg 32 m" regdata2_out [31:0] $end
$var reg 5 n" rs_out [4:0] $end
$var reg 5 o" rt_out [4:0] $end
$upscope $end
$scope module IFID $end
$var wire 1 " clk $end
$var wire 1 4 flush $end
$var wire 32 p" next_pc_in [31:0] $end
$var wire 1 ' reset $end
$var wire 1 > stall $end
$var wire 32 q" instr_in [31:0] $end
$var reg 32 r" instr_out [31:0] $end
$var reg 32 s" next_pc_out [31:0] $end
$upscope $end
$scope module MEMWB $end
$var wire 1 !" Halt_in $end
$var wire 1 ~ JAL_in $end
$var wire 1 | MemToReg_in $end
$var wire 1 z RegWrite_in $end
$var wire 32 t" alu_result_in [31:0] $end
$var wire 1 " clk $end
$var wire 32 u" link_in [31:0] $end
$var wire 1 ' reset $end
$var wire 5 v" write_reg_in [4:0] $end
$var wire 32 w" mem_read_in [31:0] $end
$var reg 1 K Halt_out $end
$var reg 1 J JAL_out $end
$var reg 1 I MemToReg_out $end
$var reg 1 H RegWrite_out $end
$var reg 32 x" alu_result_out [31:0] $end
$var reg 32 y" link_out [31:0] $end
$var reg 32 z" mem_read_out [31:0] $end
$var reg 5 {" write_reg_out [4:0] $end
$upscope $end
$scope module alu_ex $end
$var wire 32 |" a [31:0] $end
$var wire 4 }" alu_sel [3:0] $end
$var wire 32 ~" b [31:0] $end
$var reg 32 !# alu_out [31:0] $end
$upscope $end
$scope module cache $end
$var wire 1 "# cache_hit $end
$var wire 1 " clk $end
$var wire 32 ## cpu_addr [31:0] $end
$var wire 1 } cpu_read $end
$var wire 1 { cpu_write $end
$var wire 32 $# cpu_write_data [31:0] $end
$var wire 1 ' reset $end
$var wire 1 %# way0_hit $end
$var wire 1 &# way1_hit $end
$var wire 32 '# mem_read_data [31:0] $end
$var wire 3 (# addr_word_offset [2:0] $end
$var wire 20 )# addr_tag [19:0] $end
$var wire 7 *# addr_index [6:0] $end
$var reg 3 +# alloc_counter [2:0] $end
$var reg 1 "" cache_stall $end
$var reg 32 ,# cpu_read_data [31:0] $end
$var reg 1 -# hit_way $end
$var reg 32 .# mem_read_addr [31:0] $end
$var reg 1 O mem_read_en $end
$var reg 32 /# mem_write_addr [31:0] $end
$var reg 32 0# mem_write_data [31:0] $end
$var reg 1 L mem_write_en $end
$var reg 1 1# saved_cpu_read $end
$var reg 1 2# saved_cpu_write $end
$var reg 7 3# saved_index [6:0] $end
$var reg 20 4# saved_tag [19:0] $end
$var reg 3 5# saved_word_offset [2:0] $end
$var reg 3 6# state [2:0] $end
$var reg 1 7# victim_way $end
$var reg 1 8# was_read $end
$var reg 3 9# wb_counter [2:0] $end
$var integer 32 :# i [31:0] $end
$var integer 32 ;# j [31:0] $end
$var integer 32 <# k [31:0] $end
$upscope $end
$scope module data_mem $end
$var wire 32 =# addr [31:0] $end
$var wire 1 " clk $end
$var wire 32 ># readData [31:0] $end
$var wire 32 ?# writeData [31:0] $end
$var wire 1 L writeEnable $end
$var integer 32 @# i [31:0] $end
$upscope $end
$scope module prog_mem $end
$var wire 32 A# pc [31:0] $end
$var wire 32 B# instruction [31:0] $end
$var reg 32 C# instruction_reg [31:0] $end
$upscope $end
$scope module regFile $end
$var wire 1 " clk $end
$var wire 5 D# readReg1 [4:0] $end
$var wire 5 E# readReg2 [4:0] $end
$var wire 32 F# writeData [31:0] $end
$var wire 1 ; writeEnable $end
$var wire 5 G# writeReg [4:0] $end
$var wire 32 H# readData2 [31:0] $end
$var wire 32 I# readData1 [31:0] $end
$var integer 32 J# i [31:0] $end
$upscope $end
$upscope $end
$upscope $end
$enddefinitions $end
#0
$dumpvars
b100000 J#
b0 I#
b0 H#
b0 G#
b0 F#
b0 E#
b0 D#
b100000000010000000000000000000 C#
b100000000010000000000000000000 B#
b111001 A#
b100000000 @#
bx ?#
bx >#
bx =#
b10 <#
b1000 ;#
b10000000 :#
b0 9#
x8#
x7#
b0 6#
bx 5#
bx 4#
bx 3#
x2#
x1#
bx 0#
bx /#
bx .#
x-#
b0 ,#
b0 +#
b0 *#
b0 )#
b0 (#
bx '#
x&#
x%#
b0 $#
b0 ##
x"#
b0 !#
b0 ~"
b0 }"
b0 |"
b0 {"
b0 z"
b0 y"
b0 x"
b0 w"
b0 v"
b0 u"
b0 t"
b0 s"
b0 r"
b100000000010000000000000000000 q"
b111010 p"
b0 o"
b0 n"
b0 m"
b0 l"
b0 k"
b0 j"
b0 i"
b0 h"
b0 g"
b0 f"
b0 e"
b0 d"
b0 c"
b0 b"
b0 a"
b0 `"
b0 _"
1^"
b110 ]"
b0 \"
0["
1Z"
1Y"
0X"
1W"
1V"
0U"
1T"
1S"
0R"
0Q"
0P"
0O"
b0 N"
b0 M"
b0 L"
b0 K"
b0 J"
b0 I"
b0 H"
b0 G"
b0 F"
b0 E"
b0 D"
b0 C"
b0 B"
b0 A"
b0 @"
b0 ?"
b0 >"
b0 ="
b110 <"
b0 ;"
b0 :"
b111001 9"
08"
b0 7"
b0 6"
b110 5"
14"
03"
02"
01"
b0 0"
b0 /"
0."
0-"
0,"
1+"
1*"
b0 )"
b0 ("
b0 '"
b0 &"
b0 %"
0$"
b0 #"
0""
0!"
0~
0}
0|
0{
0z
b0 y
b0 x
b0 w
b0 v
b0 u
0t
b0 s
b0 r
b0 q
b0 p
b0 o
b0 n
b0 m
0l
0k
0j
0i
0h
0g
0f
0e
0d
0c
b0 b
b0 a
b0 `
b0 _
b0 ^
b0 ]
b0 \
b0 [
b0 Z
b0 Y
b0 X
b0 W
b0 V
b100000000010000000000000000000 U
0T
b0 S
bx R
bx Q
b0 P
0O
bx N
bx M
0L
0K
0J
0I
0H
b0 G
b0 F
b0 E
b0 D
b111010 C
b0 B
b0 A
0@
b0 ?
0>
b0 =
b0 <
0;
b0 :
19
08
07
b111001 6
05
04
03
12
11
b0 0
0/
0.
r0 -
b0 ,
b0 +
b0 *
b0 )
b0 (
1'
0&
0%
b0 $
b0 #
1"
0!
$end
#5000
0"
#9000
0'
#10000
09
b0 5"
b0 <"
b0 ]"
0+"
14"
1*"
b100000000010010000000001100100 U
b100000000010010000000001100100 q"
b100000000010010000000001100100 B#
b100000000010010000000001100100 C#
18
0S"
0V"
0Y"
b1000 N"
b10000000000000000000 S
b1000 n
b1000 b"
b1000 E#
b1000 q
b1000 ;"
b111011 C
b111011 p"
b111010 9"
b111010 A#
b110 m
b110 g"
b110 }"
1l
1d
1c
b111010 X
b111010 e"
b111010 f"
b111010 s"
b100000000010000000000000000000 Y
b100000000010000000000000000000 r"
b1 ,
1"
#15000
0"
#20000
b1100100 V
b1100100 _"
b1100100 W
b0 5"
b0 <"
b0 ]"
14"
1*"
b1001 N"
b10010000000001100100 S
b1 ?
b1100100 r
b1001 n
b1001 b"
b1001 E#
b100100 s
b100100 :"
08
1X"
0W"
0V"
b1000 Z
b1000 >"
b1000 L"
b10001101000010100000000000000000 U
b10001101000010100000000000000000 q"
b10001101000010100000000000000000 B#
b10001101000010100000000000000000 C#
b111011 X
b111011 e"
b111011 f"
b111011 s"
b100000000010010000000001100100 Y
b100000000010010000000001100100 r"
b111010 a
b111010 ?"
b111010 i"
b0 m
b0 g"
b0 }"
0d
0S"
0T"
1U"
b1000 [
b1000 G"
b1000 \"
b1000 o"
b111010 0
b111010 #"
b111010 `
b111010 j"
1z
b111100 C
b111100 p"
b111011 9"
b111011 A#
b10 ,
1"
#25000
0"
#30000
b0 V
b0 _"
1O"
b1100100 %"
b1100100 @"
b1100100 !#
b0 W
1-"
1."
b0 5"
b0 <"
b0 ]"
14"
1*"
b100001000010000000000000000100 U
b100001000010000000000000000100 q"
b100001000010000000000000000100 B#
b100001000010000000000000000100 C#
1;
b1001 Z
b1001 >"
b1001 L"
b1100100 '"
b1100100 ~"
b1010 N"
0W"
b1000 M"
b1000010100000000000000000 S
b0 ?
b0 r
b1010 n
b1010 b"
b1010 E#
b1000 o
b1000 a"
b1000 D#
b0 s
b0 :"
b100011 q
b100011 ;"
b111101 C
b111101 p"
b111100 9"
b111100 A#
1H
b111010 x
b111010 B"
b111010 u"
1["
1Z"
b1000 v
b1000 D"
b1000 E"
b1000 K"
b1000 v"
b111011 a
b111011 ?"
b111011 i"
0S"
b1001 [
b1001 G"
b1001 \"
b1001 o"
b1100100 b
b1100100 h"
b10011111 0
b10011111 #"
b111011 `
b111011 j"
b111100 X
b111100 e"
b111100 f"
b111100 s"
b10001101000010100000000000000000 Y
b10001101000010100000000000000000 r"
b11 ,
1"
#35000
0"
#40000
b100 V
b100 _"
0>
b100 W
b0 5"
b0 <"
b0 ]"
14"
0-"
0."
1*"
0R"
b0 %"
b0 @"
b0 !#
0O"
b1000 N"
b1000010000000000000000100 S
b100 r
b1000 n
b1000 b"
b1000 E#
b100 s
b100 :"
b1000 q
b1000 ;"
0V"
b1010 Z
b1010 >"
b1010 L"
b0 '"
b0 ~"
b11 *#
b1 (#
b1000 <
b1000 G#
b1 0"
b1 I"
b100001001010011111111111111111 U
b100001001010011111111111111111 q"
b100001001010011111111111111111 B#
b100001001010011111111111111111 C#
b111101 X
b111101 e"
b111101 f"
b111101 s"
b100001000010000000000000000100 Y
b100001000010000000000000000100 r"
b111100 a
b111100 ?"
b111100 i"
1f
1Q"
1g
0S"
b1010 [
b1010 G"
b1010 \"
b1010 o"
b1000 \
b1000 H"
b1000 n"
b0 b
b0 h"
b111100 0
b111100 #"
b111100 `
b111100 j"
b111011 x
b111011 B"
b111011 u"
0Z"
b1001 v
b1001 D"
b1001 E"
b1001 K"
b1001 v"
b1100100 y
b1100100 A"
b1100100 t"
b1100100 ##
b111010 F
b111010 y"
b1000 D
b1000 F"
b1000 {"
b111110 C
b111110 p"
b111101 9"
b111101 A#
b100 ,
1"
#45000
0"
#50000
b1100100 :
b1100100 B
b1100100 d"
b1100100 I#
b1100100 A
b1100100 c"
b1100100 H#
b11111111111111111111111111111111 V
b11111111111111111111111111111111 _"
b1100100 =
b1100100 F#
b100 %"
b100 @"
b100 !#
b11111111111111111111111111111111 W
b0 5"
b0 <"
b0 ]"
14"
1*"
b10101001000001111111111111100 U
b10101001000001111111111111100 q"
b10101001000001111111111111100 B#
b10101001000001111111111111100 C#
b1001 <
b1001 G#
b1100100 u
b0 *#
b0 (#
b1000 Z
b1000 >"
b1000 L"
b0 0"
b0 I"
b100 '"
b100 ~"
b1001 N"
b1001 M"
b1001010011111111111111111 S
b11111 ?
b1111111111111111 r
b11111 p
b11111 `"
b1001 n
b1001 b"
b1001 E#
b1001 o
b1001 a"
b1001 D#
b111111 s
b111111 :"
b111111 C
b111111 p"
b111110 9"
b111110 A#
b111011 F
b111011 y"
b1001 D
b1001 F"
b1001 {"
b1100100 G
b1100100 x"
b111100 x
b111100 B"
b111100 u"
1|
1}
b1010 v
b1010 D"
b1010 E"
b1010 K"
b1010 v"
b0 y
b0 A"
b0 t"
b0 ##
b111101 a
b111101 ?"
b111101 i"
0f
0Q"
0g
0S"
0T"
b1000 [
b1000 G"
b1000 \"
b1000 o"
b100 b
b100 h"
b1000001 0
b1000001 #"
b111101 `
b111101 j"
b111110 X
b111110 e"
b111110 f"
b111110 s"
b100001001010011111111111111111 Y
b100001001010011111111111111111 r"
b1100100 $
b101 ,
1"
#55000
0"
#60000
b11111111111111111111111111111100 V
b11111111111111111111111111111100 _"
0^"
1P"
b1100100 :
b1100100 B
b1100100 d"
b1100100 I#
b0 A
b0 c"
b0 H#
b11111111111111111111111111111100 W
13"
12"
b1001 5"
b1001 <"
b1001 ]"
04"
0*"
b1100011 %"
b1100011 @"
b1100011 !#
b1100100 ("
b1100100 |"
0"#
b0 =
b0 F#
1t
b0 N"
b1001000001111111111111100 S
b1111111111111100 r
b0 n
b0 b"
b0 E#
b111100 s
b111100 :"
b101 q
b101 ;"
1W"
0V"
b1001 Z
b1001 >"
b1001 L"
b11111111111111111111111111111111 '"
b11111111111111111111111111111111 ~"
b1 (#
b1100100 &"
b1100100 7"
b1100100 ="
b1100100 )"
b1100100 6"
0%#
0&#
b1010 <
b1010 G#
b0 u
b11111100000000000000000000000000 U
b11111100000000000000000000000000 q"
b11111100000000000000000000000000 B#
b11111100000000000000000000000000 C#
b111111 X
b111111 e"
b111111 f"
b111111 s"
b10101001000001111111111111100 Y
b10101001000001111111111111100 r"
b111110 a
b111110 ?"
b111110 i"
b11111 _
b11111 k"
0S"
1T"
b1001 [
b1001 G"
b1001 \"
b1001 o"
b1001 \
b1001 H"
b1001 n"
b11111111111111111111111111111111 b
b11111111111111111111111111111111 h"
b1100100 ]
b1100100 m"
b1100100 ^
b1100100 l"
b111101 0
b111101 #"
b111110 `
b111110 j"
b111101 x
b111101 B"
b111101 u"
0|
0}
b1000 v
b1000 D"
b1000 E"
b1000 K"
b1000 v"
b100 y
b100 A"
b100 t"
b100 ##
1""
b1 6#
02#
11#
b0 5#
b0 3#
b0 4#
b111100 F
b111100 y"
1I
b1010 D
b1010 F"
b1010 {"
b0 G
b0 x"
b1000000 C
b1000000 p"
b111111 9"
b111111 A#
b0 $
1%
b110 ,
1"
#65000
0"
#70000
14
b1100011 ("
b1100011 |"
b0 V
b0 _"
b100 =
b100 F#
1/
1.
0P"
b1100011 )"
b1100011 6"
05
b0 W
b0 :
b0 B
b0 d"
b0 I#
b1111 5"
b1111 <"
b1111 ]"
03"
02"
b100 u
b1000 <
b1000 G#
b11 *#
b0 (#
b0 %"
b0 @"
b0 !#
1$"
0X"
1V"
b0 Z
b0 >"
b0 L"
b10 0"
b10 I"
b0 '"
b0 ~"
b0 &"
b0 7"
b0 ="
1W"
b0 M"
b0 S
b0 ?
b0 r
b0 p
b0 `"
b0 o
b0 a"
b0 D#
b0 s
b0 :"
b111111 q
b111111 ;"
b111101 F
b111101 y"
0I
b1000 D
b1000 F"
b1000 {"
b100 G
b100 x"
b11 6#
07#
18#
b111110 x
b111110 B"
b111110 u"
0Z"
b1001 v
b1001 D"
b1001 E"
b1001 K"
b1001 v"
b1100100 w
b1100100 C"
b1100100 $#
b1100011 y
b1100011 A"
b1100011 t"
b1100011 ##
b111111 a
b111111 ?"
b111111 i"
b1001 m
b1001 g"
b1001 }"
0l
1j
1k
0c
1S"
1T"
0U"
b0 [
b0 G"
b0 \"
b0 o"
b11111111111111111111111111111100 b
b11111111111111111111111111111100 h"
b0 ]
b0 m"
b111011 0
b111011 #"
b111111 `
b111111 j"
b1000000 X
b1000000 e"
b1000000 f"
b1000000 s"
b11111100000000000000000000000000 Y
b11111100000000000000000000000000 r"
b100 $
0%
b1 #
b1 +
b1 )
b111 ,
1"
#75000
0"
#80000
1^"
04
b0 Q
b0 '#
b0 >#
19
14"
b110 5"
b110 <"
b110 ]"
1+"
1*"
b0 ("
b0 |"
b1100011 =
b1100011 F#
0t
b0 q
b0 ;"
0$"
0/
0.
b0 *#
b0 )"
b0 6"
b0 =#
b1001 <
b1001 G#
b0 0"
b0 I"
b1100011 u
b10001101000010100000000000000000 U
b10001101000010100000000000000000 q"
b10001101000010100000000000000000 B#
b10001101000010100000000000000000 C#
b0 X
b0 e"
b0 f"
b0 s"
b0 Y
b0 r"
b1000000 a
b1000000 ?"
b1000000 i"
b1111 m
b1111 g"
b1111 }"
0j
0k
b0 _
b0 k"
b0 \
b0 H"
b0 n"
b0 b
b0 h"
b0 ^
b0 l"
b1000000 0
b1000000 #"
b1000000 `
b1000000 j"
b111111 x
b111111 B"
b111111 u"
0z
0["
1Z"
1Y"
b0 v
b0 D"
b0 E"
b0 K"
b0 v"
b0 w
b0 C"
b0 $#
b0 y
b0 A"
b0 t"
b0 ##
b1 +#
b0 R
b0 .#
1O
b111110 F
b111110 y"
b1001 D
b1001 F"
b1001 {"
b1100011 G
b1100011 x"
13
18"
b111100 C
b111100 p"
b111011 9"
b111011 A#
b1100011 $
b11 #
b1 (
b1000 ,
1"
#85000
0"
#90000
b0 =
b0 F#
b100 :
b100 B
b100 d"
b100 I#
09
1-"
1."
b0 5"
b0 <"
b0 ]"
0+"
14"
1*"
b100001000010000000000000000100 U
b100001000010000000000000000100 q"
b100001000010000000000000000100 B#
b100001000010000000000000000100 C#
0;
b0 <
b0 G#
b0 u
b100 =#
0S"
0V"
0Y"
b1010 N"
0T"
0W"
0Z"
b1000 M"
b1000010100000000000000000 S
b1010 n
b1010 b"
b1010 E#
b1000 o
b1000 a"
b1000 D#
b100011 q
b100011 ;"
b111101 C
b111101 p"
b111100 9"
b111100 A#
03
08"
b111111 F
b111111 y"
0H
b0 D
b0 F"
b0 {"
b0 G
b0 x"
b10 +#
b100 R
b100 .#
b1000000 x
b1000000 B"
b1000000 u"
b0 a
b0 ?"
b0 i"
b0 m
b0 g"
b0 }"
b0 0
b0 #"
b0 `
b0 j"
b111100 X
b111100 e"
b111100 f"
b111100 s"
b10001101000010100000000000000000 Y
b10001101000010100000000000000000 r"
b0 $
b1001 ,
1"
#95000
0"
#100000
b100 V
b100 _"
0>
b100 %"
b100 @"
b100 !#
b100 W
b100 A
b100 c"
b100 H#
b0 5"
b0 <"
b0 ]"
14"
0-"
0."
1*"
0R"
b100 ("
b100 |"
b1000 N"
b1000010000000000000000100 S
b100 r
b1000 n
b1000 b"
b1000 E#
b100 s
b100 :"
b1000 q
b1000 ;"
1X"
0V"
b1010 Z
b1010 >"
b1010 L"
b100 )"
b100 6"
b1000 =#
b100001001010011111111111111111 U
b100001001010011111111111111111 q"
b100001001010011111111111111111 B#
b100001001010011111111111111111 C#
b111101 X
b111101 e"
b111101 f"
b111101 s"
b100001000010000000000000000100 Y
b100001000010000000000000000100 r"
b111100 a
b111100 ?"
b111100 i"
1l
1f
1Q"
1g
1c
0S"
1U"
b1010 [
b1010 G"
b1010 \"
b1010 o"
b1000 \
b1000 H"
b1000 n"
b100 ^
b100 l"
b111100 0
b111100 #"
b111100 `
b111100 j"
b0 x
b0 B"
b0 u"
b11 +#
b1000 R
b1000 .#
b1000000 F
b1000000 y"
b111110 C
b111110 p"
b111101 9"
b111101 A#
b1010 ,
1"
#105000
0"
#110000
b11111111111111111111111111111111 V
b11111111111111111111111111111111 _"
b1000 %"
b1000 @"
b1000 !#
b11111111111111111111111111111111 W
b1100011 A
b1100011 c"
b1100011 H#
b1100011 :
b1100011 B
b1100011 d"
b1100011 I#
b0 5"
b0 <"
b0 ]"
14"
1*"
b10101001000001111111111111100 U
b10101001000001111111111111100 q"
b10101001000001111111111111100 B#
b10101001000001111111111111100 C#
b1100 =#
b1 (#
b1000 Z
b1000 >"
b1000 L"
b100 '"
b100 ~"
b100 &"
b100 7"
b100 ="
b1001 N"
b1001 M"
b1001010011111111111111111 S
b11111 ?
b1111111111111111 r
b11111 p
b11111 `"
b1001 n
b1001 b"
b1001 E#
b1001 o
b1001 a"
b1001 D#
b111111 s
b111111 :"
b111111 C
b111111 p"
b111110 9"
b111110 A#
b0 F
b0 y"
b100 +#
b1100 R
b1100 .#
b111100 x
b111100 B"
b111100 u"
1|
1}
1z
1["
b1010 v
b1010 D"
b1010 E"
b1010 K"
b1010 v"
b100 y
b100 A"
b100 t"
b100 ##
b111101 a
b111101 ?"
b111101 i"
0f
0Q"
0g
0S"
0T"
b1000 [
b1000 G"
b1000 \"
b1000 o"
b100 b
b100 h"
b100 ]
b100 m"
b1000001 0
b1000001 #"
b111101 `
b111101 j"
b111110 X
b111110 e"
b111110 f"
b111110 s"
b100001001010011111111111111111 Y
b100001001010011111111111111111 r"
b1011 ,
1"
#115000
0"
