StonyBrook/ComputerArchitecture/Homework4/hw_cached.vcd
$date
	Sun Nov 30 13:11:09 2025
$end
$version
	Icarus Verilog
$end
$timescale
	1ps
$end
$scope module pipeline_processor_tb $end
$var wire 1 ! done $end
$var reg 1 " clk $end
$var reg 3 # prev_cache_state [2:0] $end
$var reg 32 $ prev_exmem_addr [31:0] $end
$var reg 1 % prev_exmem_memread $end
$var reg 1 & prev_exmem_memwrite $end
$var reg 1 ' reset $end
$var integer 32 ( branch_count [31:0] $end
$var integer 32 ) cache_accesses [31:0] $end
$var integer 32 * cache_hits [31:0] $end
$var integer 32 + cache_misses [31:0] $end
$var integer 32 , cycle_count [31:0] $end
$var real 1 - hit_rate $end
$scope module DUT $end
$var wire 1 . branch_taken $end
$var wire 1 / branch_taken_ex $end
$var wire 32 0 branch_target_ex [31:0] $end
$var wire 1 " clk $end
$var wire 1 ! done $end
$var wire 1 1 enable_forwarding $end
$var wire 1 2 enable_hazard_detection $end
$var wire 1 3 flush_idex $end
$var wire 1 4 flush_ifid $end
$var wire 1 5 halt_id $end
$var wire 32 6 initial_pc [31:0] $end
$var wire 1 7 is_jr $end
$var wire 1 8 is_shift_ex $end
$var wire 1 9 is_shift_id $end
$var wire 32 : jr_target [31:0] $end
$var wire 1 ' reset $end
$var wire 1 ; writeback_enable_wb $end
$var wire 5 < writeback_reg_wb [4:0] $end
$var wire 32 = writeback_data_wb [31:0] $end
$var wire 1 > stall $end
$var wire 32 ? shamt_ext_id [31:0] $end
$var wire 1 @ registers_equal $end
$var wire 32 A reg_read2_id [31:0] $end
$var wire 32 B reg_read1_id [31:0] $end
$var wire 32 C next_pc_if [31:0] $end
$var wire 5 D memwb_writereg_out [4:0] $end
$var wire 32 E memwb_memread_out [31:0] $end
$var wire 32 F memwb_link_out [31:0] $end
$var wire 32 G memwb_aluout_out [31:0] $end
$var wire 1 H memwb_RegWrite_out $end
$var wire 1 I memwb_MemToReg_out $end
$var wire 1 J memwb_JAL_out $end
$var wire 1 K memwb_Halt_out $end
$var wire 1 L mem_write_en $end
$var wire 32 M mem_write_data [31:0] $end
$var wire 32 N mem_write_addr [31:0] $end
$var wire 1 O mem_read_en $end
$var wire 32 P mem_read_data_mem [31:0] $end
$var wire 32 Q mem_read_data_from_mem [31:0] $end
$var wire 32 R mem_read_addr [31:0] $end
$var wire 32 S jal_target [31:0] $end
$var wire 1 T is_jal $end
$var wire 32 U instr_if [31:0] $end
$var wire 32 V imm_or_shamt [31:0] $end
$var wire 32 W imm_ext_id [31:0] $end
$var wire 32 X ifid_next_pc_out [31:0] $end
$var wire 32 Y ifid_instr_out [31:0] $end
$var wire 5 Z idex_write_reg [4:0] $end
$var wire 5 [ idex_rt_out [4:0] $end
$var wire 5 \ idex_rs_out [4:0] $end
$var wire 32 ] idex_regdata2_out [31:0] $end
$var wire 32 ^ idex_regdata1_out [31:0] $end
$var wire 5 _ idex_rd_out [4:0] $end
$var wire 32 ` idex_next_pc_out [31:0] $end
$var wire 32 a idex_link_out [31:0] $end
$var wire 32 b idex_imm_out [31:0] $end
$var wire 1 c idex_RegWrite $end
$var wire 1 d idex_RegDst $end
$var wire 1 e idex_MemWrite $end
$var wire 1 f idex_MemToReg $end
$var wire 1 g idex_MemRead $end
$var wire 1 h idex_JAL_out $end
$var wire 1 i idex_Halt_out $end
$var wire 1 j idex_BranchNotEqual $end
$var wire 1 k idex_Branch $end
$var wire 1 l idex_ALUSrc $end
$var wire 4 m idex_ALUOp [3:0] $end
$var wire 5 n id_rt [4:0] $end
$var wire 5 o id_rs [4:0] $end
$var wire 5 p id_rd [4:0] $end
$var wire 6 q id_opcode [5:0] $end
$var wire 16 r id_imm [15:0] $end
$var wire 6 s id_funct [5:0] $end
$var wire 1 t halt_if $end
$var wire 32 u forward_from_memwb [31:0] $end
$var wire 5 v exmem_write_reg_out [4:0] $end
$var wire 32 w exmem_write_data_out [31:0] $end
$var wire 32 x exmem_link_out [31:0] $end
$var wire 32 y exmem_alu_result_out [31:0] $end
$var wire 1 z exmem_RegWrite_out $end
$var wire 1 { exmem_MemWrite_out $end
$var wire 1 | exmem_MemToReg_out $end
$var wire 1 } exmem_MemRead_out $end
$var wire 1 ~ exmem_JAL_out $end
$var wire 1 !" exmem_Halt_out $end
$var wire 1 "" cache_stall $end
$var wire 32 #" branch_target [31:0] $end
$var wire 1 $" branch_decision $end
$var wire 32 %" alu_result_ex [31:0] $end
$var wire 32 &" alu_input_B_pre [31:0] $end
$var wire 32 '" alu_input_B [31:0] $end
$var wire 32 (" alu_input_A_final [31:0] $end
$var wire 32 )" alu_input_A [31:0] $end
$var wire 1 *" RegWrite_id $end
$var wire 1 +" RegDst_id $end
$var wire 1 ," MemWrite_id $end
$var wire 1 -" MemToReg_id $end
$var wire 1 ." MemRead_id $end
$var wire 2 /" ForwardB [1:0] $end
$var wire 2 0" ForwardA [1:0] $end
$var wire 1 1" ExtOp_id $end
$var wire 1 2" Branch_id $end
$var wire 1 3" BranchNotEqual_id $end
$var wire 1 4" ALUSrc_id $end
$var wire 4 5" ALUOp_id [3:0] $end
$var reg 32 6" alu_input_A_reg [31:0] $end
$var reg 32 7" alu_input_Bpre_reg [31:0] $end
$var reg 1 8" branch_taken_prev $end
$var reg 32 9" pc [31:0] $end
$scope module CU $end
$var wire 6 :" funct [5:0] $end
$var wire 6 ;" opcode [5:0] $end
$var reg 4 <" ALUOp [3:0] $end
$var reg 1 4" ALUSrc $end
$var reg 1 2" Branch $end
$var reg 1 3" BranchNotEqual $end
$var reg 1 1" ExtOp $end
$var reg 1 ." MemRead $end
$var reg 1 -" MemToReg $end
$var reg 1 ," MemWrite $end
$var reg 1 +" RegDst $end
$var reg 1 *" RegWrite $end
$upscope $end
$scope module EXMEM $end
$var wire 1 " clk $end
$var wire 1 ' reset $end
$var wire 32 =" write_data_in [31:0] $end
$var wire 5 >" write_reg_in [4:0] $end
$var wire 32 ?" link_in [31:0] $end
$var wire 32 @" alu_result_in [31:0] $end
$var wire 1 c RegWrite_in $end
$var wire 1 e MemWrite_in $end
$var wire 1 f MemToReg_in $end
$var wire 1 g MemRead_in $end
$var wire 1 h JAL_in $end
$var wire 1 i Halt_in $end
$var reg 1 !" Halt_out $end
$var reg 1 ~ JAL_out $end
$var reg 1 } MemRead_out $end
$var reg 1 | MemToReg_out $end
$var reg 1 { MemWrite_out $end
$var reg 1 z RegWrite_out $end
$var reg 32 A" alu_result_out [31:0] $end
$var reg 32 B" link_out [31:0] $end
$var reg 32 C" write_data_out [31:0] $end
$var reg 5 D" write_reg_out [4:0] $end
$upscope $end
$scope module FU $end
$var wire 5 E" EX_MEM_Rd [4:0] $end
$var wire 1 z EX_MEM_RegWrite $end
$var wire 1 1 enable_forwarding $end
$var wire 1 H MEM_WB_RegWrite $end
$var wire 5 F" MEM_WB_Rd [4:0] $end
$var wire 5 G" ID_EX_Rt [4:0] $end
$var wire 5 H" ID_EX_Rs [4:0] $end
$var reg 2 I" ForwardA [1:0] $end
$var reg 2 J" ForwardB [1:0] $end
$upscope $end
$scope module HZ $end
$var wire 5 K" EX_MEM_Rd [4:0] $end
$var wire 1 z EX_MEM_RegWrite $end
$var wire 5 L" ID_EX_Rd [4:0] $end
$var wire 5 M" IF_ID_Rs [4:0] $end
$var wire 5 N" IF_ID_Rt [4:0] $end
$var wire 1 1 enable_forwarding $end
$var wire 1 2 enable_hazard_detection $end
$var wire 1 O" exmem_raw_hazard $end
$var wire 1 P" idex_raw_hazard $end
$var wire 1 Q" is_load $end
$var wire 1 R" load_use_hazard $end
$var wire 1 S" load_rt_match $end
$var wire 1 T" load_rs_match $end
$var wire 1 U" load_dest_valid $end
$var wire 1 V" idex_rt_match $end
$var wire 1 W" idex_rs_match $end
$var wire 1 X" idex_dest_valid $end
$var wire 1 Y" exmem_rt_match $end
$var wire 1 Z" exmem_rs_match $end
$var wire 1 [" exmem_dest_valid $end
$var wire 5 \" ID_EX_Rt [4:0] $end
$var wire 1 c ID_EX_RegWrite $end
$var wire 1 g ID_EX_MemRead $end
$var reg 1 > stall $end
$upscope $end
$scope module IDEX $end
$var wire 4 ]" ALUOp_in [3:0] $end
$var wire 1 4" ALUSrc_in $end
$var wire 1 3" BranchNotEqual_in $end
$var wire 1 2" Branch_in $end
$var wire 1 5 Halt_in $end
$var wire 1 T JAL_in $end
$var wire 1 ." MemRead_in $end
$var wire 1 -" MemToReg_in $end
$var wire 1 ," MemWrite_in $end
$var wire 1 +" RegDst_in $end
$var wire 1 ^" RegWrite_in $end
$var wire 1 " clk $end
$var wire 1 3 flush $end
$var wire 32 _" imm_in [31:0] $end
$var wire 5 `" rd_in [4:0] $end
$var wire 1 ' reset $end
$var wire 5 a" rs_in [4:0] $end
$var wire 5 b" rt_in [4:0] $end
$var wire 1 > stall $end
$var wire 32 c" regdata2_in [31:0] $end
$var wire 32 d" regdata1_in [31:0] $end
$var wire 32 e" next_pc_in [31:0] $end
$var wire 32 f" link_in [31:0] $end
$var reg 4 g" ALUOp_out [3:0] $end
$var reg 1 l ALUSrc_out $end
$var reg 1 j BranchNotEqual_out $end
$var reg 1 k Branch_out $end
$var reg 1 i Halt_out $end
$var reg 1 h JAL_out $end
$var reg 1 g MemRead_out $end
$var reg 1 f MemToReg_out $end
$var reg 1 e MemWrite_out $end
$var reg 1 d RegDst_out $end
$var reg 1 c RegWrite_out $end
$var reg 32 h" imm_out [31:0] $end
$var reg 32 i" link_out [31:0] $end
$var reg 32 j" next_pc_out [31:0] $end
$var reg 5 k" rd_out [4:0] $end
$var reg 32 l" regdata1_out [31:0] $end
$var reg 32 m" regdata2_out [31:0] $end
$var reg 5 n" rs_out [4:0] $end
$var reg 5 o" rt_out [4:0] $end
$upscope $end
$scope module IFID $end
$var wire 1 " clk $end
$var wire 1 4 flush $end
$var wire 32 p" next_pc_in [31:0] $end
$var wire 1 ' reset $end
$var wire 1 > stall $end
$var wire 32 q" instr_in [31:0] $end
$var reg 32 r" instr_out [31:0] $end
$var reg 32 s" next_pc_out [31:0] $end
$upscope $end
$scope module MEMWB $end
$var wire 1 !" Halt_in $end
$var wire 1 ~ JAL_in $end
$var wire 1 | MemToReg_in $end
$var wire 1 z RegWrite_in $end
$var wire 32 t" alu_result_in [31:0] $end
$var wire 1 " clk $end
$var wire 32 u" link_in [31:0] $end
$var wire 1 ' reset $end
$var wire 5 v" write_reg_in [4:0] $end
$var wire 32 w" mem_read_in [31:0] $end
$var reg 1 K Halt_out $end
$var reg 1 J JAL_out $end
$var reg 1 I MemToReg_out $end
$var reg 1 H RegWrite_out $end
$var reg 32 x" alu_result_out [31:0] $end
$var reg 32 y" link_out [31:0] $end
$var reg 32 z" mem_read_out [31:0] $end
$var reg 5 {" write_reg_out [4:0] $end
$upscope $end
$scope module alu_ex $end
$var wire 32 |" a [31:0] $end
$var wire 4 }" alu_sel [3:0] $end
$var wire 32 ~" b [31:0] $end
$var reg 32 !# alu_out [31:0] $end
$upscope $end
$scope module cache $end
$var wire 1 "# cache_hit $end
$var wire 1 " clk $end
$var wire 32 ## cpu_addr [31:0] $end
$var wire 1 } cpu_read $end
$var wire 1 { cpu_write $end
$var wire 32 $# cpu_write_data [31:0] $end
$var wire 1 ' reset $end
$var wire 1 %# way0_hit $end
$var wire 1 &# way1_hit $end
$var wire 32 '# mem_read_data [31:0] $end
$var wire 3 (# addr_word_offset [2:0] $end
$var wire 20 )# addr_tag [19:0] $end
$var wire 7 *# addr_index [6:0] $end
$var reg 3 +# alloc_counter [2:0] $end
$var reg 1 "" cache_stall $end
$var reg 32 ,# cpu_read_data [31:0] $end
$var reg 1 -# hit_way $end
$var reg 32 .# mem_read_addr [31:0] $end
$var reg 1 O mem_read_en $end
$var reg 32 /# mem_write_addr [31:0] $end
$var reg 32 0# mem_write_data [31:0] $end
$var reg 1 L mem_write_en $end
$var reg 1 1# saved_cpu_read $end
$var reg 1 2# saved_cpu_write $end
$var reg 7 3# saved_index [6:0] $end
$var reg 20 4# saved_tag [19:0] $end
$var reg 3 5# saved_word_offset [2:0] $end
$var reg 3 6# state [2:0] $end
$var reg 1 7# victim_way $end
$var reg 1 8# was_read $end
$var reg 3 9# wb_counter [2:0] $end
$var integer 32 :# i [31:0] $end
$var integer 32 ;# j [31:0] $end
$var integer 32 <# k [31:0] $end
$upscope $end
$scope module data_mem $end
$var wire 32 =# addr [31:0] $end
$var wire 1 " clk $end
$var wire 32 ># readData [31:0] $end
$var wire 32 ?# writeData [31:0] $end
$var wire 1 L writeEnable $end
$var integer 32 @# i [31:0] $end
$upscope $end
$scope module prog_mem $end
$var wire 32 A# pc [31:0] $end
$var wire 32 B# instruction [31:0] $end
$var reg 32 C# instruction_reg [31:0] $end
$upscope $end
$scope module regFile $end
$var wire 1 " clk $end
$var wire 5 D# readReg1 [4:0] $end
$var wire 5 E# readReg2 [4:0] $end
$var wire 32 F# writeData [31:0] $end
$var wire 1 ; writeEnable $end
$var wire 5 G# writeReg [4:0] $end
$var wire 32 H# readData2 [31:0] $end
$var wire 32 I# readData1 [31:0] $end
$var integer 32 J# i [31:0] $end
$upscope $end
$upscope $end
$upscope $end
$enddefinitions $end
#0
$dumpvars
b100000 J#
b0 I#
b0 H#
b0 G#
b0 F#
b0 E#
b0 D#
b100000000010000000000000000000 C#
b100000000010000000000000000000 B#
b1001001 A#
b100000000000000 @#
bx ?#
bx >#
bx =#
b10 <#
b1000 ;#
b10000000 :#
b0 9#
x8#
x7#
b0 6#
bx 5#
bx 4#
bx 3#
x2#
x1#
bx 0#
bx /#
bx .#
x-#
b0 ,#
b0 +#
b0 *#
b0 )#
b0 (#
bx '#
x&#
x%#
b0 $#
b0 ##
x"#
b0 !#
b0 ~"
b0 }"
b0 |"
b0 {"
b0 z"
b0 y"
b0 x"
b0 w"
b0 v"
b0 u"
b0 t"
b0 s"
b0 r"
b100000000010000000000000000000 q"
b1001010 p"
b0 o"
b0 n"
b0 m"
b0 l"
b0 k"
b0 j"
b0 i"
b0 h"
b0 g"
b0 f"
b0 e"
b0 d"
b0 c"
b0 b"
b0 a"
b0 `"
b0 _"
1^"
b110 ]"
b0 \"
0["
1Z"
1Y"
0X"
1W"
1V"
0U"
1T"
1S"
0R"
0Q"
0P"
0O"
b0 N"
b0 M"
b0 L"
b0 K"
b0 J"
b0 I"
b0 H"
b0 G"
b0 F"
b0 E"
b0 D"
b0 C"
b0 B"
b0 A"
b0 @"
b0 ?"
b0 >"
b0 ="
b110 <"
b0 ;"
b0 :"
b1001001 9"
08"
b0 7"
b0 6"
b110 5"
14"
03"
02"
01"
b0 0"
b0 /"
0."
0-"
0,"
1+"
1*"
b0 )"
b0 ("
b0 '"
b0 &"
b0 %"
0$"
b0 #"
0""
0!"
0~
0}
0|
0{
0z
b0 y
b0 x
b0 w
b0 v
b0 u
0t
b0 s
b0 r
b0 q
b0 p
b0 o
b0 n
b0 m
0l
0k
0j
0i
0h
0g
0f
0e
0d
0c
b0 b
b0 a
b0 `
b0 _
b0 ^
b0 ]
b0 \
b0 [
b0 Z
b0 Y
b0 X
b0 W
b0 V
b100000000010000000000000000000 U
0T
b0 S
bx R
bx Q
b0 P
0O
bx N
bx M
0L
0K
0J
0I
0H
b0 G
b0 F
b0 E
b0 D
b1001010 C
b0 B
b0 A
0@
b0 ?
0>
b0 =
b0 <
0;
b0 :
19
08
07
b1001001 6
05
04
03
12
11
b0 0
0/
0.
r0 -
b0 ,
b0 +
b0 *
b0 )
b0 (
1'
0&
0%
b0 $
b0 #
1"
0!
$end
#5000
0"
#9000
0'
#10000
09
b0 5"
b0 <"
b0 ]"
0+"
14"
1*"
b100000000010010010000000000000 U
b100000000010010010000000000000 q"
b100000000010010010000000000000 B#
b100000000010010010000000000000 C#
18
0S"
0V"
0Y"
b1000 N"
b10000000000000000000 S
b1000 n
b1000 b"
b1000 E#
b1000 q
b1000 ;"
b1001011 C
b1001011 p"
b1001010 9"
b1001010 A#
b110 m
b110 g"
b110 }"
1l
1d
1c
b1001010 X
b1001010 e"
b1001010 f"
b1001010 s"
b100000000010000000000000000000 Y
b100000000010000000000000000000 r"
b1 ,
1"
#15000
0"
#20000
b10000000000000 V
b10000000000000 _"
b10000000000000 W
b1001 N"
b10010010000000000000 S
b10000000000000 r
b100 p
b100 `"
b1001 n
b1001 b"
b1001 E#
08
1X"
0W"
0V"
b1000 Z
b1000 >"
b1000 L"
b100000000010100000000000100000 U
b100000000010100000000000100000 q"
b100000000010100000000000100000 B#
b100000000010100000000000100000 C#
b1001011 X
b1001011 e"
b1001011 f"
b1001011 s"
b100000000010010010000000000000 Y
b100000000010010010000000000000 r"
b1001010 a
b1001010 ?"
b1001010 i"
b0 m
b0 g"
b0 }"
0d
0S"
0T"
1U"
b1000 [
b1000 G"
b1000 \"
b1000 o"
b1001010 0
b1001010 #"
b1001010 `
b1001010 j"
1z
b1001100 C
b1001100 p"
b1001011 9"
b1001011 A#
b10 ,
1"
#25000
0"
#30000
b100000 V
b100000 _"
b10000000000000 %"
b10000000000000 @"
b10000000000000 !#
b100000 W
b0 5"
b0 <"
b0 ]"
14"
1*"
b10001101000010110000000000000000 U
b10001101000010110000000000000000 q"
b10001101000010110000000000000000 B#
b10001101000010110000000000000000 C#
1;
b1001 Z
b1001 >"
b1001 L"
b10000000000000 '"
b10000000000000 ~"
b1010 N"
b10100000000000100000 S
b100000 r
b0 p
b0 `"
b1010 n
b1010 b"
b1010 E#
b100000 s
b100000 :"
b1001101 C
b1001101 p"
b1001100 9"
b1001100 A#
1H
b1001010 x
b1001010 B"
b1001010 u"
1["
0Z"
b1000 v
b1000 D"
b1000 E"
b1000 K"
b1000 v"
b1001011 a
b1001011 ?"
b1001011 i"
b100 _
b100 k"
0S"
b1001 [
b1001 G"
b1001 \"
b1001 o"
b10000000000000 b
b10000000000000 h"
b10000001001011 0
b10000001001011 #"
b1001011 `
b1001011 j"
b1001100 X
b1001100 e"
b1001100 f"
b1001100 s"
b100000000010100000000000100000 Y
b100000000010100000000000100000 r"
b11 ,
1"
#35000
0"
#40000
b0 V
b0 _"
b0 W
1-"
1."
b0 5"
b0 <"
b0 ]"
14"
1*"
b100000 %"
b100000 @"
b100000 !#
b1011 N"
b1000 M"
b1000010110000000000000000 S
b0 r
b1011 n
b1011 b"
b1011 E#
b1000 o
b1000 a"
b1000 D#
b0 s
b0 :"
b100011 q
b100011 ;"
0V"
b1010 Z
b1010 >"
b1010 L"
b100000 '"
b100000 ~"
b10 )#
b1000 <
b1000 G#
b0 U
b0 q"
b0 B#
b0 C#
b1001101 X
b1001101 e"
b1001101 f"
b1001101 s"
b10001101000010110000000000000000 Y
b10001101000010110000000000000000 r"
b1001100 a
b1001100 ?"
b1001100 i"
b0 _
b0 k"
0S"
b1010 [
b1010 G"
b1010 \"
b1010 o"
b100000 b
b100000 h"
b1101100 0
b1101100 #"
b1001100 `
b1001100 j"
b1001011 x
b1001011 B"
b1001011 u"
b1001 v
b1001 D"
b1001 E"
b1001 K"
b1001 v"
b10000000000000 y
b10000000000000 A"
b10000000000000 t"
b10000000000000 ##
b1001010 F
b1001010 y"
b1000 D
b1000 F"
b1000 {"
b1001110 C
b1001110 p"
b1001101 9"
b1001101 A#
b100 ,
1"
#45000
0"
#50000
b10000000000000 =
b10000000000000 F#
b0 %"
b0 @"
b0 !#
19
1+"
b110 5"
b110 <"
b110 ]"
14"
0-"
0."
1*"
b1001 <
b1001 G#
b10000000000000 u
b0 )#
b1 *#
b1011 Z
b1011 >"
b1011 L"
b0 '"
b0 ~"
b0 N"
b0 M"
b0 S
b0 n
b0 b"
b0 E#
b0 o
b0 a"
b0 D#
b0 q
b0 ;"
b1001111 C
b1001111 p"
b1001110 9"
b1001110 A#
b1001011 F
b1001011 y"
b1001 D
b1001 F"
b1001 {"
b10000000000000 G
b10000000000000 x"
b1001100 x
b1001100 B"
b1001100 u"
b1010 v
b1010 D"
b1010 E"
b1010 K"
b1010 v"
b100000 y
b100000 A"
b100000 t"
b100000 ##
b1001101 a
b1001101 ?"
b1001101 i"
1f
1Q"
1g
0S"
b1011 [
b1011 G"
b1011 \"
b1011 o"
b1000 \
b1000 H"
b1000 n"
b0 b
b0 h"
b1001101 0
b1001101 #"
b1001101 `
b1001101 j"
b1001110 X
b1001110 e"
b1001110 f"
b1001110 s"
b0 Y
b0 r"
b10000000000000 $
b101 ,
1"
#55000
0"
#60000
b100000 =
b100000 F#
18
0X"
1W"
1V"
b0 Z
b0 >"
b0 L"
b0 *#
b1010 <
b1010 G#
b100000 u
b10001101001011000000000000000000 U
b10001101001011000000000000000000 q"
b10001101001011000000000000000000 B#
b10001101001011000000000000000000 C#
b1001111 X
b1001111 e"
b1001111 f"
b1001111 s"
b1001110 a
b1001110 ?"
b1001110 i"
b110 m
b110 g"
b110 }"
1d
0f
0Q"
0g
1S"
1T"
0U"
b0 [
b0 G"
b0 \"
b0 o"
b0 \
b0 H"
b0 n"
b1001110 0
b1001110 #"
b1001110 `
b1001110 j"
b1001101 x
b1001101 B"
b1001101 u"
1|
1}
b1011 v
b1011 D"
b1011 E"
b1011 K"
b1011 v"
b0 y
b0 A"
b0 t"
b0 ##
b1001100 F
b1001100 y"
b1010 D
b1010 F"
b1010 {"
b100000 G
b100000 x"
b1010000 C
b1010000 p"
b1001111 9"
b1001111 A#
b100000 $
b110 ,
1"
#65000
0"
#70000
b0 =
b0 F#
0"#
b10000000000000 :
b10000000000000 B
b10000000000000 d"
b10000000000000 I#
09
1-"
1."
b0 5"
b0 <"
b0 ]"
0+"
14"
1*"
b0 U
b0 q"
b0 B#
b0 C#
b1011 <
b1011 G#
b0 u
0%#
0&#
0S"
0V"
b1100 N"
0T"
0W"
b1001 M"
b1001011000000000000000000 S
b1100 n
b1100 b"
b1100 E#
b1001 o
b1001 a"
b1001 D#
b100011 q
b100011 ;"
b1010001 C
b1010001 p"
b1010000 9"
b1010000 A#
b1001101 F
b1001101 y"
1I
b1011 D
b1011 F"
b1011 {"
b0 G
b0 x"
1""
b1 6#
02#
11#
b0 5#
b0 3#
b0 4#
b1001110 x
b1001110 B"
b1001110 u"
0|
0}
0["
0Z"
0Y"
b0 v
b0 D"
b0 E"
b0 K"
b0 v"
b1001111 a
b1001111 ?"
b1001111 i"
b1001111 0
b1001111 #"
b1001111 `
b1001111 j"
b1010000 X
b1010000 e"
b1010000 f"
b1010000 s"
b10001101001011000000000000000000 Y
b10001101001011000000000000000000 r"
b0 $
1%
b111 ,
1"
#75000
0"
#80000
b10000000000000 %"
b10000000000000 @"
b10000000000000 !#
0>
b0 :
b0 B
b0 d"
b0 I#
19
1+"
b110 5"
b110 <"
b110 ]"
14"
0-"
0."
1*"
b10000000000000 ("
b10000000000000 |"
0R"
1Y"
b0 N"
1Z"
b0 M"
b0 S
b0 n
b0 b"
b0 E#
b0 o
b0 a"
b0 D#
b0 q
b0 ;"
08
1X"
0V"
b1100 Z
b1100 >"
b1100 L"
b10000000000000 )"
b10000000000000 6"
b0 <
b0 G#
b1010001 X
b1010001 e"
b1010001 f"
b1010001 s"
b0 Y
b0 r"
b1010000 a
b1010000 ?"
b1010000 i"
b0 m
b0 g"
b0 }"
0d
1f
1Q"
1g
0S"
1U"
b1100 [
b1100 G"
b1100 \"
b1100 o"
b1001 \
b1001 H"
b1001 n"
b10000000000000 ^
b10000000000000 l"
b1010000 0
b1010000 #"
b1010000 `
b1010000 j"
b1001111 x
b1001111 B"
b1001111 u"
b11 6#
07#
18#
b1001110 F
b1001110 y"
0I
b0 D
b0 F"
b0 {"
b1010010 C
b1010010 p"
b1010001 9"
b1010001 A#
0%
b1 #
b1 +
b1 )
b1000 ,
1"
#85000
0"
#90000
b0 %"
b0 @"
b0 !#
b0 Q
b0 '#
b0 >#
b0 ("
b0 |"
b100001010010101111111111111111 U
b100001010010101111111111111111 q"
b100001010010101111111111111111 B#
b100001010010101111111111111111 C#
b0 =#
b10 )#
18
0X"
1W"
1V"
b0 Z
b0 >"
b0 L"
b0 )"
b0 6"
b1010011 C
b1010011 p"
b1010010 9"
b1010010 A#
b1001111 F
b1001111 y"
b1 +#
b0 R
b0 .#
1O
b1010000 x
b1010000 B"
b1010000 u"
1|
1}
1["
0Z"
0Y"
b1100 v
b1100 D"
b1100 E"
b1100 K"
b1100 v"
b10000000000000 y
b10000000000000 A"
b10000000000000 t"
b10000000000000 ##
b1010001 a
b1010001 ?"
b1010001 i"
b110 m
b110 g"
b110 }"
1d
0f
0Q"
0g
1S"
1T"
0U"
b0 [
b0 G"
b0 \"
b0 o"
b0 \
b0 H"
b0 n"
b0 ^
b0 l"
b1010001 0
b1010001 #"
b1010001 `
b1010001 j"
b1010010 X
b1010010 e"
b1010010 f"
b1010010 s"
b11 #
b1001 ,
1"
#95000
0"
#100000
b11111111111111111111111111111111 V
b11111111111111111111111111111111 _"
b11111111111111111111111111111111 W
b100000 A
b100000 c"
b100000 H#
b100000 :
b100000 B
b100000 d"
b100000 I#
09
b0 5"
b0 <"
b0 ]"
0+"
14"
1*"
0S"
0V"
b1010 N"
0T"
0W"
b1010 M"
b1010010101111111111111111 S
b11111 ?
b1111111111111111 r
b11111 p
b11111 `"
b1010 n
b1010 b"
b1010 E#
b1010 o
b1010 a"
b1010 D#
b111111 s
b111111 :"
b1000 q
b1000 ;"
b0 )#
b100 =#
b1100 <
b1100 G#
b10101010000001111111111111000 U
b10101010000001111111111111000 q"
b10101010000001111111111111000 B#
b10101010000001111111111111000 C#
b1010011 X
b1010011 e"
b1010011 f"
b1010011 s"
b100001010010101111111111111111 Y
b100001010010101111111111111111 r"
b1010010 a
b1010010 ?"
b1010010 i"
b1010010 0
b1010010 #"
b1010010 `
b1010010 j"
b1010001 x
b1010001 B"
b1010001 u"
0|
0}
0["
0Z"
0Y"
b0 v
b0 D"
b0 E"
b0 K"
b0 v"
b0 y
b0 A"
b0 t"
b0 ##
b10 +#
b100 R
b100 .#
b1010000 F
b1010000 y"
1I
b1100 D
b1100 F"
b1100 {"
b10000000000000 G
b10000000000000 x"
b1010100 C
b1010100 p"
b1010011 9"
b1010011 A#
b10000000000000 $
1%
b1010 ,
1"
#105000
0"
#110000
1P"
b11111111111111111111111111111000 V
b11111111111111111111111111111000 _"
0^"
1t
b100000 ("
b100000 |"
b11111111111111111111111111111000 W
b0 A
b0 c"
b0 H#
13"
12"
b1001 5"
b1001 <"
b1001 ]"
04"
0*"
b11111100000000000000000000000000 U
b11111100000000000000000000000000 q"
b11111100000000000000000000000000 B#
b11111100000000000000000000000000 C#
b0 <
b0 G#
b1000 =#
b11111 %"
b11111 @"
b11111 !#
08
1X"
1W"
b1010 Z
b1010 >"
b1010 L"
b11111111111111111111111111111111 '"
b11111111111111111111111111111111 ~"
b100000 &"
b100000 7"
b100000 ="
b100000 )"
b100000 6"
0V"
1Y"
b0 N"
b1010000001111111111111000 S
b1111111111111000 r
b0 n
b0 b"
b0 E#
b111000 s
b111000 :"
b101 q
b101 ;"
b1010101 C
b1010101 p"
b1010100 9"
b1010100 A#
b1010001 F
b1010001 y"
0I
b0 D
b0 F"
b0 {"
b0 G
b0 x"
b11 +#
b1000 R
b1000 .#
b1010010 x
b1010010 B"
b1010010 u"
b1010011 a
b1010011 ?"
b1010011 i"
b0 m
b0 g"
b0 }"
0d
b11111 _
b11111 k"
0S"
1T"
1U"
b1010 [
b1010 G"
b1010 \"
b1010 o"
b1010 \
b1010 H"
b1010 n"
b11111111111111111111111111111111 b
b11111111111111111111111111111111 h"
b100000 ]
b100000 m"
b100000 ^
b100000 l"
b1010010 0
b1010010 #"
b1010011 `
b1010011 j"
b1010100 X
b1010100 e"
b1010100 f"
b1010100 s"
b10101010000001111111111111000 Y
b10101010000001111111111111000 r"
b0 $
0%
b1011 ,
1"
#115000
0"
#120000
14
b0 V
b0 _"
b11111 ("
b11111 |"
05
b0 W
b0 :
b0 B
b0 d"
b0 I#
b1111 5"
b1111 <"
b1111 ]"
03"
02"
1/
1.
0P"
b11111 )"
b11111 6"
0O"
b0 M"
b0 S
b0 ?
b0 r
b0 p
b0 `"
b0 o
b0 a"
b0 D#
b0 s
b0 :"
b111111 q
b111111 ;"
b0 %"
b0 @"
b0 !#
1$"
0X"
1W"
1V"
b0 Z
b0 >"
b0 L"
b0 '"
b0 ~"
b10 0"
b10 I"
b111 (#
b0 &"
b0 7"
b0 ="
b1100 =#
b1010101 X
b1010101 e"
b1010101 f"
b1010101 s"
b11111100000000000000000000000000 Y
b11111100000000000000000000000000 r"
b1010100 a
b1010100 ?"
b1010100 i"
b1001 m
b1001 g"
b1001 }"
0l
1j
1k
0c
1S"
1T"
0U"
b0 [
b0 G"
b0 \"
b0 o"
b11111111111111111111111111111000 b
b11111111111111111111111111111000 h"
b0 ]
b0 m"
b1001100 0
b1001100 #"
b1010100 `
b1010100 j"
b1010011 x
b1010011 B"
b1010011 u"
1["
0Z"
0Y"
b1010 v
b1010 D"
b1010 E"
b1010 K"
b1010 v"
b100000 w
b100000 C"
b100000 $#
b11111 y
b11111 A"
b11111 t"
b11111 ##
b100 +#
b1100 R
b1100 .#
b1010010 F
b1010010 y"
b1100 ,
1"
#125000
0"
