StonyBrook/ComputerArchitecture/Homework1/test_seven.vcd
$date
	Sat Sep 27 13:56:52 2025
$end
$version
	Icarus Verilog
$end
$timescale
	1ps
$end
$scope module SevenSegment_tb $end
$var wire 7 ! segment [6:0] $end
$var wire 1 " over $end
$var reg 4 # a [3:0] $end
$var reg 4 $ b [3:0] $end
$var integer 32 % i [31:0] $end
$scope module sev $end
$var wire 4 & a [3:0] $end
$var wire 4 ' b [3:0] $end
$var wire 5 ( s [4:0] $end
$var wire 1 " overflow $end
$var wire 4 ) lessSig [3:0] $end
$var reg 7 * d [6:0] $end
$scope module add $end
$var wire 4 + a [3:0] $end
$var wire 4 , b [3:0] $end
$var wire 5 - s [4:0] $end
$var wire 3 . c [2:0] $end
$scope module first $end
$var wire 1 / a $end
$var wire 1 0 b $end
$var wire 1 1 bar $end
$var wire 1 2 baz $end
$var wire 1 3 ci $end
$var wire 1 4 co $end
$var wire 1 5 foo $end
$var wire 1 6 quux $end
$var wire 1 7 s $end
$var wire 1 8 temp $end
$upscope $end
$scope module fourth $end
$var wire 1 9 a $end
$var wire 1 : b $end
$var wire 1 ; bar $end
$var wire 1 < baz $end
$var wire 1 = ci $end
$var wire 1 > co $end
$var wire 1 ? foo $end
$var wire 1 @ quux $end
$var wire 1 A s $end
$var wire 1 B temp $end
$upscope $end
$scope module second $end
$var wire 1 C a $end
$var wire 1 D b $end
$var wire 1 E bar $end
$var wire 1 F baz $end
$var wire 1 G ci $end
$var wire 1 H co $end
$var wire 1 I foo $end
$var wire 1 J quux $end
$var wire 1 K s $end
$var wire 1 L temp $end
$upscope $end
$scope module third $end
$var wire 1 M a $end
$var wire 1 N b $end
$var wire 1 O bar $end
$var wire 1 P baz $end
$var wire 1 Q ci $end
$var wire 1 R co $end
$var wire 1 S foo $end
$var wire 1 T quux $end
$var wire 1 U s $end
$var wire 1 V temp $end
$upscope $end
$upscope $end
$upscope $end
$upscope $end
$enddefinitions $end
#0
$dumpvars
0V
0U
0T
0S
0R
0Q
0P
0O
0N
0M
0L
0K
0J
0I
0H
0G
0F
0E
0D
0C
0B
0A
0@
0?
0>
0=
0<
0;
0:
09
08
07
06
05
04
03
02
01
00
0/
b0 .
b0 -
b0 ,
b0 +
b1 *
b0 )
b0 (
b0 '
b0 &
b0 %
b0 $
b0 #
0"
b1 !
$end
#10000
b1001110 !
b1001110 *
b1 )
b1 (
b1 -
17
18
10
b1 $
b1 '
b1 ,
b1 %
#20000
b10010 !
b10010 *
b10 )
07
b10 (
b10 -
1K
08
1L
00
1D
b10 $
b10 '
b10 ,
b10 %
#30000
b110 !
b110 *
b11 )
b11 (
b11 -
17
18
10
b11 $
b11 '
b11 ,
b11 %
#40000
b1001100 !
b1001100 *
b100 )
07
0K
b100 (
b100 -
1U
08
0L
1V
00
0D
1N
b100 $
b100 '
b100 ,
b100 %
#50000
b100100 !
b100100 *
b101 )
b101 (
b101 -
17
18
10
b101 $
b101 '
b101 ,
b101 %
#60000
b100000 !
b100000 *
b110 )
07
b110 (
b110 -
1K
08
1L
00
1D
b110 $
b110 '
b110 ,
b110 %
#70000
b1111 !
b1111 *
b111 )
b111 (
b111 -
17
18
10
b111 $
b111 '
b111 ,
b111 %
#80000
b0 !
b0 *
b1000 )
07
0K
0U
b1000 (
b1000 -
1A
08
0L
0V
1B
00
0D
0N
1:
b1000 $
b1000 '
b1000 ,
b1000 %
#90000
b100 !
b100 *
b1001 )
b1001 (
b1001 -
17
18
10
b1001 $
b1001 '
b1001 ,
b1001 %
#100000
b1000 !
b1000 *
b1010 )
07
b1010 (
b1010 -
1K
08
1L
00
1D
b1010 $
b1010 '
b1010 ,
b1010 %
#110000
b1100000 !
b1100000 *
b1011 )
b1011 (
b1011 -
17
18
10
b1011 $
b1011 '
b1011 ,
b1011 %
#120000
b110001 !
b110001 *
b1100 )
07
0K
b1100 (
b1100 -
1U
08
0L
1V
00
0D
1N
b1100 $
b1100 '
b1100 ,
b1100 %
#130000
b1000010 !
b1000010 *
b1101 )
b1101 (
b1101 -
17
18
10
b1101 $
b1101 '
b1101 ,
b1101 %
#140000
b110000 !
b110000 *
b1110 )
07
b1110 (
b1110 -
1K
08
1L
00
1D
b1110 $
b1110 '
b1110 ,
b1110 %
#150000
b111000 !
b111000 *
b1111 )
b1111 (
b1111 -
17
18
10
b1111 $
b1111 '
b1111 ,
b1111 %
#160000
b1001110 !
b1001110 *
b1 )
0K
0U
b1 (
b1 -
0A
0L
0V
0B
1/
00
0D
0N
0:
b1 #
b1 &
b1 +
b0 $
b0 '
b0 ,
b10000 %
#170000
1K
b10010 !
b10010 *
1G
b10 )
b1 .
14
b10 (
b10 -
07
16
08
15
10
b1 $
b1 '
b1 ,
b10001 %
#180000
0U
0G
b110 !
b110 *
0Q
04
b11 )
b0 .
0H
17
06
b11 (
b11 -
1K
0J
18
05
1L
0E
00
1D
b10 $
b10 '
b10 ,
b10010 %
#190000
1U
1Q
1H
1J
0K
1E
b1001100 !
b1001100 *
1G
b100 )
b11 .
14
b100 (
b100 -
07
16
08
15
10
b11 $
b11 '
b11 ,
b10011 %
#200000
0A
0G
0Q
b100100 !
b100100 *
0=
04
0H
b101 )
b0 .
0R
17
06
0K
0J
b101 (
b101 -
1U
0T
18
05
0L
0E
1V
0O
00
0D
1N
b100 $
b100 '
b100 ,
b10100 %
#210000
1K
b100000 !
b100000 *
1G
b110 )
b1 .
14
b110 (
b110 -
07
16
08
15
10
b101 $
b101 '
b101 ,
b10101 %
#220000
0A
0=
0R
0T
1U
0O
0G
b1111 !
b1111 *
0Q
04
b111 )
b0 .
0H
17
06
b111 (
b111 -
1K
0J
18
05
1L
0E
00
1D
b110 $
b110 '
b110 ,
b10110 %
#230000
1A
1=
1R
1T
0U
1O
1Q
1H
1J
0K
1E
b0 !
b0 *
1G
b1000 )
b111 .
14
b1000 (
b1000 -
07
16
08
15
10
b111 $
b111 '
b111 ,
b10111 %
#240000
0G
0Q
0=
b100 !
b100 *
0"
04
0H
b0 .
0R
b1001 )
0>
17
06
0K
0J
0U
0T
b1001 (
b1001 -
1A
0@
18
05
0L
0E
0V
0O
1B
0;
00
0D
0N
1:
b1000 $
b1000 '
b1000 ,
b11000 %
#250000
1K
b1000 !
b1000 *
1G
b1010 )
b1 .
14
b1010 (
b1010 -
07
16
08
15
10
b1001 $
b1001 '
b1001 ,
b11001 %
#260000
0U
0G
b1100000 !
b1100000 *
0Q
04
b1011 )
b0 .
0H
17
06
b1011 (
b1011 -
1K
0J
18
05
1L
0E
00
1D
b1010 $
b1010 '
b1010 ,
b11010 %
#270000
1U
1Q
1H
1J
0K
1E
b110001 !
b110001 *
1G
b1100 )
b11 .
14
b1100 (
b1100 -
07
16
08
15
10
b1011 $
b1011 '
b1011 ,
b11011 %
#280000
0"
0>
0@
1A
0;
0G
0Q
b1000010 !
b1000010 *
0=
04
0H
b1101 )
b0 .
0R
17
06
0K
0J
b1101 (
b1101 -
1U
0T
18
05
0L
0E
1V
0O
00
0D
1N
b1100 $
b1100 '
b1100 ,
b11100 %
#290000
1K
b110000 !
b110000 *
1G
b1110 )
b1 .
14
b1110 (
b1110 -
07
16
08
15
10
b1101 $
b1101 '
b1101 ,
b11101 %
#300000
0"
0>
0@
1A
0;
0=
0R
0T
1U
0O
0G
b111000 !
b111000 *
0Q
04
b1111 )
b0 .
0H
17
06
b1111 (
b1111 -
1K
0J
18
05
1L
0E
00
1D
b1110 $
b1110 '
b1110 ,
b11110 %
#310000
1"
1>
1@
0A
1;
1=
1R
1T
0U
1O
1Q
1H
1J
0K
1E
b1 !
b1 *
1G
b0 )
b111 .
14
b10000 (
b10000 -
07
16
08
15
10
b1111 $
b1111 '
b1111 ,
b11111 %
#320000
0Q
0H
1K
0G
0=
b10010 !
b10010 *
0"
04
b0 .
0R
b10 )
0>
06
0J
0U
0T
b10 (
b10 -
0A
0@
0F
05
0E
0V
0O
0B
0;
0/
1C
00
0D
0N
0:
b10 #
b10 &
b10 +
b0 $
b0 '
b0 ,
b100000 %
#330000
b110 !
b110 *
b11 )
b11 (
b11 -
17
18
10
b1 $
b1 '
b1 ,
b100001 %
#340000
1U
b1001100 !
b1001100 *
1Q
b100 )
b10 .
1H
07
b100 (
b100 -
0K
1J
08
0L
1I
00
1D
b10 $
b10 '
b10 ,
b100010 %
#350000
b100100 !
b100100 *
b101 )
b101 (
b101 -
17
18
10
b11 $
b11 '
b11 ,
b100011 %
#360000
0A
0Q
b100000 !
b100000 *
0=
0H
b110 )
b0 .
0R
07
1K
0J
b110 (
b110 -
1U
0T
08
1L
0I
1V
0O
00
0D
1N
b100 $
b100 '
b100 ,
b100100 %
#370000
b1111 !
b1111 *
b111 )
b111 (
b111 -
17
18
10
b101 $
b101 '
b101 ,
b100101 %
#380000
1A
1=
1R
1T
0U
1O
b0 !
b0 *
1Q
b1000 )
b110 .
1H
07
b1000 (
b1000 -
0K
1J
08
0L
1I
00
1D
b110 $
b110 '
b110 ,
b100110 %
#390000
b100 !
b100 *
b1001 )
b1001 (
b1001 -
17
18
10
b111 $
b111 '
b111 ,
b100111 %
#400000
0Q
0=
b1000 !
b1000 *
0"
0H
b0 .
0R
b1010 )
0>
07
1K
0J
0U
0T
b1010 (
b1010 -
1A
0@
08
1L
0I
0V
0O
1B
0;
00
0D
0N
1:
b1000 $
b1000 '
b1000 ,
b101000 %
#410000
b1100000 !
b1100000 *
b1011 )
b1011 (
b1011 -
17
18
10
b1001 $
b1001 '
b1001 ,
b101001 %
#420000
1U
b110001 !
b110001 *
1Q
b1100 )
b10 .
1H
07
b1100 (
b1100 -
0K
1J
08
0L
1I
00
1D
b1010 $
b1010 '
b1010 ,
b101010 %
#430000
b1000010 !
b1000010 *
b1101 )
b1101 (
b1101 -
17
18
10
b1011 $
b1011 '
b1011 ,
b101011 %
#440000
0"
0>
0@
1A
0;
0Q
b110000 !
b110000 *
0=
0H
b1110 )
b0 .
0R
07
1K
0J
b1110 (
b1110 -
1U
0T
08
1L
0I
1V
0O
00
0D
1N
b1100 $
b1100 '
b1100 ,
b101100 %
#450000
b111000 !
b111000 *
b1111 )
b1111 (
b1111 -
17
18
10
b1101 $
b1101 '
b1101 ,
b101101 %
#460000
1"
1>
1@
0A
1;
1=
1R
1T
0U
1O
b1 !
b1 *
1Q
b0 )
b110 .
1H
07
b10000 (
b10000 -
0K
1J
08
0L
1I
00
1D
b1110 $
b1110 '
b1110 ,
b101110 %
#470000
b1001110 !
b1001110 *
b1 )
b10001 (
b10001 -
17
18
10
b1111 $
b1111 '
b1111 ,
b101111 %
#480000
0Q
0=
b110 !
b110 *
0"
0H
b0 .
0R
b11 )
0>
1K
0J
0U
0T
b11 (
b11 -
0A
0@
1L
0I
0V
0O
0B
0;
1/
00
0D
0N
0:
b11 #
b11 &
b11 +
b0 $
b0 '
b0 ,
b110000 %
#490000
1U
1Q
1H
0K
1F
b1001100 !
b1001100 *
1G
b100 )
b11 .
14
b100 (
b100 -
07
16
08
15
10
b1 $
b1 '
b1 ,
b110001 %
#500000
0F
0G
b100100 !
b100100 *
b10 .
04
b101 )
17
06
b101 (
b101 -
0K
1J
18
05
0L
1I
0E
00
1D
b10 $
b10 '
b10 ,
b110010 %
#510000
1K
1E
1F
b100000 !
b100000 *
1G
b110 )
b11 .
14
b110 (
b110 -
07
16
08
15
10
b11 $
b11 '
b11 ,
b110011 %
#520000
0Q
0H
0F
0A
0G
b1111 !
b1111 *
0=
04
b111 )
b0 .
0R
17
06
1K
0J
b111 (
b111 -
1U
0T
18
05
1L
0I
0E
1V
0O
00
0D
1N
b100 $
b100 '
b100 ,
b110100 %
#530000
1A
1=
1R
1T
0U
1O
1Q
1H
0K
1F
b0 !
b0 *
1G
b1000 )
b111 .
14
b1000 (
b1000 -
07
16
08
15
10
b101 $
b101 '
b101 ,
b110101 %
#540000
0F
0G
b100 !
b100 *
b110 .
04
b1001 )
17
06
b1001 (
b1001 -
0K
1J
18
05
0L
1I
0E
00
1D
b110 $
b110 '
b110 ,
b110110 %
#550000
1K
1E
1F
b1000 !
b1000 *
1G
b1010 )
b111 .
14
b1010 (
b1010 -
07
16
08
15
10
b111 $
b111 '
b111 ,
b110111 %
#560000
0Q
0H
0F
0G
0=
b1100000 !
b1100000 *
0"
04
b0 .
0R
b1011 )
0>
17
06
1K
0J
0U
0T
b1011 (
b1011 -
1A
0@
18
05
1L
0I
0E
0V
0O
1B
0;
00
0D
0N
1:
b1000 $
b1000 '
b1000 ,
b111000 %
#570000
1U
1Q
1H
0K
1F
b110001 !
b110001 *
1G
b1100 )
b11 .
14
b1100 (
b1100 -
07
16
08
15
10
b1001 $
b1001 '
b1001 ,
b111001 %
#580000
0F
0G
b1000010 !
b1000010 *
b10 .
04
b1101 )
17
06
b1101 (
b1101 -
0K
1J
18
05
0L
1I
0E
00
1D
b1010 $
b1010 '
b1010 ,
b111010 %
#590000
1K
1E
1F
b110000 !
b110000 *
1G
b1110 )
b11 .
14
b1110 (
b1110 -
07
16
08
15
10
b1011 $
b1011 '
b1011 ,
b111011 %
#600000
0"
0Q
0>
0H
0@
0F
1A
0;
0G
b111000 !
b111000 *
0=
04
b1111 )
b0 .
0R
17
06
1K
0J
b1111 (
b1111 -
1U
0T
18
05
1L
0I
0E
1V
0O
00
0D
1N
b1100 $
b1100 '
b1100 ,
b111100 %
#610000
1"
1>
1@
0A
1;
1=
1R
1T
0U
1O
1Q
1H
0K
1F
b1 !
b1 *
1G
b0 )
b111 .
14
b10000 (
b10000 -
07
16
08
15
10
b1101 $
b1101 '
b1101 ,
b111101 %
#620000
0F
0G
b1001110 !
b1001110 *
b110 .
04
b1 )
17
06
b10001 (
b10001 -
0K
1J
18
05
0L
1I
0E
00
1D
b1110 $
b1110 '
b1110 ,
b111110 %
#630000
1K
1E
1F
b10010 !
b10010 *
1G
b10 )
b111 .
14
b10010 (
b10010 -
07
16
08
15
10
b1111 $
b1111 '
b1111 ,
b111111 %
#640000
0=
0R
0K
1U
0G
b1001100 !
b1001100 *
0"
0Q
04
b100 )
0>
b0 .
0H
06
0J
0T
b100 (
b100 -
0A
0@
0F
0P
05
0I
0E
0O
0B
0;
0/
0C
1M
00
0D
0N
0:
b100 #
b100 &
b100 +
b0 $
b0 '
b0 ,
b1000000 %
#650000
b100100 !
b100100 *
b101 )
b101 (
b101 -
17
18
10
b1 $
b1 '
b1 ,
b1000001 %
#660000
b100000 !
b100000 *
b110 )
07
b110 (
b110 -
1K
08
1L
00
1D
b10 $
b10 '
b10 ,
b1000010 %
#670000
b1111 !
b1111 *
b111 )
b111 (
b111 -
17
18
10
b11 $
b11 '
b11 ,
b1000011 %
#680000
1A
b0 !
b0 *
1=
b1000 )
b100 .
1R
07
0K
b1000 (
b1000 -
0U
1T
08
0L
0V
1S
00
0D
1N
b100 $
b100 '
b100 ,
b1000100 %
#690000
b100 !
b100 *
b1001 )
b1001 (
b1001 -
17
18
10
b101 $
b101 '
b101 ,
b1000101 %
#700000
b1000 !
b1000 *
b1010 )
07
b1010 (
b1010 -
1K
08
1L
00
1D
b110 $
b110 '
b110 ,
b1000110 %
#710000
b1100000 !
b1100000 *
b1011 )
b1011 (
b1011 -
17
18
10
b111 $
b111 '
b111 ,
b1000111 %
#720000
0=
b110001 !
b110001 *
0"
b0 .
0R
b1100 )
0>
07
0K
1U
0T
b1100 (
b1100 -
1A
0@
08
0L
1V
0S
1B
0;
00
0D
0N
1:
b1000 $
b1000 '
b1000 ,
b1001000 %
#730000
b1000010 !
b1000010 *
b1101 )
b1101 (
b1101 -
17
18
10
b1001 $
b1001 '
b1001 ,
b1001001 %
#740000
b110000 !
b110000 *
b1110 )
07
b1110 (
b1110 -
1K
08
1L
00
1D
b1010 $
b1010 '
b1010 ,
b1001010 %
#750000
b111000 !
b111000 *
b1111 )
b1111 (
b1111 -
17
18
10
b1011 $
b1011 '
b1011 ,
b1001011 %
#760000
1"
1>
1@
0A
1;
b1 !
b1 *
1=
b0 )
b100 .
1R
07
0K
b10000 (
b10000 -
0U
1T
08
0L
0V
1S
00
0D
1N
b1100 $
b1100 '
b1100 ,
b1001100 %
#770000
b1001110 !
b1001110 *
b1 )
b10001 (
b10001 -
17
18
10
b1101 $
b1101 '
b1101 ,
b1001101 %
#780000
b10010 !
b10010 *
b10 )
07
b10010 (
b10010 -
1K
08
1L
00
1D
b1110 $
b1110 '
b1110 ,
b1001110 %
#790000
b110 !
b110 *
b11 )
b10011 (
b10011 -
17
18
10
b1111 $
b1111 '
b1111 ,
b1001111 %
#800000
0=
b100100 !
b100100 *
0"
b0 .
0R
b101 )
0>
0K
1U
0T
b101 (
b101 -
0A
0@
0L
1V
0S
0B
0;
1/
00
0D
0N
0:
b101 #
b101 &
b101 +
b0 $
b0 '
b0 ,
b1010000 %
#810000
1K
b100000 !
b100000 *
1G
b110 )
b1 .
14
b110 (
b110 -
07
16
08
15
10
b1 $
b1 '
b1 ,
b1010001 %
#820000
0A
0=
0R
1U
0P
0G
b1111 !
b1111 *
0Q
04
b111 )
b0 .
0H
17
06
b111 (
b111 -
1K
0J
18
05
1L
0E
00
1D
b10 $
b10 '
b10 ,
b1010010 %
#830000
1A
1=
1R
0U
1P
1Q
1H
1J
0K
1E
b0 !
b0 *
1G
b1000 )
b111 .
14
b1000 (
b1000 -
07
16
08
15
10
b11 $
b11 '
b11 ,
b1010011 %
#840000
0P
0G
0Q
b100 !
b100 *
04
b100 .
0H
b1001 )
17
06
0K
0J
b1001 (
b1001 -
0U
1T
18
05
0L
0E
0V
1S
0O
00
0D
1N
b100 $
b100 '
b100 ,
b1010100 %
#850000
1K
b1000 !
b1000 *
1G
b1010 )
b101 .
14
b1010 (
b1010 -
07
16
08
15
10
b101 $
b101 '
b101 ,
b1010101 %
#860000
0U
0O
0P
0G
b1100000 !
b1100000 *
0Q
04
b1011 )
b100 .
0H
17
06
b1011 (
b1011 -
1K
0J
18
05
1L
0E
00
1D
b110 $
b110 '
b110 ,
b1010110 %
#870000
1U
1O
1P
1Q
1H
1J
0K
1E
b110001 !
b110001 *
1G
b1100 )
b111 .
14
b1100 (
b1100 -
07
16
08
15
10
b111 $
b111 '
b111 ,
b1010111 %
#880000
0=
0R
0P
0G
0Q
b1000010 !
b1000010 *
0"
04
b0 .
0H
b1101 )
0>
17
06
0K
0J
1U
0T
b1101 (
b1101 -
1A
0@
18
05
0L
0E
1V
0S
0O
1B
0;
00
0D
0N
1:
b1000 $
b1000 '
b1000 ,
b1011000 %
#890000
1K
b110000 !
b110000 *
1G
b1110 )
b1 .
14
b1110 (
b1110 -
07
16
08
15
10
b1001 $
b1001 '
b1001 ,
b1011001 %
#900000
0"
0>
0@
1A
0;
0=
0R
1U
0P
0G
b111000 !
b111000 *
0Q
04
b1111 )
b0 .
0H
17
06
b1111 (
b1111 -
1K
0J
18
05
1L
0E
00
1D
b1010 $
b1010 '
b1010 ,
b1011010 %
#910000
1"
1>
1@
0A
1;
1=
1R
0U
1P
1Q
1H
1J
0K
1E
b1 !
b1 *
1G
b0 )
b111 .
14
b10000 (
b10000 -
07
16
08
15
10
b1011 $
b1011 '
b1011 ,
b1011011 %
#920000
0P
0G
0Q
b1001110 !
b1001110 *
04
b100 .
0H
b1 )
17
06
0K
0J
b10001 (
b10001 -
0U
1T
18
05
0L
0E
0V
1S
0O
00
0D
1N
b1100 $
b1100 '
b1100 ,
b1011100 %
#930000
1K
b10010 !
b10010 *
1G
b10 )
b101 .
14
b10010 (
b10010 -
07
16
08
15
10
b1101 $
b1101 '
b1101 ,
b1011101 %
#940000
0U
0O
0P
0G
b110 !
b110 *
0Q
04
b11 )
b100 .
0H
17
06
b10011 (
b10011 -
1K
0J
18
05
1L
0E
00
1D
b1110 $
b1110 '
b1110 ,
b1011110 %
#950000
1U
1O
1P
1Q
1H
1J
0K
1E
b1001100 !
b1001100 *
1G
b100 )
b111 .
14
b10100 (
b10100 -
07
16
08
15
10
b1111 $
b1111 '
b1111 ,
b1011111 %
#960000
0=
0R
0P
0Q
0H
1K
0G
b100000 !
b100000 *
0"
b0 .
04
b110 )
0>
06
0J
1U
0T
b110 (
b110 -
0A
0@
0F
05
0E
1V
0S
0O
0B
0;
0/
1C
00
0D
0N
0:
b110 #
b110 &
b110 +
b0 $
b0 '
b0 ,
b1100000 %
#970000
b1111 !
b1111 *
b111 )
b111 (
b111 -
17
18
10
b1 $
b1 '
b1 ,
b1100001 %
#980000
1A
1=
1R
0U
1P
b0 !
b0 *
1Q
b1000 )
b110 .
1H
07
b1000 (
b1000 -
0K
1J
08
0L
1I
00
1D
b10 $
b10 '
b10 ,
b1100010 %
#990000
b100 !
b100 *
b1001 )
b1001 (
b1001 -
17
18
10
b11 $
b11 '
b11 ,
b1100011 %
#1000000
0P
0Q
b1000 !
b1000 *
b100 .
0H
b1010 )
07
1K
0J
b1010 (
b1010 -
0U
1T
08
1L
0I
0V
1S
0O
00
0D
1N
b100 $
b100 '
b100 ,
b1100100 %
#1010000
b1100000 !
b1100000 *
b1011 )
b1011 (
b1011 -
17
18
10
b101 $
b101 '
b101 ,
b1100101 %
#1020000
1U
1O
1P
b110001 !
b110001 *
1Q
b1100 )
b110 .
1H
07
b1100 (
b1100 -
0K
1J
08
0L
1I
00
1D
b110 $
b110 '
b110 ,
b1100110 %
#1030000
b1000010 !
b1000010 *
b1101 )
b1101 (
b1101 -
17
18
10
b111 $
b111 '
b111 ,
b1100111 %
#1040000
0=
0R
0P
0Q
b110000 !
b110000 *
0"
b0 .
0H
b1110 )
0>
07
1K
0J
1U
0T
b1110 (
b1110 -
1A
0@
08
1L
0I
1V
0S
0O
1B
0;
00
0D
0N
1:
b1000 $
b1000 '
b1000 ,
b1101000 %
#1050000
b111000 !
b111000 *
b1111 )
b1111 (
b1111 -
17
18
10
b1001 $
b1001 '
b1001 ,
b1101001 %
#1060000
1"
1>
1@
0A
1;
1=
1R
0U
1P
b1 !
b1 *
1Q
b0 )
b110 .
1H
07
b10000 (
b10000 -
0K
1J
08
0L
1I
00
1D
b1010 $
b1010 '
b1010 ,
b1101010 %
#1070000
b1001110 !
b1001110 *
b1 )
b10001 (
b10001 -
17
18
10
b1011 $
b1011 '
b1011 ,
b1101011 %
#1080000
0P
0Q
b10010 !
b10010 *
b100 .
0H
b10 )
07
1K
0J
b10010 (
b10010 -
0U
1T
08
1L
0I
0V
1S
0O
00
0D
1N
b1100 $
b1100 '
b1100 ,
b1101100 %
#1090000
b110 !
b110 *
b11 )
b10011 (
b10011 -
17
18
10
b1101 $
b1101 '
b1101 ,
b1101101 %
#1100000
1U
1O
1P
b1001100 !
b1001100 *
1Q
b100 )
b110 .
1H
07
b10100 (
b10100 -
0K
1J
08
0L
1I
00
1D
b1110 $
b1110 '
b1110 ,
b1101110 %
#1110000
b100100 !
b100100 *
b101 )
b10101 (
b10101 -
17
18
10
b1111 $
b1111 '
b1111 ,
b1101111 %
#1120000
0=
0R
0P
0Q
b1111 !
b1111 *
0"
b0 .
0H
b111 )
0>
1K
0J
1U
0T
b111 (
b111 -
0A
0@
1L
0I
1V
0S
0O
0B
0;
1/
00
0D
0N
0:
b111 #
b111 &
b111 +
b0 $
b0 '
b0 ,
b1110000 %
#1130000
1A
1=
1R
0U
1P
1Q
1H
0K
1F
b0 !
b0 *
1G
b1000 )
b111 .
14
b1000 (
b1000 -
07
16
08
15
10
b1 $
b1 '
b1 ,
b1110001 %
#1140000
0F
0G
b100 !
b100 *
b110 .
04
b1001 )
17
06
b1001 (
b1001 -
0K
1J
18
05
0L
1I
0E
00
1D
b10 $
b10 '
b10 ,
b1110010 %
#1150000
1K
1E
1F
b1000 !
b1000 *
1G
b1010 )
b111 .
14
b1010 (
b1010 -
07
16
08
15
10
b11 $
b11 '
b11 ,
b1110011 %
#1160000
0P
0Q
0H
0F
0G
b1100000 !
b1100000 *
b100 .
04
b1011 )
17
06
1K
0J
b1011 (
b1011 -
0U
1T
18
05
1L
0I
0E
0V
1S
0O
00
0D
1N
b100 $
b100 '
b100 ,
b1110100 %
#1170000
1U
1O
1P
1Q
1H
0K
1F
b110001 !
b110001 *
1G
b1100 )
b111 .
14
b1100 (
b1100 -
07
16
08
15
10
b101 $
b101 '
b101 ,
b1110101 %
#1180000
0F
0G
b1000010 !
b1000010 *
b110 .
04
b1101 )
17
06
b1101 (
b1101 -
0K
1J
18
05
0L
1I
0E
00
1D
b110 $
b110 '
b110 ,
b1110110 %
#1190000
1K
1E
1F
b110000 !
b110000 *
1G
b1110 )
b111 .
14
b1110 (
b1110 -
07
16
08
15
10
b111 $
b111 '
b111 ,
b1110111 %
#1200000
0=
0R
0P
0Q
0H
0F
0G
b111000 !
b111000 *
0"
b0 .
04
b1111 )
0>
17
06
1K
0J
1U
0T
b1111 (
b1111 -
1A
0@
18
05
1L
0I
0E
1V
0S
0O
1B
0;
00
0D
0N
1:
b1000 $
b1000 '
b1000 ,
b1111000 %
#1210000
1"
1>
1@
0A
1;
1=
1R
0U
1P
1Q
1H
0K
1F
b1 !
b1 *
1G
b0 )
b111 .
14
b10000 (
b10000 -
07
16
08
15
10
b1001 $
b1001 '
b1001 ,
b1111001 %
#1220000
0F
0G
b1001110 !
b1001110 *
b110 .
04
b1 )
17
06
b10001 (
b10001 -
0K
1J
18
05
0L
1I
0E
00
1D
b1010 $
b1010 '
b1010 ,
b1111010 %
#1230000
1K
1E
1F
b10010 !
b10010 *
1G
b10 )
b111 .
14
b10010 (
b10010 -
07
16
08
15
10
b1011 $
b1011 '
b1011 ,
b1111011 %
#1240000
0P
0Q
0H
0F
0G
b110 !
b110 *
b100 .
04
b11 )
17
06
1K
0J
b10011 (
b10011 -
0U
1T
18
05
1L
0I
0E
0V
1S
0O
00
0D
1N
b1100 $
b1100 '
b1100 ,
b1111100 %
#1250000
1U
1O
1P
1Q
1H
0K
1F
b1001100 !
b1001100 *
1G
b100 )
b111 .
14
b10100 (
b10100 -
07
16
08
15
10
b1101 $
b1101 '
b1101 ,
b1111101 %
#1260000
0F
0G
b100100 !
b100100 *
b110 .
04
b101 )
17
06
b10101 (
b10101 -
0K
1J
18
05
0L
1I
0E
00
1D
b1110 $
b1110 '
b1110 ,
b1111110 %
#1270000
1K
1E
1F
b100000 !
b100000 *
1G
b110 )
b111 .
14
b10110 (
b10110 -
07
16
08
15
10
b1111 $
b1111 '
b1111 ,
b1111111 %
#1280000
b0 !
b0 *
0"
b1000 )
0>
0K
0U
b1000 (
b1000 -
1A
0G
0Q
0=
04
0H
b0 .
0R
06
0J
0T
0@
0F
0P
0<
05
0I
0E
0S
0O
0;
0/
0C
0M
19
00
0D
0N
0:
b1000 #
b1000 &
b1000 +
b0 $
b0 '
b0 ,
b10000000 %
#1290000
b100 !
b100 *
b1001 )
b1001 (
b1001 -
17
18
10
b1 $
b1 '
b1 ,
b10000001 %
#1300000
b1000 !
b1000 *
b1010 )
07
b1010 (
b1010 -
1K
08
1L
00
1D
b10 $
b10 '
b10 ,
b10000010 %
#1310000
b1100000 !
b1100000 *
b1011 )
b1011 (
b1011 -
17
18
10
b11 $
b11 '
b11 ,
b10000011 %
#1320000
b110001 !
b110001 *
b1100 )
07
0K
b1100 (
b1100 -
1U
08
0L
1V
00
0D
1N
b100 $
b100 '
b100 ,
b10000100 %
#1330000
b1000010 !
b1000010 *
b1101 )
b1101 (
b1101 -
17
18
10
b101 $
b101 '
b101 ,
b10000101 %
#1340000
b110000 !
b110000 *
b1110 )
07
b1110 (
b1110 -
1K
08
1L
00
1D
b110 $
b110 '
b110 ,
b10000110 %
#1350000
b111000 !
b111000 *
b1111 )
b1111 (
b1111 -
17
18
10
b111 $
b111 '
b111 ,
b10000111 %
#1360000
b1 !
b1 *
1"
b0 )
1>
07
0K
0U
b10000 (
b10000 -
0A
1@
08
0L
0V
0B
1?
00
0D
0N
1:
b1000 $
b1000 '
b1000 ,
b10001000 %
#1370000
b1001110 !
b1001110 *
b1 )
b10001 (
b10001 -
17
18
10
b1001 $
b1001 '
b1001 ,
b10001001 %
#1380000
b10010 !
b10010 *
b10 )
07
b10010 (
b10010 -
1K
08
1L
00
1D
b1010 $
b1010 '
b1010 ,
b10001010 %
#1390000
b110 !
b110 *
b11 )
b10011 (
b10011 -
17
18
10
b1011 $
b1011 '
b1011 ,
b10001011 %
#1400000
b1001100 !
b1001100 *
b100 )
07
0K
b10100 (
b10100 -
1U
08
0L
1V
00
0D
1N
b1100 $
b1100 '
b1100 ,
b10001100 %
#1410000
b100100 !
b100100 *
b101 )
b10101 (
b10101 -
17
18
10
b1101 $
b1101 '
b1101 ,
b10001101 %
#1420000
b100000 !
b100000 *
b110 )
07
b10110 (
b10110 -
1K
08
1L
00
1D
b1110 $
b1110 '
b1110 ,
b10001110 %
#1430000
b1111 !
b1111 *
b111 )
b10111 (
b10111 -
17
18
10
b1111 $
b1111 '
b1111 ,
b10001111 %
#1440000
b100 !
b100 *
0"
b1001 )
0>
0K
0U
b1001 (
b1001 -
1A
0@
0L
0V
1B
0?
1/
00
0D
0N
0:
b1001 #
b1001 &
b1001 +
b0 $
b0 '
b0 ,
b10010000 %
#1450000
1K
b1000 !
b1000 *
1G
b1010 )
b1 .
14
b1010 (
b1010 -
07
16
08
15
10
b1 $
b1 '
b1 ,
b10010001 %
#1460000
0U
0G
b1100000 !
b1100000 *
0Q
04
b1011 )
b0 .
0H
17
06
b1011 (
b1011 -
1K
0J
18
05
1L
0E
00
1D
b10 $
b10 '
b10 ,
b10010010 %
#1470000
1U
1Q
1H
1J
0K
1E
b110001 !
b110001 *
1G
b1100 )
b11 .
14
b1100 (
b1100 -
07
16
08
15
10
b11 $
b11 '
b11 ,
b10010011 %
