StonyBrook/ComputerArchitecture/Homework1/test_four.vcd
$date
	Thu Sep 25 11:39:30 2025
$end
$version
	Icarus Verilog
$end
$timescale
	1s
$end
$scope module Adder_4_tb $end
$var wire 5 ! s [4:0] $end
$var reg 4 " a [3:0] $end
$var reg 4 # b [3:0] $end
$var integer 32 $ i [31:0] $end
$scope module four $end
$var wire 4 % a [3:0] $end
$var wire 4 & b [3:0] $end
$var wire 5 ' s [4:0] $end
$var wire 3 ( c [2:0] $end
$scope module first $end
$var wire 1 ) a $end
$var wire 1 * b $end
$var wire 1 + bar $end
$var wire 1 , baz $end
$var wire 1 - ci $end
$var wire 1 . co $end
$var wire 1 / foo $end
$var wire 1 0 quux $end
$var wire 1 1 s $end
$var wire 1 2 temp $end
$upscope $end
$scope module fourth $end
$var wire 1 3 a $end
$var wire 1 4 b $end
$var wire 1 5 bar $end
$var wire 1 6 baz $end
$var wire 1 7 ci $end
$var wire 1 8 co $end
$var wire 1 9 foo $end
$var wire 1 : quux $end
$var wire 1 ; s $end
$var wire 1 < temp $end
$upscope $end
$scope module second $end
$var wire 1 = a $end
$var wire 1 > b $end
$var wire 1 ? bar $end
$var wire 1 @ baz $end
$var wire 1 A ci $end
$var wire 1 B co $end
$var wire 1 C foo $end
$var wire 1 D quux $end
$var wire 1 E s $end
$var wire 1 F temp $end
$upscope $end
$scope module third $end
$var wire 1 G a $end
$var wire 1 H b $end
$var wire 1 I bar $end
$var wire 1 J baz $end
$var wire 1 K ci $end
$var wire 1 L co $end
$var wire 1 M foo $end
$var wire 1 N quux $end
$var wire 1 O s $end
$var wire 1 P temp $end
$upscope $end
$upscope $end
$upscope $end
$enddefinitions $end
#0
$dumpvars
0P
0O
0N
0M
0L
0K
0J
0I
0H
0G
0F
0E
0D
0C
0B
0A
0@
0?
0>
0=
0<
0;
0:
09
08
07
06
05
04
03
02
01
00
0/
0.
0-
0,
0+
0*
0)
b0 (
b0 '
b0 &
b0 %
b0 $
b0 #
b0 "
b0 !
$end
#10
b1 !
b1 '
11
12
1*
b1 #
b1 &
b1 $
#20
01
b10 !
b10 '
1E
02
1F
0*
1>
b10 #
b10 &
b10 $
#30
b11 !
b11 '
11
12
1*
b11 #
b11 &
b11 $
#40
01
0E
b100 !
b100 '
1O
02
0F
1P
0*
0>
1H
b100 #
b100 &
b100 $
#50
b101 !
b101 '
11
12
1*
b101 #
b101 &
b101 $
#60
01
b110 !
b110 '
1E
02
1F
0*
1>
b110 #
b110 &
b110 $
#70
b111 !
b111 '
11
12
1*
b111 #
b111 &
b111 $
#80
01
0E
0O
b1000 !
b1000 '
1;
02
0F
0P
1<
0*
0>
0H
14
b1000 #
b1000 &
b1000 $
#90
b1001 !
b1001 '
11
12
1*
b1001 #
b1001 &
b1001 $
#100
01
b1010 !
b1010 '
1E
02
1F
0*
1>
b1010 #
b1010 &
b1010 $
#110
b1011 !
b1011 '
11
12
1*
b1011 #
b1011 &
b1011 $
#120
01
0E
b1100 !
b1100 '
1O
02
0F
1P
0*
0>
1H
b1100 #
b1100 &
b1100 $
#130
b1101 !
b1101 '
11
12
1*
b1101 #
b1101 &
b1101 $
#140
01
b1110 !
b1110 '
1E
02
1F
0*
1>
b1110 #
b1110 &
b1110 $
#150
b1111 !
b1111 '
11
12
1*
b1111 #
b1111 &
b1111 $
#160
0E
0O
b1 !
b1 '
0;
0F
0P
0<
1)
0*
0>
0H
04
b1 "
b1 %
b0 #
b0 &
b10000 $
#170
1E
1A
b1 (
1.
b10 !
b10 '
01
10
02
1/
1*
b1 #
b1 &
b10001 $
#180
0O
0A
0K
0.
b0 (
0B
11
00
b11 !
b11 '
1E
0D
12
0/
1F
0?
0*
1>
b10 #
b10 &
b10010 $
#190
1O
1K
1B
1D
0E
1?
1A
b11 (
1.
b100 !
b100 '
01
10
02
1/
1*
b11 #
b11 &
b10011 $
#200
0;
0A
0K
07
0.
0B
b0 (
0L
11
00
0E
0D
b101 !
b101 '
1O
0N
12
0/
0F
0?
1P
0I
0*
0>
1H
b100 #
b100 &
b10100 $
#210
1E
1A
b1 (
1.
b110 !
b110 '
01
10
02
1/
1*
b101 #
b101 &
b10101 $
#220
0;
07
0L
0N
1O
0I
0A
0K
0.
b0 (
0B
11
00
b111 !
b111 '
1E
0D
12
0/
1F
0?
0*
1>
b110 #
b110 &
b10110 $
#230
1;
17
1L
1N
0O
1I
1K
1B
1D
0E
1?
1A
b111 (
1.
b1000 !
b1000 '
01
10
02
1/
1*
b111 #
b111 &
b10111 $
#240
0A
0K
07
0.
0B
b0 (
0L
08
11
00
0E
0D
0O
0N
b1001 !
b1001 '
1;
0:
12
0/
0F
0?
0P
0I
1<
05
0*
0>
0H
14
b1000 #
b1000 &
b11000 $
#250
1E
1A
b1 (
1.
b1010 !
b1010 '
01
10
02
1/
1*
b1001 #
b1001 &
b11001 $
#260
0O
0A
0K
0.
b0 (
0B
11
00
b1011 !
b1011 '
1E
0D
12
0/
1F
0?
0*
1>
b1010 #
b1010 &
b11010 $
#270
1O
1K
1B
1D
0E
1?
1A
b11 (
1.
b1100 !
b1100 '
01
10
02
1/
1*
b1011 #
b1011 &
b11011 $
#280
08
0:
1;
05
0A
0K
07
0.
0B
b0 (
0L
11
00
0E
0D
b1101 !
b1101 '
1O
0N
12
0/
0F
0?
1P
0I
0*
0>
1H
b1100 #
b1100 &
b11100 $
#290
1E
1A
b1 (
1.
b1110 !
b1110 '
01
10
02
1/
1*
b1101 #
b1101 &
b11101 $
#300
08
0:
1;
05
07
0L
0N
1O
0I
0A
0K
0.
b0 (
0B
11
00
b1111 !
b1111 '
1E
0D
12
0/
1F
0?
0*
1>
b1110 #
b1110 &
b11110 $
#310
18
1:
0;
15
17
1L
1N
0O
1I
1K
1B
1D
0E
1?
1A
b111 (
1.
b10000 !
b10000 '
01
10
02
1/
1*
b1111 #
b1111 &
b11111 $
#320
0K
0B
1E
0A
07
0.
b0 (
0L
08
00
0D
0O
0N
b10 !
b10 '
0;
0:
0@
0/
0?
0P
0I
0<
05
0)
1=
0*
0>
0H
04
b10 "
b10 %
b0 #
b0 &
b100000 $
#330
b11 !
b11 '
11
12
1*
b1 #
b1 &
b100001 $
#340
1O
1K
b10 (
1B
01
b100 !
b100 '
0E
1D
02
0F
1C
0*
1>
b10 #
b10 &
b100010 $
#350
b101 !
b101 '
11
12
1*
b11 #
b11 &
b100011 $
#360
0;
0K
07
0B
b0 (
0L
01
1E
0D
b110 !
b110 '
1O
0N
02
1F
0C
1P
0I
0*
0>
1H
b100 #
b100 &
b100100 $
#370
b111 !
b111 '
11
12
1*
b101 #
b101 &
b100101 $
#380
1;
17
1L
1N
0O
1I
1K
b110 (
1B
01
b1000 !
b1000 '
0E
1D
02
0F
1C
0*
1>
b110 #
b110 &
b100110 $
#390
b1001 !
b1001 '
11
12
1*
b111 #
b111 &
b100111 $
#400
0K
07
0B
b0 (
0L
08
01
1E
0D
0O
0N
b1010 !
b1010 '
1;
0:
02
1F
0C
0P
0I
1<
05
0*
0>
0H
14
b1000 #
b1000 &
b101000 $
#410
b1011 !
b1011 '
11
12
1*
b1001 #
b1001 &
b101001 $
#420
1O
1K
b10 (
1B
01
b1100 !
b1100 '
0E
1D
02
0F
1C
0*
1>
b1010 #
b1010 &
b101010 $
#430
b1101 !
b1101 '
11
12
1*
b1011 #
b1011 &
b101011 $
#440
08
0:
1;
05
0K
07
0B
b0 (
0L
01
1E
0D
b1110 !
b1110 '
1O
0N
02
1F
0C
1P
0I
0*
0>
1H
b1100 #
b1100 &
b101100 $
#450
b1111 !
b1111 '
11
12
1*
b1101 #
b1101 &
b101101 $
#460
18
1:
0;
15
17
1L
1N
0O
1I
1K
b110 (
1B
01
b10000 !
b10000 '
0E
1D
02
0F
1C
0*
1>
b1110 #
b1110 &
b101110 $
#470
b10001 !
b10001 '
11
12
1*
b1111 #
b1111 &
b101111 $
#480
0K
07
0B
b0 (
0L
08
1E
0D
0O
0N
b11 !
b11 '
0;
0:
1F
0C
0P
0I
0<
05
1)
0*
0>
0H
04
b11 "
b11 %
b0 #
b0 &
b110000 $
#490
1O
1K
1B
0E
1@
1A
b11 (
1.
b100 !
b100 '
01
10
02
1/
1*
b1 #
b1 &
b110001 $
#500
0@
0A
b10 (
0.
11
00
b101 !
b101 '
0E
1D
12
0/
0F
1C
0?
0*
1>
b10 #
b10 &
b110010 $
#510
1E
1?
1@
1A
b11 (
1.
b110 !
b110 '
01
10
02
1/
1*
b11 #
b11 &
b110011 $
#520
0K
0B
0@
0;
0A
07
0.
b0 (
0L
11
00
1E
0D
b111 !
b111 '
1O
0N
12
0/
1F
0C
0?
1P
0I
0*
0>
1H
b100 #
b100 &
b110100 $
#530
1;
17
1L
1N
0O
1I
1K
1B
0E
1@
1A
b111 (
1.
b1000 !
b1000 '
01
10
02
1/
1*
b101 #
b101 &
b110101 $
#540
0@
0A
b110 (
0.
11
00
b1001 !
b1001 '
0E
1D
12
0/
0F
1C
0?
0*
1>
b110 #
b110 &
b110110 $
#550
1E
1?
1@
1A
b111 (
1.
b1010 !
b1010 '
01
10
02
1/
1*
b111 #
b111 &
b110111 $
#560
0K
0B
0@
0A
07
0.
b0 (
0L
08
11
00
1E
0D
0O
0N
b1011 !
b1011 '
1;
0:
12
0/
1F
0C
0?
0P
0I
1<
05
0*
0>
0H
14
b1000 #
b1000 &
b111000 $
#570
1O
1K
1B
0E
1@
1A
b11 (
1.
b1100 !
b1100 '
01
10
02
1/
1*
b1001 #
b1001 &
b111001 $
#580
0@
0A
b10 (
0.
11
00
b1101 !
b1101 '
0E
1D
12
0/
0F
1C
0?
0*
1>
b1010 #
b1010 &
b111010 $
#590
1E
1?
1@
1A
b11 (
1.
b1110 !
b1110 '
01
10
02
1/
1*
b1011 #
b1011 &
b111011 $
#600
0K
08
0B
0:
0@
1;
05
0A
07
0.
b0 (
0L
11
00
1E
0D
b1111 !
b1111 '
1O
0N
12
0/
1F
0C
0?
1P
0I
0*
0>
1H
b1100 #
b1100 &
b111100 $
#610
18
1:
0;
15
17
1L
1N
0O
1I
1K
1B
0E
1@
1A
b111 (
1.
b10000 !
b10000 '
01
10
02
1/
1*
b1101 #
b1101 &
b111101 $
#620
0@
0A
b110 (
0.
11
00
b10001 !
b10001 '
0E
1D
12
0/
0F
1C
0?
0*
1>
b1110 #
b1110 &
b111110 $
#630
1E
1?
1@
1A
b111 (
1.
b10010 !
b10010 '
01
10
02
1/
1*
b1111 #
b1111 &
b111111 $
#640
07
0L
0E
1O
0A
0K
0.
08
b0 (
0B
00
0D
0N
b100 !
b100 '
0;
0:
0@
0J
0/
0C
0?
0I
0<
05
0)
0=
1G
0*
0>
0H
04
b100 "
b100 %
b0 #
b0 &
b1000000 $
#650
b101 !
b101 '
11
12
1*
b1 #
b1 &
b1000001 $
#660
01
b110 !
b110 '
1E
02
1F
0*
1>
b10 #
b10 &
b1000010 $
#670
b111 !
b111 '
11
12
1*
b11 #
b11 &
b1000011 $
#680
1;
17
b100 (
1L
01
0E
b1000 !
b1000 '
0O
1N
02
0F
0P
1M
0*
0>
1H
b100 #
b100 &
b1000100 $
#690
b1001 !
b1001 '
11
12
1*
b101 #
b101 &
b1000101 $
#700
01
b1010 !
b1010 '
1E
02
1F
0*
1>
b110 #
b110 &
b1000110 $
#710
b1011 !
b1011 '
11
12
1*
b111 #
b111 &
b1000111 $
#720
07
b0 (
0L
08
01
0E
1O
0N
b1100 !
b1100 '
1;
0:
02
0F
1P
0M
1<
05
0*
0>
0H
14
b1000 #
b1000 &
b1001000 $
#730
b1101 !
b1101 '
11
12
1*
b1001 #
b1001 &
b1001001 $
#740
01
b1110 !
b1110 '
1E
02
1F
0*
1>
b1010 #
b1010 &
b1001010 $
#750
b1111 !
b1111 '
11
12
1*
b1011 #
b1011 &
b1001011 $
#760
18
1:
0;
15
17
b100 (
1L
01
0E
b10000 !
b10000 '
0O
1N
02
0F
0P
1M
0*
0>
1H
b1100 #
b1100 &
b1001100 $
#770
b10001 !
b10001 '
11
12
1*
b1101 #
b1101 &
b1001101 $
#780
01
b10010 !
b10010 '
1E
02
1F
0*
1>
b1110 #
b1110 &
b1001110 $
#790
b10011 !
b10011 '
11
12
1*
b1111 #
b1111 &
b1001111 $
#800
07
b0 (
0L
08
0E
1O
0N
b101 !
b101 '
0;
0:
0F
1P
0M
0<
05
1)
0*
0>
0H
04
b101 "
b101 %
b0 #
b0 &
b1010000 $
#810
1E
1A
b1 (
1.
b110 !
b110 '
01
10
02
1/
1*
b1 #
b1 &
b1010001 $
#820
0;
07
0L
1O
0J
0A
0K
0.
b0 (
0B
11
00
b111 !
b111 '
1E
0D
12
0/
1F
0?
0*
1>
b10 #
b10 &
b1010010 $
#830
1;
17
1L
0O
1J
1K
1B
1D
0E
1?
1A
b111 (
1.
b1000 !
b1000 '
01
10
02
1/
1*
b11 #
b11 &
b1010011 $
#840
0J
0A
0K
0.
b100 (
0B
11
00
0E
0D
b1001 !
b1001 '
0O
1N
12
0/
0F
0?
0P
1M
0I
0*
0>
1H
b100 #
b100 &
b1010100 $
#850
1E
1A
b101 (
1.
b1010 !
b1010 '
01
10
02
1/
1*
b101 #
b101 &
b1010101 $
#860
0O
0I
0J
0A
0K
0.
b100 (
0B
11
00
b1011 !
b1011 '
1E
0D
12
0/
1F
0?
0*
1>
b110 #
b110 &
b1010110 $
#870
1O
1I
1J
1K
1B
1D
0E
1?
1A
b111 (
1.
b1100 !
b1100 '
01
10
02
1/
1*
b111 #
b111 &
b1010111 $
#880
07
0L
0J
0A
0K
0.
b0 (
0B
08
11
00
0E
0D
1O
0N
b1101 !
b1101 '
1;
0:
12
0/
0F
0?
1P
0M
0I
1<
05
0*
0>
0H
14
b1000 #
b1000 &
b1011000 $
#890
1E
1A
b1 (
1.
b1110 !
b1110 '
01
10
02
1/
1*
b1001 #
b1001 &
b1011001 $
#900
08
0:
1;
05
07
0L
1O
0J
0A
0K
0.
b0 (
0B
11
00
b1111 !
b1111 '
1E
0D
12
0/
1F
0?
0*
1>
b1010 #
b1010 &
b1011010 $
#910
18
1:
0;
15
17
1L
0O
1J
1K
1B
1D
0E
1?
1A
b111 (
1.
b10000 !
b10000 '
01
10
02
1/
1*
b1011 #
b1011 &
b1011011 $
#920
0J
0A
0K
0.
b100 (
0B
11
00
0E
0D
b10001 !
b10001 '
0O
1N
12
0/
0F
0?
0P
1M
0I
0*
0>
1H
b1100 #
b1100 &
b1011100 $
#930
1E
1A
b101 (
1.
b10010 !
b10010 '
01
10
02
1/
1*
b1101 #
b1101 &
b1011101 $
#940
0O
0I
0J
0A
0K
0.
b100 (
0B
11
00
b10011 !
b10011 '
1E
0D
12
0/
1F
0?
0*
1>
b1110 #
b1110 &
b1011110 $
#950
1O
1I
1J
1K
1B
1D
0E
1?
1A
b111 (
1.
b10100 !
b10100 '
01
10
02
1/
1*
b1111 #
b1111 &
b1011111 $
#960
07
0L
0J
0K
0B
1E
0A
b0 (
0.
08
00
0D
1O
0N
b110 !
b110 '
0;
0:
0@
0/
0?
1P
0M
0I
0<
05
0)
1=
0*
0>
0H
04
b110 "
b110 %
b0 #
b0 &
b1100000 $
#970
b111 !
b111 '
11
12
1*
b1 #
b1 &
b1100001 $
#980
1;
17
1L
0O
1J
1K
b110 (
1B
01
b1000 !
b1000 '
0E
1D
02
0F
1C
0*
1>
b10 #
b10 &
b1100010 $
#990
b1001 !
b1001 '
11
12
1*
b11 #
b11 &
b1100011 $
#1000
0J
0K
b100 (
0B
01
1E
0D
b1010 !
b1010 '
0O
1N
02
1F
0C
0P
1M
0I
0*
0>
1H
b100 #
b100 &
b1100100 $
#1010
b1011 !
b1011 '
11
12
1*
b101 #
b101 &
b1100101 $
#1020
1O
1I
1J
1K
b110 (
1B
01
b1100 !
b1100 '
0E
1D
02
0F
1C
0*
1>
b110 #
b110 &
b1100110 $
#1030
b1101 !
b1101 '
11
12
1*
b111 #
b111 &
b1100111 $
#1040
07
0L
0J
0K
b0 (
0B
08
01
1E
0D
1O
0N
b1110 !
b1110 '
1;
0:
02
1F
0C
1P
0M
0I
1<
05
0*
0>
0H
14
b1000 #
b1000 &
b1101000 $
#1050
b1111 !
b1111 '
11
12
1*
b1001 #
b1001 &
b1101001 $
#1060
18
1:
0;
15
17
1L
0O
1J
1K
b110 (
1B
01
b10000 !
b10000 '
0E
1D
02
0F
1C
0*
1>
b1010 #
b1010 &
b1101010 $
#1070
b10001 !
b10001 '
11
12
1*
b1011 #
b1011 &
b1101011 $
#1080
0J
0K
b100 (
0B
01
1E
0D
b10010 !
b10010 '
0O
1N
02
1F
0C
0P
1M
0I
0*
0>
1H
b1100 #
b1100 &
b1101100 $
#1090
b10011 !
b10011 '
11
12
1*
b1101 #
b1101 &
b1101101 $
#1100
1O
1I
1J
1K
b110 (
1B
01
b10100 !
b10100 '
0E
1D
02
0F
1C
0*
1>
b1110 #
b1110 &
b1101110 $
#1110
b10101 !
b10101 '
11
12
1*
b1111 #
b1111 &
b1101111 $
#1120
07
0L
0J
0K
b0 (
0B
08
1E
0D
1O
0N
b111 !
b111 '
0;
0:
1F
0C
1P
0M
0I
0<
05
1)
0*
0>
0H
04
b111 "
b111 %
b0 #
b0 &
b1110000 $
#1130
1;
17
1L
0O
1J
1K
1B
0E
1@
1A
b111 (
1.
b1000 !
b1000 '
01
10
02
1/
1*
b1 #
b1 &
b1110001 $
#1140
0@
0A
b110 (
0.
11
00
b1001 !
b1001 '
0E
1D
12
0/
0F
1C
0?
0*
1>
b10 #
b10 &
b1110010 $
#1150
1E
1?
1@
1A
b111 (
1.
b1010 !
b1010 '
01
10
02
1/
1*
b11 #
b11 &
b1110011 $
#1160
0J
0K
0B
0@
0A
b100 (
0.
11
00
1E
0D
b1011 !
b1011 '
0O
1N
12
0/
1F
0C
0?
0P
1M
0I
0*
0>
1H
b100 #
b100 &
b1110100 $
#1170
1O
1I
1J
1K
1B
0E
1@
1A
b111 (
1.
b1100 !
b1100 '
01
10
02
1/
1*
b101 #
b101 &
b1110101 $
#1180
0@
0A
b110 (
0.
11
00
b1101 !
b1101 '
0E
1D
12
0/
0F
1C
0?
0*
1>
b110 #
b110 &
b1110110 $
#1190
1E
1?
1@
1A
b111 (
1.
b1110 !
b1110 '
01
10
02
1/
1*
b111 #
b111 &
b1110111 $
#1200
07
0L
0J
0K
0B
0@
0A
b0 (
0.
08
11
00
1E
0D
1O
0N
b1111 !
b1111 '
1;
0:
12
0/
1F
0C
0?
1P
0M
0I
1<
05
0*
0>
0H
14
b1000 #
b1000 &
b1111000 $
#1210
18
1:
0;
15
17
1L
0O
1J
1K
1B
0E
1@
1A
b111 (
1.
b10000 !
b10000 '
01
10
02
1/
1*
b1001 #
b1001 &
b1111001 $
#1220
0@
0A
b110 (
0.
11
00
b10001 !
b10001 '
0E
1D
12
0/
0F
1C
0?
0*
1>
b1010 #
b1010 &
b1111010 $
#1230
1E
1?
1@
1A
b111 (
1.
b10010 !
b10010 '
01
10
02
1/
1*
b1011 #
b1011 &
b1111011 $
#1240
0J
0K
0B
0@
0A
b100 (
0.
11
00
1E
0D
b10011 !
b10011 '
0O
1N
12
0/
1F
0C
0?
0P
1M
0I
0*
0>
1H
b1100 #
b1100 &
b1111100 $
#1250
1O
1I
1J
1K
1B
0E
1@
1A
b111 (
1.
b10100 !
b10100 '
01
10
02
1/
1*
b1101 #
b1101 &
b1111101 $
#1260
0@
0A
b110 (
0.
11
00
b10101 !
b10101 '
0E
1D
12
0/
0F
1C
0?
0*
1>
b1110 #
b1110 &
b1111110 $
#1270
1E
1?
1@
1A
b111 (
1.
b10110 !
b10110 '
01
10
02
1/
1*
b1111 #
b1111 &
b1111111 $
#1280
08
0E
0O
b1000 !
b1000 '
1;
0A
0K
07
0.
0B
b0 (
0L
00
0D
0N
0:
0@
0J
06
0/
0C
0?
0M
0I
05
0)
0=
0G
13
0*
0>
0H
04
b1000 "
b1000 %
b0 #
b0 &
b10000000 $
#1290
b1001 !
b1001 '
11
12
1*
b1 #
b1 &
b10000001 $
#1300
01
b1010 !
b1010 '
1E
02
1F
0*
1>
b10 #
b10 &
b10000010 $
#1310
b1011 !
b1011 '
11
12
1*
b11 #
b11 &
b10000011 $
#1320
01
0E
b1100 !
b1100 '
1O
02
0F
1P
0*
0>
1H
b100 #
b100 &
b10000100 $
#1330
b1101 !
b1101 '
11
12
1*
b101 #
b101 &
b10000101 $
#1340
01
b1110 !
b1110 '
1E
02
1F
0*
1>
b110 #
b110 &
b10000110 $
#1350
b1111 !
b1111 '
11
12
1*
b111 #
b111 &
b10000111 $
#1360
18
01
0E
0O
b10000 !
b10000 '
0;
1:
02
0F
0P
0<
19
0*
0>
0H
14
b1000 #
b1000 &
b10001000 $
#1370
b10001 !
b10001 '
11
12
1*
b1001 #
b1001 &
b10001001 $
#1380
01
b10010 !
b10010 '
1E
02
1F
0*
1>
b1010 #
b1010 &
b10001010 $
#1390
b10011 !
b10011 '
11
12
1*
b1011 #
b1011 &
b10001011 $
#1400
01
0E
b10100 !
b10100 '
1O
02
0F
1P
0*
0>
1H
b1100 #
b1100 &
b10001100 $
#1410
b10101 !
b10101 '
11
12
1*
b1101 #
b1101 &
b10001101 $
#1420
01
b10110 !
b10110 '
1E
02
1F
0*
1>
b1110 #
b1110 &
b10001110 $
#1430
b10111 !
b10111 '
11
12
1*
b1111 #
b1111 &
b10001111 $
#1440
08
0E
0O
b1001 !
b1001 '
1;
0:
0F
0P
1<
09
1)
0*
0>
0H
04
b1001 "
b1001 %
b0 #
b0 &
b10010000 $
#1450
1E
1A
b1 (
1.
b1010 !
b1010 '
01
10
02
1/
1*
b1 #
b1 &
b10010001 $
#1460
0O
0A
0K
0.
b0 (
0B
11
00
b1011 !
b1011 '
1E
0D
12
0/
1F
0?
0*
1>
b10 #
b10 &
b10010010 $
#1470
1O
1K
1B
1D
0E
1?
1A
b11 (
1.
b1100 !
b1100 '
01
10
02
1/
1*
b11 #
b11 &
b10010011 $
#1480
08
1;
06
0A
0K
07
0.
0B
b0 (
0L
11
00
0E
0D
b1101 !
b1101 '
1O
0N
12
0/
0F
0?
1P
0I
0*
0>
1H
b100 #
b100 &
b10010100 $
#1490
1E
1A
b1 (
1.
b1110 !
b1110 '
01
10
02
1/
1*
b101 #
b101 &
b10010101 $
#1500
08
1;
06
07
0L
0N
1O
0I
0A
0K
0.
b0 (
0B
11
00
b1111 !
b1111 '
1E
0D
12
0/
1F
0?
0*
1>
b110 #
b110 &
b10010110 $
#1510
18
0;
16
17
1L
1N
0O
1I
1K
1B
1D
0E
1?
1A
b111 (
1.
b10000 !
b10000 '
01
10
02
1/
1*
b111 #
b111 &
b10010111 $
#1520
06
0A
0K
07
0.
0B
b0 (
0L
11
00
0E
0D
0O
0N
b10001 !
b10001 '
0;
1:
12
0/
0F
0?
0P
0I
0<
19
05
0*
0>
0H
14
b1000 #
b1000 &
b10011000 $
#1530
1E
1A
b1 (
1.
b10010 !
b10010 '
01
10
02
1/
1*
b1001 #
b1001 &
b10011001 $
#1540
0O
0A
0K
0.
b0 (
0B
11
00
b10011 !
b10011 '
1E
0D
12
0/
1F
0?
0*
1>
b1010 #
b1010 &
b10011010 $
#1550
1O
1K
1B
1D
0E
1?
1A
b11 (
1.
b10100 !
b10100 '
01
10
02
1/
1*
b1011 #
b1011 &
b10011011 $
#1560
0;
05
06
0A
0K
07
0.
0B
b0 (
0L
11
00
0E
0D
b10101 !
b10101 '
1O
0N
12
0/
0F
0?
1P
0I
0*
0>
1H
b1100 #
b1100 &
b10011100 $
#1570
1E
1A
b1 (
1.
b10110 !
b10110 '
01
10
02
1/
1*
b1101 #
b1101 &
b10011101 $
#1580
0;
05
06
07
0L
0N
1O
0I
0A
0K
0.
b0 (
0B
11
00
b10111 !
b10111 '
1E
0D
12
0/
1F
0?
0*
1>
b1110 #
b1110 &
b10011110 $
#1590
1;
15
16
17
1L
1N
0O
1I
1K
1B
1D
0E
1?
1A
b111 (
1.
b11000 !
b11000 '
01
10
02
1/
1*
b1111 #
b1111 &
b10011111 $
#1600
0K
0B
08
1E
06
0A
07
0.
b0 (
0L
00
0D
0O
0N
b1010 !
b1010 '
1;
0:
0@
0/
0?
0P
0I
1<
09
05
0)
1=
0*
0>
0H
04
b1010 "
b1010 %
b0 #
b0 &
b10100000 $
#1610
b1011 !
b1011 '
11
12
1*
b1 #
b1 &
b10100001 $
#1620
1O
1K
b10 (
1B
01
b1100 !
b1100 '
0E
1D
02
0F
1C
0*
1>
b10 #
b10 &
b10100010 $
#1630
b1101 !
b1101 '
11
12
1*
b11 #
b11 &
b10100011 $
#1640
08
1;
06
0K
07
0B
b0 (
0L
01
1E
0D
b1110 !
b1110 '
1O
0N
02
1F
0C
1P
0I
0*
0>
1H
b100 #
b100 &
b10100100 $
#1650
b1111 !
b1111 '
11
12
1*
b101 #
b101 &
b10100101 $
#1660
18
0;
16
17
1L
1N
0O
1I
1K
b110 (
1B
01
b10000 !
b10000 '
0E
1D
02
0F
1C
0*
1>
b110 #
b110 &
b10100110 $
#1670
b10001 !
b10001 '
11
12
1*
b111 #
b111 &
b10100111 $
#1680
06
0K
07
0B
b0 (
0L
01
1E
0D
0O
0N
b10010 !
b10010 '
0;
1:
02
1F
0C
0P
0I
0<
19
05
0*
0>
0H
14
b1000 #
b1000 &
b10101000 $
#1690
b10011 !
b10011 '
11
12
1*
b1001 #
b1001 &
b10101001 $
#1700
1O
1K
b10 (
1B
01
b10100 !
b10100 '
0E
1D
02
0F
1C
0*
1>
b1010 #
b1010 &
b10101010 $
#1710
b10101 !
b10101 '
11
12
1*
b1011 #
b1011 &
b10101011 $
#1720
0;
05
06
0K
07
0B
b0 (
0L
01
1E
0D
b10110 !
b10110 '
1O
0N
02
1F
0C
1P
0I
0*
0>
1H
b1100 #
b1100 &
b10101100 $
#1730
b10111 !
b10111 '
11
12
1*
b1101 #
b1101 &
b10101101 $
#1740
1;
15
16
17
1L
1N
0O
1I
1K
b110 (
1B
01
b11000 !
b11000 '
0E
1D
02
0F
1C
0*
1>
b1110 #
b1110 &
b10101110 $
#1750
b11001 !
b11001 '
11
12
1*
b1111 #
b1111 &
b10101111 $
#1760
08
06
0K
07
0B
b0 (
0L
1E
0D
0O
0N
b1011 !
b1011 '
1;
0:
1F
0C
0P
0I
1<
09
05
1)
0*
0>
0H
04
b1011 "
b1011 %
b0 #
b0 &
b10110000 $
#1770
1O
1K
1B
0E
1@
1A
b11 (
1.
b1100 !
b1100 '
01
10
02
1/
1*
b1 #
b1 &
b10110001 $
#1780
0@
0A
b10 (
0.
11
00
b1101 !
b1101 '
0E
1D
12
0/
0F
1C
0?
0*
1>
b10 #
b10 &
b10110010 $
#1790
1E
1?
1@
1A
b11 (
1.
b1110 !
b1110 '
01
10
02
1/
1*
b11 #
b11 &
b10110011 $
#1800
0K
0B
08
0@
1;
06
0A
07
0.
b0 (
0L
11
00
1E
0D
b1111 !
b1111 '
1O
0N
12
0/
1F
0C
0?
1P
0I
0*
0>
1H
b100 #
b100 &
b10110100 $
#1810
18
0;
16
17
1L
1N
0O
1I
1K
1B
0E
1@
1A
b111 (
1.
b10000 !
b10000 '
01
10
02
1/
1*
b101 #
b101 &
b10110101 $
#1820
0@
0A
b110 (
0.
11
00
b10001 !
b10001 '
0E
1D
12
0/
0F
1C
0?
0*
1>
b110 #
b110 &
b10110110 $
#1830
1E
1?
1@
1A
b111 (
1.
b10010 !
b10010 '
01
10
02
1/
1*
b111 #
b111 &
b10110111 $
#1840
0K
0B
0@
06
0A
07
0.
b0 (
0L
11
00
1E
0D
0O
0N
b10011 !
b10011 '
0;
1:
12
0/
1F
0C
0?
0P
0I
0<
19
05
0*
0>
0H
14
b1000 #
b1000 &
b10111000 $
#1850
1O
1K
1B
0E
1@
1A
b11 (
1.
b10100 !
b10100 '
01
10
02
1/
1*
b1001 #
b1001 &
b10111001 $
#1860
0@
0A
b10 (
0.
11
00
b10101 !
b10101 '
0E
1D
12
0/
0F
1C
0?
0*
1>
b1010 #
b1010 &
b10111010 $
#1870
1E
1?
1@
1A
b11 (
1.
b10110 !
b10110 '
01
10
02
1/
1*
b1011 #
b1011 &
b10111011 $
#1880
0K
0B
0@
0;
05
06
0A
07
0.
b0 (
0L
11
00
1E
0D
b10111 !
b10111 '
1O
0N
12
0/
1F
0C
0?
1P
0I
0*
0>
1H
b1100 #
b1100 &
b10111100 $
#1890
1;
15
16
17
1L
1N
0O
1I
1K
1B
0E
1@
1A
b111 (
1.
b11000 !
b11000 '
01
10
02
1/
1*
b1101 #
b1101 &
b10111101 $
#1900
0@
0A
b110 (
0.
11
00
b11001 !
b11001 '
0E
1D
12
0/
0F
1C
0?
0*
1>
b1110 #
b1110 &
b10111110 $
#1910
1E
1?
1@
1A
b111 (
1.
b11010 !
b11010 '
01
10
02
1/
1*
b1111 #
b1111 &
b10111111 $
#1920
08
06
07
0L
0E
1O
0A
0K
0.
b0 (
0B
00
0D
0N
b1100 !
b1100 '
1;
0:
0@
0J
0/
0C
0?
0I
1<
09
05
0)
0=
1G
0*
0>
0H
04
b1100 "
b1100 %
b0 #
b0 &
b11000000 $
#1930
b1101 !
b1101 '
11
12
1*
b1 #
b1 &
b11000001 $
#1940
01
b1110 !
b1110 '
1E
02
1F
0*
1>
b10 #
b10 &
b11000010 $
#1950
b1111 !
b1111 '
11
12
1*
b11 #
b11 &
b11000011 $
#1960
18
0;
16
17
b100 (
1L
01
0E
b10000 !
b10000 '
0O
1N
02
0F
0P
1M
0*
0>
1H
b100 #
b100 &
b11000100 $
#1970
b10001 !
b10001 '
11
12
1*
b101 #
b101 &
b11000101 $
#1980
01
b10010 !
b10010 '
1E
02
1F
0*
1>
b110 #
b110 &
b11000110 $
